%YAML 1.1
%TAG !u! tag:unity3d.com,2011:
--- !u!114 &11400000
MonoBehaviour:
  m_ObjectHideFlags: 0
  m_PrefabParentObject: {fileID: 0}
  m_PrefabInternal: {fileID: 0}
  m_GameObject: {fileID: 0}
  m_Enabled: 1
  m_EditorHideFlags: 0
  m_Script: {fileID: 11500000, guid: b23f08d2ae4cba14087c1ed36193d82b, type: 3}
  m_Name: Golem BT
  m_EditorClassIdentifier: 
  mBehaviorSource:
    behaviorName: Behavior
    behaviorDescription: 
    mTaskData:
      types: []
      parentIndex: 
      startIndex: 
      variableStartIndex: 
      JSONSerialization: "{\n\t\"EntryTask\":{\n\t\t\"Type\":\"BehaviorDesigner.Runtime.Tasks.EntryTask\",\n\t\t\"NodeData\":{\n\t\t\t\"Offset\":\"(0,0)\"\n\t\t},\n\t\t\"ID\":0,\n\t\t\"Name\":\"Entry\",\n\t\t\"Instant\":true\n\t},\n\t\"RootTask\":{\n\t\t\"Type\":\"BehaviorDesigner.Runtime.Tasks.Selector\",\n\t\t\"NodeData\":{\n\t\t\t\"Offset\":\"(-2.92680168,139.024429)\"\n\t\t},\n\t\t\"ID\":1,\n\t\t\"Name\":\"Selector\",\n\t\t\"Instant\":true,\n\t\t\"AbortTypeabortType\":\"None\",\n\t\t\"Children\":[{\n\t\t\t\"Type\":\"BehaviorDesigner.Runtime.Tasks.Sequence\",\n\t\t\t\"NodeData\":{\n\t\t\t\t\"Offset\":\"(-128.673157,108.388519)\"\n\t\t\t},\n\t\t\t\"ID\":2,\n\t\t\t\"Name\":\"Sequence\",\n\t\t\t\"Instant\":true,\n\t\t\t\"AbortTypeabortType\":\"None\",\n\t\t\t\"Children\":[{\n\t\t\t\t\"Type\":\"BT_Stunned\",\n\t\t\t\t\"NodeData\":{\n\t\t\t\t\t\"Offset\":\"(-611.4611,114.63427)\"\n\t\t\t\t},\n\t\t\t\t\"ID\":3,\n\t\t\t\t\"Name\":\"BT
        \  Stunned\",\n\t\t\t\t\"Instant\":true,\n\t\t\t\t\"InterruptinterruptTasks\":7\n\t\t\t},{\n\t\t\t\t\"Type\":\"BT_TargetSelection\",\n\t\t\t\t\"NodeData\":{\n\t\t\t\t\t\"Offset\":\"(-472.618835,114.375)\"\n\t\t\t\t},\n\t\t\t\t\"ID\":4,\n\t\t\t\t\"Name\":\"BT
        \  Target Selection\",\n\t\t\t\t\"Instant\":true,\n\t\t\t\t\"SharedGameObjecttarget\":{\n\t\t\t\t\t\"Type\":\"BehaviorDesigner.Runtime.SharedGameObject\",\n\t\t\t\t\t\"Name\":\"Target\",\n\t\t\t\t\t\"IsShared\":true\n\t\t\t\t},\n\t\t\t\t\"SharedGameObjectself\":{\n\t\t\t\t\t\"Type\":\"BehaviorDesigner.Runtime.SharedGameObject\",\n\t\t\t\t\t\"Name\":\"self\",\n\t\t\t\t\t\"IsShared\":true\n\t\t\t\t},\n\t\t\t\t\"SharedFloatrange\":{\n\t\t\t\t\t\"Type\":\"BehaviorDesigner.Runtime.SharedFloat\",\n\t\t\t\t\t\"Name\":\"targetSelectionRange\",\n\t\t\t\t\t\"IsShared\":true,\n\t\t\t\t\t\"SinglemValue\":0\n\t\t\t\t},\n\t\t\t\t\"SharedFloatrangeToStop\":{\n\t\t\t\t\t\"Type\":\"BehaviorDesigner.Runtime.SharedFloat\",\n\t\t\t\t\t\"Name\":\"targetSelectionRangeStop\",\n\t\t\t\t\t\"IsShared\":true,\n\t\t\t\t\t\"SinglemValue\":0\n\t\t\t\t},\n\t\t\t\t\"SingletimeToChange\":1,\n\t\t\t\t\"SinglemaxYDistance\":2,\n\t\t\t\t\"Singlethreshold\":1.3,\n\t\t\t\t\"SinglemaxAggro\":50,\n\t\t\t\t\"SinglemaxAbility\":50,\n\t\t\t\t\"BooleandirectionBetween0And1\":false,\n\t\t\t\t\"SinglepDistance2DToTarget\":2,\n\t\t\t\t\"SinglepYDistance\":0,\n\t\t\t\t\"SinglepTargetHealth\":0.5,\n\t\t\t\t\"SinglepTargetAbility\":1,\n\t\t\t\t\"SinglepTargetAggro\":2,\n\t\t\t\t\"SinglepTargetEnergy\":0.2,\n\t\t\t\t\"SinglepTargetState\":0,\n\t\t\t\t\"SinglepTargetDirection\":0.7\n\t\t\t},{\n\t\t\t\t\"Type\":\"BT_Golem_Emerge\",\n\t\t\t\t\"NodeData\":{\n\t\t\t\t\t\"Offset\":\"(-313.4636,117.338173)\"\n\t\t\t\t},\n\t\t\t\t\"ID\":5,\n\t\t\t\t\"Name\":\"BT
        \  Golem   Emerge\",\n\t\t\t\t\"Instant\":true,\n\t\t\t\t\"SharedBoolemerged\":{\n\t\t\t\t\t\"Type\":\"BehaviorDesigner.Runtime.SharedBool\",\n\t\t\t\t\t\"Name\":null,\n\t\t\t\t\t\"BooleanmValue\":false\n\t\t\t\t},\n\t\t\t\t\"SharedGameObjecttarget\":{\n\t\t\t\t\t\"Type\":\"BehaviorDesigner.Runtime.SharedGameObject\",\n\t\t\t\t\t\"Name\":null\n\t\t\t\t}\n\t\t\t},{\n\t\t\t\t\"Type\":\"BT_DistanceToTarget\",\n\t\t\t\t\"NodeData\":{\n\t\t\t\t\t\"Offset\":\"(-135.509979,121.570122)\"\n\t\t\t\t},\n\t\t\t\t\"ID\":6,\n\t\t\t\t\"Name\":\"BT
        \  Distance To Target\",\n\t\t\t\t\"Instant\":true,\n\t\t\t\t\"SharedGameObjecttarget\":{\n\t\t\t\t\t\"Type\":\"BehaviorDesigner.Runtime.SharedGameObject\",\n\t\t\t\t\t\"Name\":\"Target\",\n\t\t\t\t\t\"IsShared\":true\n\t\t\t\t},\n\t\t\t\t\"SharedFloatdistance\":{\n\t\t\t\t\t\"Type\":\"BehaviorDesigner.Runtime.SharedFloat\",\n\t\t\t\t\t\"Name\":\"distance\",\n\t\t\t\t\t\"IsShared\":true,\n\t\t\t\t\t\"SinglemValue\":0\n\t\t\t\t},\n\t\t\t\t\"SharedVector3targetPosition\":{\n\t\t\t\t\t\"Type\":\"BehaviorDesigner.Runtime.SharedVector3\",\n\t\t\t\t\t\"Name\":\"targetPosition\",\n\t\t\t\t\t\"IsShared\":true,\n\t\t\t\t\t\"Vector3mValue\":\"(0,0,0)\"\n\t\t\t\t}\n\t\t\t},{\n\t\t\t\t\"Type\":\"BehaviorDesigner.Runtime.Tasks.Interrupt\",\n\t\t\t\t\"NodeData\":{\n\t\t\t\t\t\"Offset\":\"(67.4365845,158.906189)\"\n\t\t\t\t},\n\t\t\t\t\"ID\":7,\n\t\t\t\t\"Name\":\"Interrupt\",\n\t\t\t\t\"Instant\":true,\n\t\t\t\t\"Children\":[{\n\t\t\t\t\t\"Type\":\"BehaviorDesigner.Runtime.Tasks.Selector\",\n\t\t\t\t\t\"NodeData\":{\n\t\t\t\t\t\t\"Offset\":\"(-1.21213913,126.060623)\"\n\t\t\t\t\t},\n\t\t\t\t\t\"ID\":8,\n\t\t\t\t\t\"Name\":\"Selector\",\n\t\t\t\t\t\"Instant\":true,\n\t\t\t\t\t\"AbortTypeabortType\":\"None\",\n\t\t\t\t\t\"Children\":[{\n\t\t\t\t\t\t\"Type\":\"BehaviorDesigner.Runtime.Tasks.Sequence\",\n\t\t\t\t\t\t\"NodeData\":{\n\t\t\t\t\t\t\t\"Offset\":\"(-607.722839,165.962234)\"\n\t\t\t\t\t\t},\n\t\t\t\t\t\t\"ID\":9,\n\t\t\t\t\t\t\"Name\":\"Lanzar
        roca\",\n\t\t\t\t\t\t\"Instant\":true,\n\t\t\t\t\t\t\"AbortTypeabortType\":\"None\",\n\t\t\t\t\t\t\"Children\":[{\n\t\t\t\t\t\t\t\"Type\":\"BT_AngleToTarget\",\n\t\t\t\t\t\t\t\"NodeData\":{\n\t\t\t\t\t\t\t\t\"Offset\":\"(-363.612427,123.513519)\"\n\t\t\t\t\t\t\t},\n\t\t\t\t\t\t\t\"ID\":10,\n\t\t\t\t\t\t\t\"Name\":\"BT
        \  Angle To Target\",\n\t\t\t\t\t\t\t\"Instant\":true,\n\t\t\t\t\t\t\t\"SinglemaxAngle\":15,\n\t\t\t\t\t\t\t\"SharedGameObjecttarget\":{\n\t\t\t\t\t\t\t\t\"Type\":\"BehaviorDesigner.Runtime.SharedGameObject\",\n\t\t\t\t\t\t\t\t\"Name\":\"Target\",\n\t\t\t\t\t\t\t\t\"IsShared\":true\n\t\t\t\t\t\t\t}\n\t\t\t\t\t\t},{\n\t\t\t\t\t\t\t\"Type\":\"BT_Golem_ThrowRock\",\n\t\t\t\t\t\t\t\"NodeData\":{\n\t\t\t\t\t\t\t\t\"Offset\":\"(-257.371582,210)\"\n\t\t\t\t\t\t\t},\n\t\t\t\t\t\t\t\"ID\":11,\n\t\t\t\t\t\t\t\"Name\":\"BT
        \  Golem   Throw Rock\",\n\t\t\t\t\t\t\t\"Instant\":true,\n\t\t\t\t\t\t\t\"SharedGameObjecttarget\":{\n\t\t\t\t\t\t\t\t\"Type\":\"BehaviorDesigner.Runtime.SharedGameObject\",\n\t\t\t\t\t\t\t\t\"Name\":\"Target\",\n\t\t\t\t\t\t\t\t\"IsShared\":true\n\t\t\t\t\t\t\t},\n\t\t\t\t\t\t\t\"SharedFloatdistance\":{\n\t\t\t\t\t\t\t\t\"Type\":\"BehaviorDesigner.Runtime.SharedFloat\",\n\t\t\t\t\t\t\t\t\"Name\":\"distance\",\n\t\t\t\t\t\t\t\t\"IsShared\":true,\n\t\t\t\t\t\t\t\t\"SinglemValue\":0\n\t\t\t\t\t\t\t},\n\t\t\t\t\t\t\t\"SharedVector3aim\":{\n\t\t\t\t\t\t\t\t\"Type\":\"BehaviorDesigner.Runtime.SharedVector3\",\n\t\t\t\t\t\t\t\t\"Name\":\"aim\",\n\t\t\t\t\t\t\t\t\"IsShared\":true,\n\t\t\t\t\t\t\t\t\"Vector3mValue\":\"(0,0,0)\"\n\t\t\t\t\t\t\t},\n\t\t\t\t\t\t\t\"SharedFloatminRange\":{\n\t\t\t\t\t\t\t\t\"Type\":\"BehaviorDesigner.Runtime.SharedFloat\",\n\t\t\t\t\t\t\t\t\"Name\":\"minRockRange\",\n\t\t\t\t\t\t\t\t\"IsShared\":true,\n\t\t\t\t\t\t\t\t\"SinglemValue\":6\n\t\t\t\t\t\t\t},\n\t\t\t\t\t\t\t\"SharedFloatmaxRange\":{\n\t\t\t\t\t\t\t\t\"Type\":\"BehaviorDesigner.Runtime.SharedFloat\",\n\t\t\t\t\t\t\t\t\"Name\":\"maxRockRange\",\n\t\t\t\t\t\t\t\t\"IsShared\":true,\n\t\t\t\t\t\t\t\t\"SinglemValue\":20\n\t\t\t\t\t\t\t},\n\t\t\t\t\t\t\t\"SharedFloatdelayAfterAttack\":{\n\t\t\t\t\t\t\t\t\"Type\":\"BehaviorDesigner.Runtime.SharedFloat\",\n\t\t\t\t\t\t\t\t\"Name\":\"rockDelay\",\n\t\t\t\t\t\t\t\t\"IsShared\":true,\n\t\t\t\t\t\t\t\t\"SinglemValue\":0\n\t\t\t\t\t\t\t},\n\t\t\t\t\t\t\t\"SinglerockRadius\":1,\n\t\t\t\t\t\t\t\"SinglerockSpeed\":1,\n\t\t\t\t\t\t\t\"SingleanimationSpeed\":1,\n\t\t\t\t\t\t\t\"SinglerockLifeTime\":5,\n\t\t\t\t\t\t\t\"Int32rockDamage\":20,\n\t\t\t\t\t\t\t\"SinglerockOffset\":2,\n\t\t\t\t\t\t\t\"Booleanparable\":true,\n\t\t\t\t\t\t\t\"BooleancalcBySpeed\":true,\n\t\t\t\t\t\t\t\"SingleparableTime\":2,\n\t\t\t\t\t\t\t\"SingleparableXSpeed\":10\n\t\t\t\t\t\t},{\n\t\t\t\t\t\t\t\"Type\":\"BT_StopNavAgent\",\n\t\t\t\t\t\t\t\"NodeData\":{\n\t\t\t\t\t\t\t\t\"Offset\":\"(-162.272568,125.9068)\"\n\t\t\t\t\t\t\t},\n\t\t\t\t\t\t\t\"ID\":12,\n\t\t\t\t\t\t\t\"Name\":\"BT
        \  Stop Nav Agent\",\n\t\t\t\t\t\t\t\"Instant\":true\n\t\t\t\t\t\t},{\n\t\t\t\t\t\t\t\"Type\":\"BT_SetBoolParameterAnimator\",\n\t\t\t\t\t\t\t\"NodeData\":{\n\t\t\t\t\t\t\t\t\"Offset\":\"(-50.4550171,213.635986)\"\n\t\t\t\t\t\t\t},\n\t\t\t\t\t\t\t\"ID\":13,\n\t\t\t\t\t\t\t\"Name\":\"BT
        \  Set Bool Parameter Animator\",\n\t\t\t\t\t\t\t\"Instant\":true,\n\t\t\t\t\t\t\t\"Stringparameter\":\"walking\",\n\t\t\t\t\t\t\t\"Booleanvalue\":false\n\t\t\t\t\t\t},{\n\t\t\t\t\t\t\t\"Type\":\"BT_SetBoolParameterAnimator\",\n\t\t\t\t\t\t\t\"NodeData\":{\n\t\t\t\t\t\t\t\t\"Offset\":\"(-4.21459961,306.8407)\"\n\t\t\t\t\t\t\t},\n\t\t\t\t\t\t\t\"ID\":14,\n\t\t\t\t\t\t\t\"Name\":\"BT
        \  Set Bool Parameter Animator\",\n\t\t\t\t\t\t\t\"Instant\":true,\n\t\t\t\t\t\t\t\"Stringparameter\":\"rotating\",\n\t\t\t\t\t\t\t\"Booleanvalue\":false\n\t\t\t\t\t\t},{\n\t\t\t\t\t\t\t\"Type\":\"BehaviorDesigner.Runtime.Tasks.Wait\",\n\t\t\t\t\t\t\t\"NodeData\":{\n\t\t\t\t\t\t\t\t\"Offset\":\"(79.10175,135.109741)\"\n\t\t\t\t\t\t\t},\n\t\t\t\t\t\t\t\"ID\":15,\n\t\t\t\t\t\t\t\"Name\":\"Wait\",\n\t\t\t\t\t\t\t\"Instant\":true,\n\t\t\t\t\t\t\t\"SharedFloatwaitTime\":{\n\t\t\t\t\t\t\t\t\"Type\":\"BehaviorDesigner.Runtime.SharedFloat\",\n\t\t\t\t\t\t\t\t\"Name\":\"\",\n\t\t\t\t\t\t\t\t\"SinglemValue\":1.5\n\t\t\t\t\t\t\t},\n\t\t\t\t\t\t\t\"SharedBoolrandomWait\":{\n\t\t\t\t\t\t\t\t\"Type\":\"BehaviorDesigner.Runtime.SharedBool\",\n\t\t\t\t\t\t\t\t\"Name\":\"\",\n\t\t\t\t\t\t\t\t\"BooleanmValue\":false\n\t\t\t\t\t\t\t},\n\t\t\t\t\t\t\t\"SharedFloatrandomWaitMin\":{\n\t\t\t\t\t\t\t\t\"Type\":\"BehaviorDesigner.Runtime.SharedFloat\",\n\t\t\t\t\t\t\t\t\"Name\":\"\",\n\t\t\t\t\t\t\t\t\"SinglemValue\":1\n\t\t\t\t\t\t\t},\n\t\t\t\t\t\t\t\"SharedFloatrandomWaitMax\":{\n\t\t\t\t\t\t\t\t\"Type\":\"BehaviorDesigner.Runtime.SharedFloat\",\n\t\t\t\t\t\t\t\t\"Name\":\"\",\n\t\t\t\t\t\t\t\t\"SinglemValue\":1\n\t\t\t\t\t\t\t}\n\t\t\t\t\t\t},{\n\t\t\t\t\t\t\t\"Type\":\"BT_Golem_DoThrowRock\",\n\t\t\t\t\t\t\t\"NodeData\":{\n\t\t\t\t\t\t\t\t\"Offset\":\"(189.781143,216.517792)\"\n\t\t\t\t\t\t\t},\n\t\t\t\t\t\t\t\"ID\":16,\n\t\t\t\t\t\t\t\"Name\":\"BT
        \  Golem   Do Throw Rock\",\n\t\t\t\t\t\t\t\"Instant\":true,\n\t\t\t\t\t\t\t\"SharedVector3aim\":{\n\t\t\t\t\t\t\t\t\"Type\":\"BehaviorDesigner.Runtime.SharedVector3\",\n\t\t\t\t\t\t\t\t\"Name\":\"aim\",\n\t\t\t\t\t\t\t\t\"IsShared\":true,\n\t\t\t\t\t\t\t\t\"Vector3mValue\":\"(0,0,0)\"\n\t\t\t\t\t\t\t},\n\t\t\t\t\t\t\t\"SinglerockRadius\":2,\n\t\t\t\t\t\t\t\"SinglerockSpeed\":1,\n\t\t\t\t\t\t\t\"SinglerockLifeTime\":5,\n\t\t\t\t\t\t\t\"Int32rockDamage\":20,\n\t\t\t\t\t\t\t\"SinglerockOffset\":4,\n\t\t\t\t\t\t\t\"GameObjectrockPrefab\":0,\n\t\t\t\t\t\t\t\"Booleanparable\":true,\n\t\t\t\t\t\t\t\"BooleancalcBySpeed\":true,\n\t\t\t\t\t\t\t\"SingleparableTime\":2,\n\t\t\t\t\t\t\t\"SingleparableXSpeed\":20\n\t\t\t\t\t\t}]\n\t\t\t\t\t},{\n\t\t\t\t\t\t\"Type\":\"BehaviorDesigner.Runtime.Tasks.Sequence\",\n\t\t\t\t\t\t\"NodeData\":{\n\t\t\t\t\t\t\t\"Offset\":\"(2.10094261,110.593018)\"\n\t\t\t\t\t\t},\n\t\t\t\t\t\t\"ID\":17,\n\t\t\t\t\t\t\"Name\":\"Ataque
        melee\",\n\t\t\t\t\t\t\"Instant\":true,\n\t\t\t\t\t\t\"AbortTypeabortType\":\"None\",\n\t\t\t\t\t\t\"Children\":[{\n\t\t\t\t\t\t\t\"Type\":\"BT_AngleToTarget\",\n\t\t\t\t\t\t\t\"NodeData\":{\n\t\t\t\t\t\t\t\t\"Offset\":\"(-269.090881,210)\"\n\t\t\t\t\t\t\t},\n\t\t\t\t\t\t\t\"ID\":18,\n\t\t\t\t\t\t\t\"Name\":\"BT
        \  Angle To Target\",\n\t\t\t\t\t\t\t\"Instant\":true,\n\t\t\t\t\t\t\t\"SinglemaxAngle\":60,\n\t\t\t\t\t\t\t\"SharedGameObjecttarget\":{\n\t\t\t\t\t\t\t\t\"Type\":\"BehaviorDesigner.Runtime.SharedGameObject\",\n\t\t\t\t\t\t\t\t\"Name\":\"Target\",\n\t\t\t\t\t\t\t\t\"IsShared\":true\n\t\t\t\t\t\t\t}\n\t\t\t\t\t\t},{\n\t\t\t\t\t\t\t\"Type\":\"BT_Golem_Attack\",\n\t\t\t\t\t\t\t\"NodeData\":{\n\t\t\t\t\t\t\t\t\"Offset\":\"(-186.3636,120)\"\n\t\t\t\t\t\t\t},\n\t\t\t\t\t\t\t\"ID\":19,\n\t\t\t\t\t\t\t\"Name\":\"BT
        \  Golem   Attack\",\n\t\t\t\t\t\t\t\"Instant\":true,\n\t\t\t\t\t\t\t\"SharedGameObjecttarget\":{\n\t\t\t\t\t\t\t\t\"Type\":\"BehaviorDesigner.Runtime.SharedGameObject\",\n\t\t\t\t\t\t\t\t\"Name\":\"Target\",\n\t\t\t\t\t\t\t\t\"IsShared\":true\n\t\t\t\t\t\t\t},\n\t\t\t\t\t\t\t\"SharedFloatdistance\":{\n\t\t\t\t\t\t\t\t\"Type\":\"BehaviorDesigner.Runtime.SharedFloat\",\n\t\t\t\t\t\t\t\t\"Name\":\"distance\",\n\t\t\t\t\t\t\t\t\"IsShared\":true,\n\t\t\t\t\t\t\t\t\"SinglemValue\":0\n\t\t\t\t\t\t\t},\n\t\t\t\t\t\t\t\"SharedFloatrange\":{\n\t\t\t\t\t\t\t\t\"Type\":\"BehaviorDesigner.Runtime.SharedFloat\",\n\t\t\t\t\t\t\t\t\"Name\":\"attackRange\",\n\t\t\t\t\t\t\t\t\"IsShared\":true,\n\t\t\t\t\t\t\t\t\"SinglemValue\":5\n\t\t\t\t\t\t\t},\n\t\t\t\t\t\t\t\"SingledelayAfterAttack\":2,\n\t\t\t\t\t\t\t\"SingleattackSpeed\":0.4,\n\t\t\t\t\t\t\t\"SinglemaxDifferenceY\":1.5\n\t\t\t\t\t\t},{\n\t\t\t\t\t\t\t\"Type\":\"BT_StopNavAgent\",\n\t\t\t\t\t\t\t\"NodeData\":{\n\t\t\t\t\t\t\t\t\"Offset\":\"(-101.81813,208.181961)\"\n\t\t\t\t\t\t\t},\n\t\t\t\t\t\t\t\"ID\":20,\n\t\t\t\t\t\t\t\"Name\":\"BT
        \  Stop Nav Agent\",\n\t\t\t\t\t\t\t\"Instant\":true\n\t\t\t\t\t\t},{\n\t\t\t\t\t\t\t\"Type\":\"BT_SetBoolParameterAnimator\",\n\t\t\t\t\t\t\t\"NodeData\":{\n\t\t\t\t\t\t\t\t\"Offset\":\"(-13.6360779,132.272583)\"\n\t\t\t\t\t\t\t},\n\t\t\t\t\t\t\t\"ID\":21,\n\t\t\t\t\t\t\t\"Name\":\"BT
        \  Set Bool Parameter Animator\",\n\t\t\t\t\t\t\t\"Instant\":true,\n\t\t\t\t\t\t\t\"Stringparameter\":\"walking\",\n\t\t\t\t\t\t\t\"Booleanvalue\":false\n\t\t\t\t\t\t},{\n\t\t\t\t\t\t\t\"Type\":\"BT_SetBoolParameterAnimator\",\n\t\t\t\t\t\t\t\"NodeData\":{\n\t\t\t\t\t\t\t\t\"Offset\":\"(31.841095,261.576965)\"\n\t\t\t\t\t\t\t},\n\t\t\t\t\t\t\t\"ID\":22,\n\t\t\t\t\t\t\t\"Name\":\"BT
        \  Set Bool Parameter Animator\",\n\t\t\t\t\t\t\t\"Instant\":true,\n\t\t\t\t\t\t\t\"Stringparameter\":\"rotating\",\n\t\t\t\t\t\t\t\"Booleanvalue\":false\n\t\t\t\t\t\t},{\n\t\t\t\t\t\t\t\"Type\":\"BehaviorDesigner.Runtime.Tasks.Wait\",\n\t\t\t\t\t\t\t\"NodeData\":{\n\t\t\t\t\t\t\t\t\"Offset\":\"(90.42717,195.65654)\"\n\t\t\t\t\t\t\t},\n\t\t\t\t\t\t\t\"ID\":23,\n\t\t\t\t\t\t\t\"Name\":\"Wait\",\n\t\t\t\t\t\t\t\"Instant\":true,\n\t\t\t\t\t\t\t\"SharedFloatwaitTime\":{\n\t\t\t\t\t\t\t\t\"Type\":\"BehaviorDesigner.Runtime.SharedFloat\",\n\t\t\t\t\t\t\t\t\"Name\":\"\",\n\t\t\t\t\t\t\t\t\"SinglemValue\":1.5\n\t\t\t\t\t\t\t},\n\t\t\t\t\t\t\t\"SharedBoolrandomWait\":{\n\t\t\t\t\t\t\t\t\"Type\":\"BehaviorDesigner.Runtime.SharedBool\",\n\t\t\t\t\t\t\t\t\"Name\":\"\",\n\t\t\t\t\t\t\t\t\"BooleanmValue\":false\n\t\t\t\t\t\t\t},\n\t\t\t\t\t\t\t\"SharedFloatrandomWaitMin\":{\n\t\t\t\t\t\t\t\t\"Type\":\"BehaviorDesigner.Runtime.SharedFloat\",\n\t\t\t\t\t\t\t\t\"Name\":\"\",\n\t\t\t\t\t\t\t\t\"SinglemValue\":1\n\t\t\t\t\t\t\t},\n\t\t\t\t\t\t\t\"SharedFloatrandomWaitMax\":{\n\t\t\t\t\t\t\t\t\"Type\":\"BehaviorDesigner.Runtime.SharedFloat\",\n\t\t\t\t\t\t\t\t\"Name\":\"\",\n\t\t\t\t\t\t\t\t\"SinglemValue\":1\n\t\t\t\t\t\t\t}\n\t\t\t\t\t\t},{\n\t\t\t\t\t\t\t\"Type\":\"BT_Golem_DoAttack\",\n\t\t\t\t\t\t\t\"NodeData\":{\n\t\t\t\t\t\t\t\t\"Offset\":\"(188.796783,119.090942)\"\n\t\t\t\t\t\t\t},\n\t\t\t\t\t\t\t\"ID\":24,\n\t\t\t\t\t\t\t\"Name\":\"BT
        \  Golem   Do Attack\",\n\t\t\t\t\t\t\t\"Instant\":true,\n\t\t\t\t\t\t\t\"SharedFloatattackLength\":{\n\t\t\t\t\t\t\t\t\"Type\":\"BehaviorDesigner.Runtime.SharedFloat\",\n\t\t\t\t\t\t\t\t\"Name\":\"attackRange\",\n\t\t\t\t\t\t\t\t\"IsShared\":true,\n\t\t\t\t\t\t\t\t\"SinglemValue\":5\n\t\t\t\t\t\t\t},\n\t\t\t\t\t\t\t\"SingleattackHeight\":5,\n\t\t\t\t\t\t\t\"Int32attackForce\":18,\n\t\t\t\t\t\t\t\"SingleattackAngle\":120\n\t\t\t\t\t\t},{\n\t\t\t\t\t\t\t\"Type\":\"BehaviorDesigner.Runtime.Tasks.Wait\",\n\t\t\t\t\t\t\t\"NodeData\":{\n\t\t\t\t\t\t\t\t\"Offset\":\"(273.445,196.387527)\"\n\t\t\t\t\t\t\t},\n\t\t\t\t\t\t\t\"ID\":25,\n\t\t\t\t\t\t\t\"Name\":\"Wait\",\n\t\t\t\t\t\t\t\"Instant\":true,\n\t\t\t\t\t\t\t\"SharedFloatwaitTime\":{\n\t\t\t\t\t\t\t\t\"Type\":\"BehaviorDesigner.Runtime.SharedFloat\",\n\t\t\t\t\t\t\t\t\"Name\":\"\",\n\t\t\t\t\t\t\t\t\"SinglemValue\":1.15\n\t\t\t\t\t\t\t},\n\t\t\t\t\t\t\t\"SharedBoolrandomWait\":{\n\t\t\t\t\t\t\t\t\"Type\":\"BehaviorDesigner.Runtime.SharedBool\",\n\t\t\t\t\t\t\t\t\"Name\":\"\",\n\t\t\t\t\t\t\t\t\"BooleanmValue\":false\n\t\t\t\t\t\t\t},\n\t\t\t\t\t\t\t\"SharedFloatrandomWaitMin\":{\n\t\t\t\t\t\t\t\t\"Type\":\"BehaviorDesigner.Runtime.SharedFloat\",\n\t\t\t\t\t\t\t\t\"Name\":\"\",\n\t\t\t\t\t\t\t\t\"SinglemValue\":1\n\t\t\t\t\t\t\t},\n\t\t\t\t\t\t\t\"SharedFloatrandomWaitMax\":{\n\t\t\t\t\t\t\t\t\"Type\":\"BehaviorDesigner.Runtime.SharedFloat\",\n\t\t\t\t\t\t\t\t\"Name\":\"\",\n\t\t\t\t\t\t\t\t\"SinglemValue\":1\n\t\t\t\t\t\t\t}\n\t\t\t\t\t\t}]\n\t\t\t\t\t},{\n\t\t\t\t\t\t\"Type\":\"BehaviorDesigner.Runtime.Tasks.Selector\",\n\t\t\t\t\t\t\"NodeData\":{\n\t\t\t\t\t\t\t\"Offset\":\"(429.230743,134.615448)\"\n\t\t\t\t\t\t},\n\t\t\t\t\t\t\"ID\":26,\n\t\t\t\t\t\t\"Name\":\"Selector\",\n\t\t\t\t\t\t\"Instant\":true,\n\t\t\t\t\t\t\"AbortTypeabortType\":\"None\",\n\t\t\t\t\t\t\"Children\":[{\n\t\t\t\t\t\t\t\"Type\":\"BehaviorDesigner.Runtime.Tasks.Sequence\",\n\t\t\t\t\t\t\t\"NodeData\":{\n\t\t\t\t\t\t\t\t\"Offset\":\"(9.687506,210.312622)\"\n\t\t\t\t\t\t\t},\n\t\t\t\t\t\t\t\"ID\":27,\n\t\t\t\t\t\t\t\"Name\":\"Sequence\",\n\t\t\t\t\t\t\t\"Instant\":true,\n\t\t\t\t\t\t\t\"AbortTypeabortType\":\"None\",\n\t\t\t\t\t\t\t\"Children\":[{\n\t\t\t\t\t\t\t\t\"Type\":\"BehaviorDesigner.Runtime.Tasks.Inverter\",\n\t\t\t\t\t\t\t\t\"NodeData\":{\n\t\t\t\t\t\t\t\t\t\"Offset\":\"(-286.081116,129.535583)\"\n\t\t\t\t\t\t\t\t},\n\t\t\t\t\t\t\t\t\"ID\":28,\n\t\t\t\t\t\t\t\t\"Name\":\"Inverter\",\n\t\t\t\t\t\t\t\t\"Instant\":true,\n\t\t\t\t\t\t\t\t\"Children\":[{\n\t\t\t\t\t\t\t\t\t\"Type\":\"BT_GroundInFront\",\n\t\t\t\t\t\t\t\t\t\"NodeData\":{\n\t\t\t\t\t\t\t\t\t\t\"Offset\":\"(-4.375004,117.500015)\"\n\t\t\t\t\t\t\t\t\t},\n\t\t\t\t\t\t\t\t\t\"ID\":29,\n\t\t\t\t\t\t\t\t\t\"Name\":\"BT
        \  Ground In Front\",\n\t\t\t\t\t\t\t\t\t\"Instant\":true\n\t\t\t\t\t\t\t\t}]\n\t\t\t\t\t\t\t},{\n\t\t\t\t\t\t\t\t\"Type\":\"BT_SetBoolParameterAnimator\",\n\t\t\t\t\t\t\t\t\"NodeData\":{\n\t\t\t\t\t\t\t\t\t\"Offset\":\"(-119.594681,139.847961)\"\n\t\t\t\t\t\t\t\t},\n\t\t\t\t\t\t\t\t\"ID\":30,\n\t\t\t\t\t\t\t\t\"Name\":\"BT
        \  Set Bool Parameter Animator\",\n\t\t\t\t\t\t\t\t\"Instant\":true,\n\t\t\t\t\t\t\t\t\"Stringparameter\":\"walking\",\n\t\t\t\t\t\t\t\t\"Booleanvalue\":false\n\t\t\t\t\t\t\t},{\n\t\t\t\t\t\t\t\t\"Type\":\"BT_SetBoolParameterAnimator\",\n\t\t\t\t\t\t\t\t\"NodeData\":{\n\t\t\t\t\t\t\t\t\t\"Offset\":\"(-57.36841,228.948)\"\n\t\t\t\t\t\t\t\t},\n\t\t\t\t\t\t\t\t\"ID\":31,\n\t\t\t\t\t\t\t\t\"Name\":\"BT
        \  Set Bool Parameter Animator\",\n\t\t\t\t\t\t\t\t\"Instant\":true,\n\t\t\t\t\t\t\t\t\"Stringparameter\":\"rotating\",\n\t\t\t\t\t\t\t\t\"Booleanvalue\":true\n\t\t\t\t\t\t\t},{\n\t\t\t\t\t\t\t\t\"Type\":\"BT_RotateToTarget\",\n\t\t\t\t\t\t\t\t\"NodeData\":{\n\t\t\t\t\t\t\t\t\t\"Offset\":\"(60.8257751,312.9873)\"\n\t\t\t\t\t\t\t\t},\n\t\t\t\t\t\t\t\t\"ID\":32,\n\t\t\t\t\t\t\t\t\"Name\":\"BT
        \  Rotate To Target\",\n\t\t\t\t\t\t\t\t\"Instant\":true,\n\t\t\t\t\t\t\t\t\"SinglerotationSpeed\":1,\n\t\t\t\t\t\t\t\t\"SharedGameObjecttarget\":{\n\t\t\t\t\t\t\t\t\t\"Type\":\"BehaviorDesigner.Runtime.SharedGameObject\",\n\t\t\t\t\t\t\t\t\t\"Name\":\"Target\",\n\t\t\t\t\t\t\t\t\t\"IsShared\":true\n\t\t\t\t\t\t\t\t},\n\t\t\t\t\t\t\t\t\"Singlethreshold\":0.5\n\t\t\t\t\t\t\t}]\n\t\t\t\t\t\t},{\n\t\t\t\t\t\t\t\"Type\":\"BehaviorDesigner.Runtime.Tasks.Sequence\",\n\t\t\t\t\t\t\t\"NodeData\":{\n\t\t\t\t\t\t\t\t\"Offset\":\"(443.5822,204.405518)\"\n\t\t\t\t\t\t\t},\n\t\t\t\t\t\t\t\"ID\":33,\n\t\t\t\t\t\t\t\"Name\":\"Sequence\",\n\t\t\t\t\t\t\t\"Instant\":true,\n\t\t\t\t\t\t\t\"AbortTypeabortType\":\"None\",\n\t\t\t\t\t\t\t\"Children\":[{\n\t\t\t\t\t\t\t\t\"Type\":\"BT_AngleToTarget\",\n\t\t\t\t\t\t\t\t\"NodeData\":{\n\t\t\t\t\t\t\t\t\t\"Offset\":\"(-288.048218,126.341553)\"\n\t\t\t\t\t\t\t\t},\n\t\t\t\t\t\t\t\t\"ID\":34,\n\t\t\t\t\t\t\t\t\"Name\":\"BT
        \  Angle To Target\",\n\t\t\t\t\t\t\t\t\"Instant\":true,\n\t\t\t\t\t\t\t\t\"SinglemaxAngle\":15,\n\t\t\t\t\t\t\t\t\"SharedGameObjecttarget\":{\n\t\t\t\t\t\t\t\t\t\"Type\":\"BehaviorDesigner.Runtime.SharedGameObject\",\n\t\t\t\t\t\t\t\t\t\"Name\":\"Target\",\n\t\t\t\t\t\t\t\t\t\"IsShared\":true\n\t\t\t\t\t\t\t\t}\n\t\t\t\t\t\t\t},{\n\t\t\t\t\t\t\t\t\"Type\":\"BT_ArrivedToTarget\",\n\t\t\t\t\t\t\t\t\"NodeData\":{\n\t\t\t\t\t\t\t\t\t\"Offset\":\"(-205.000031,210.000122)\"\n\t\t\t\t\t\t\t\t},\n\t\t\t\t\t\t\t\t\"ID\":35,\n\t\t\t\t\t\t\t\t\"Name\":\"BT
        \  Arrived To Target\",\n\t\t\t\t\t\t\t\t\"Instant\":true,\n\t\t\t\t\t\t\t\t\"SharedFloatdistance\":{\n\t\t\t\t\t\t\t\t\t\"Type\":\"BehaviorDesigner.Runtime.SharedFloat\",\n\t\t\t\t\t\t\t\t\t\"Name\":\"distance\",\n\t\t\t\t\t\t\t\t\t\"IsShared\":true,\n\t\t\t\t\t\t\t\t\t\"SinglemValue\":0\n\t\t\t\t\t\t\t\t},\n\t\t\t\t\t\t\t\t\"SinglemaxDistance\":4.1\n\t\t\t\t\t\t\t},{\n\t\t\t\t\t\t\t\t\"Type\":\"BT_SetBoolParameterAnimator\",\n\t\t\t\t\t\t\t\t\"NodeData\":{\n\t\t\t\t\t\t\t\t\t\"Offset\":\"(-93.41487,122.927437)\"\n\t\t\t\t\t\t\t\t},\n\t\t\t\t\t\t\t\t\"ID\":36,\n\t\t\t\t\t\t\t\t\"Name\":\"BT
        \  Set Bool Parameter Animator\",\n\t\t\t\t\t\t\t\t\"Instant\":true,\n\t\t\t\t\t\t\t\t\"Stringparameter\":\"walking\",\n\t\t\t\t\t\t\t\t\"Booleanvalue\":false\n\t\t\t\t\t\t\t},{\n\t\t\t\t\t\t\t\t\"Type\":\"BT_SetBoolParameterAnimator\",\n\t\t\t\t\t\t\t\t\"NodeData\":{\n\t\t\t\t\t\t\t\t\t\"Offset\":\"(-1.0526123,222.105347)\"\n\t\t\t\t\t\t\t\t},\n\t\t\t\t\t\t\t\t\"ID\":37,\n\t\t\t\t\t\t\t\t\"Name\":\"BT
        \  Set Bool Parameter Animator\",\n\t\t\t\t\t\t\t\t\"Instant\":true,\n\t\t\t\t\t\t\t\t\"Stringparameter\":\"rotating\",\n\t\t\t\t\t\t\t\t\"Booleanvalue\":false\n\t\t\t\t\t\t\t},{\n\t\t\t\t\t\t\t\t\"Type\":\"BT_ActivateNavMeshAgent\",\n\t\t\t\t\t\t\t\t\"NodeData\":{\n\t\t\t\t\t\t\t\t\t\"Offset\":\"(70.43614,311.951416)\"\n\t\t\t\t\t\t\t\t},\n\t\t\t\t\t\t\t\t\"ID\":38,\n\t\t\t\t\t\t\t\t\"Name\":\"BT
        \  Activate Nav Mesh Agent\",\n\t\t\t\t\t\t\t\t\"Instant\":true,\n\t\t\t\t\t\t\t\t\"Booleanenabled\":false\n\t\t\t\t\t\t\t}]\n\t\t\t\t\t\t},{\n\t\t\t\t\t\t\t\"Type\":\"BehaviorDesigner.Runtime.Tasks.Sequence\",\n\t\t\t\t\t\t\t\"NodeData\":{\n\t\t\t\t\t\t\t\t\"Offset\":\"(721.11145,179.0701)\"\n\t\t\t\t\t\t\t},\n\t\t\t\t\t\t\t\"ID\":39,\n\t\t\t\t\t\t\t\"Name\":\"Sequence\",\n\t\t\t\t\t\t\t\"Instant\":true,\n\t\t\t\t\t\t\t\"AbortTypeabortType\":\"None\",\n\t\t\t\t\t\t\t\"Children\":[{\n\t\t\t\t\t\t\t\t\"Type\":\"BT_Grounded\",\n\t\t\t\t\t\t\t\t\"NodeData\":{\n\t\t\t\t\t\t\t\t\t\"Offset\":\"(-125.064583,154.6342)\"\n\t\t\t\t\t\t\t\t},\n\t\t\t\t\t\t\t\t\"ID\":40,\n\t\t\t\t\t\t\t\t\"Name\":\"BT
        \  Grounded\",\n\t\t\t\t\t\t\t\t\"Instant\":true,\n\t\t\t\t\t\t\t\t\"SinglemaxDistance\":2\n\t\t\t\t\t\t\t},{\n\t\t\t\t\t\t\t\t\"Type\":\"BT_RotateToTarget\",\n\t\t\t\t\t\t\t\t\"NodeData\":{\n\t\t\t\t\t\t\t\t\t\"Offset\":\"(-53.5575638,227.0029)\"\n\t\t\t\t\t\t\t\t},\n\t\t\t\t\t\t\t\t\"ID\":41,\n\t\t\t\t\t\t\t\t\"Name\":\"BT
        \  Rotate To Target\",\n\t\t\t\t\t\t\t\t\"Instant\":true,\n\t\t\t\t\t\t\t\t\"SinglerotationSpeed\":1,\n\t\t\t\t\t\t\t\t\"SharedGameObjecttarget\":{\n\t\t\t\t\t\t\t\t\t\"Type\":\"BehaviorDesigner.Runtime.SharedGameObject\",\n\t\t\t\t\t\t\t\t\t\"Name\":\"Target\",\n\t\t\t\t\t\t\t\t\t\"IsShared\":true\n\t\t\t\t\t\t\t\t},\n\t\t\t\t\t\t\t\t\"Singlethreshold\":0.5\n\t\t\t\t\t\t\t},{\n\t\t\t\t\t\t\t\t\"Type\":\"BehaviorDesigner.Runtime.Tasks.Selector\",\n\t\t\t\t\t\t\t\t\"NodeData\":{\n\t\t\t\t\t\t\t\t\t\"Offset\":\"(124.477722,232.8971)\"\n\t\t\t\t\t\t\t\t},\n\t\t\t\t\t\t\t\t\"ID\":42,\n\t\t\t\t\t\t\t\t\"Name\":\"Selector\",\n\t\t\t\t\t\t\t\t\"Instant\":true,\n\t\t\t\t\t\t\t\t\"AbortTypeabortType\":\"None\",\n\t\t\t\t\t\t\t\t\"Children\":[{\n\t\t\t\t\t\t\t\t\t\"Type\":\"BehaviorDesigner.Runtime.Tasks.Sequence\",\n\t\t\t\t\t\t\t\t\t\"NodeData\":{\n\t\t\t\t\t\t\t\t\t\t\"Offset\":\"(-165.259155,176.580811)\"\n\t\t\t\t\t\t\t\t\t},\n\t\t\t\t\t\t\t\t\t\"ID\":43,\n\t\t\t\t\t\t\t\t\t\"Name\":\"Sequence\",\n\t\t\t\t\t\t\t\t\t\"Instant\":true,\n\t\t\t\t\t\t\t\t\t\"AbortTypeabortType\":\"None\",\n\t\t\t\t\t\t\t\t\t\"Children\":[{\n\t\t\t\t\t\t\t\t\t\t\"Type\":\"BT_ArrivedToTarget\",\n\t\t\t\t\t\t\t\t\t\t\"NodeData\":{\n\t\t\t\t\t\t\t\t\t\t\t\"Offset\":\"(-104.21051,106.3172)\"\n\t\t\t\t\t\t\t\t\t\t},\n\t\t\t\t\t\t\t\t\t\t\"ID\":44,\n\t\t\t\t\t\t\t\t\t\t\"Name\":\"BT
        \  Arrived To Target\",\n\t\t\t\t\t\t\t\t\t\t\"Instant\":true,\n\t\t\t\t\t\t\t\t\t\t\"SharedFloatdistance\":{\n\t\t\t\t\t\t\t\t\t\t\t\"Type\":\"BehaviorDesigner.Runtime.SharedFloat\",\n\t\t\t\t\t\t\t\t\t\t\t\"Name\":\"distance\",\n\t\t\t\t\t\t\t\t\t\t\t\"IsShared\":true,\n\t\t\t\t\t\t\t\t\t\t\t\"SinglemValue\":0\n\t\t\t\t\t\t\t\t\t\t},\n\t\t\t\t\t\t\t\t\t\t\"SinglemaxDistance\":4.1\n\t\t\t\t\t\t\t\t\t},{\n\t\t\t\t\t\t\t\t\t\t\"Type\":\"BT_SetBoolParameterAnimator\",\n\t\t\t\t\t\t\t\t\t\t\"NodeData\":{\n\t\t\t\t\t\t\t\t\t\t\t\"Offset\":\"(105.790283,110.001221)\"\n\t\t\t\t\t\t\t\t\t\t},\n\t\t\t\t\t\t\t\t\t\t\"ID\":45,\n\t\t\t\t\t\t\t\t\t\t\"Name\":\"BT
        \  Set Bool Parameter Animator\",\n\t\t\t\t\t\t\t\t\t\t\"Instant\":true,\n\t\t\t\t\t\t\t\t\t\t\"Stringparameter\":\"rotating\",\n\t\t\t\t\t\t\t\t\t\t\"Booleanvalue\":true\n\t\t\t\t\t\t\t\t\t}]\n\t\t\t\t\t\t\t\t},{\n\t\t\t\t\t\t\t\t\t\"Type\":\"BehaviorDesigner.Runtime.Tasks.ConditionalEvaluator\",\n\t\t\t\t\t\t\t\t\t\"NodeData\":{\n\t\t\t\t\t\t\t\t\t\t\"Offset\":\"(111.052673,146.8421)\"\n\t\t\t\t\t\t\t\t\t},\n\t\t\t\t\t\t\t\t\t\"ID\":46,\n\t\t\t\t\t\t\t\t\t\"Name\":\"Conditional
        Evaluator\",\n\t\t\t\t\t\t\t\t\t\"Instant\":true,\n\t\t\t\t\t\t\t\t\t\"SharedBoolreevaluate\":{\n\t\t\t\t\t\t\t\t\t\t\"Type\":\"BehaviorDesigner.Runtime.SharedBool\",\n\t\t\t\t\t\t\t\t\t\t\"Name\":\"\",\n\t\t\t\t\t\t\t\t\t\t\"BooleanmValue\":false\n\t\t\t\t\t\t\t\t\t},\n\t\t\t\t\t\t\t\t\t\"ConditionalconditionalTask\":{\n\t\t\t\t\t\t\t\t\t\t\"Type\":\"BehaviorDesigner.Runtime.Tasks.Basic.SharedVariables.CompareSharedBool\",\n\t\t\t\t\t\t\t\t\t\t\"SharedBoolvariable\":{\n\t\t\t\t\t\t\t\t\t\t\t\"Type\":\"BehaviorDesigner.Runtime.SharedBool\",\n\t\t\t\t\t\t\t\t\t\t\t\"Name\":\"haveNavAgent\",\n\t\t\t\t\t\t\t\t\t\t\t\"IsShared\":true,\n\t\t\t\t\t\t\t\t\t\t\t\"BooleanmValue\":true\n\t\t\t\t\t\t\t\t\t\t},\n\t\t\t\t\t\t\t\t\t\t\"SharedBoolcompareTo\":{\n\t\t\t\t\t\t\t\t\t\t\t\"Type\":\"BehaviorDesigner.Runtime.SharedBool\",\n\t\t\t\t\t\t\t\t\t\t\t\"Name\":\"\",\n\t\t\t\t\t\t\t\t\t\t\t\"BooleanmValue\":true\n\t\t\t\t\t\t\t\t\t\t}\n\t\t\t\t\t\t\t\t\t},\n\t\t\t\t\t\t\t\t\t\"Children\":[{\n\t\t\t\t\t\t\t\t\t\t\"Type\":\"BehaviorDesigner.Runtime.Tasks.Sequence\",\n\t\t\t\t\t\t\t\t\t\t\"NodeData\":{\n\t\t\t\t\t\t\t\t\t\t\t\"Offset\":\"(4.28601837,117.143463)\"\n\t\t\t\t\t\t\t\t\t\t},\n\t\t\t\t\t\t\t\t\t\t\"ID\":47,\n\t\t\t\t\t\t\t\t\t\t\"Name\":\"Sequence\",\n\t\t\t\t\t\t\t\t\t\t\"Instant\":true,\n\t\t\t\t\t\t\t\t\t\t\"AbortTypeabortType\":\"None\",\n\t\t\t\t\t\t\t\t\t\t\"Children\":[{\n\t\t\t\t\t\t\t\t\t\t\t\"Type\":\"BT_ActivateNavMeshAgent\",\n\t\t\t\t\t\t\t\t\t\t\t\"NodeData\":{\n\t\t\t\t\t\t\t\t\t\t\t\t\"Offset\":\"(-268.655457,127.618912)\"\n\t\t\t\t\t\t\t\t\t\t\t},\n\t\t\t\t\t\t\t\t\t\t\t\"ID\":48,\n\t\t\t\t\t\t\t\t\t\t\t\"Name\":\"BT
        \  Activate Nav Mesh Agent\",\n\t\t\t\t\t\t\t\t\t\t\t\"Instant\":true,\n\t\t\t\t\t\t\t\t\t\t\t\"Booleanenabled\":true\n\t\t\t\t\t\t\t\t\t\t},{\n\t\t\t\t\t\t\t\t\t\t\t\"Type\":\"BT_ResumeNavAgent\",\n\t\t\t\t\t\t\t\t\t\t\t\"NodeData\":{\n\t\t\t\t\t\t\t\t\t\t\t\t\"Offset\":\"(-156.893875,215.870422)\"\n\t\t\t\t\t\t\t\t\t\t\t},\n\t\t\t\t\t\t\t\t\t\t\t\"ID\":49,\n\t\t\t\t\t\t\t\t\t\t\t\"Name\":\"BT
        \  Resume Nav Agent\",\n\t\t\t\t\t\t\t\t\t\t\t\"Instant\":true\n\t\t\t\t\t\t\t\t\t\t},{\n\t\t\t\t\t\t\t\t\t\t\t\"Type\":\"BT_SetAnimator\",\n\t\t\t\t\t\t\t\t\t\t\t\"NodeData\":{\n\t\t\t\t\t\t\t\t\t\t\t\t\"Offset\":\"(-51.8387451,132.129028)\"\n\t\t\t\t\t\t\t\t\t\t\t},\n\t\t\t\t\t\t\t\t\t\t\t\"ID\":50,\n\t\t\t\t\t\t\t\t\t\t\t\"Name\":\"BT
        \  Set Animator\",\n\t\t\t\t\t\t\t\t\t\t\t\"Instant\":true,\n\t\t\t\t\t\t\t\t\t\t\t\"SharedGameObjectanimGO\":{\n\t\t\t\t\t\t\t\t\t\t\t\t\"Type\":\"BehaviorDesigner.Runtime.SharedGameObject\",\n\t\t\t\t\t\t\t\t\t\t\t\t\"Name\":\"animatorGO\",\n\t\t\t\t\t\t\t\t\t\t\t\t\"IsShared\":true\n\t\t\t\t\t\t\t\t\t\t\t}\n\t\t\t\t\t\t\t\t\t\t},{\n\t\t\t\t\t\t\t\t\t\t\t\"Type\":\"BT_SetBoolParameterAnimator\",\n\t\t\t\t\t\t\t\t\t\t\t\"NodeData\":{\n\t\t\t\t\t\t\t\t\t\t\t\t\"Offset\":\"(42.2730637,217.04657)\"\n\t\t\t\t\t\t\t\t\t\t\t},\n\t\t\t\t\t\t\t\t\t\t\t\"ID\":51,\n\t\t\t\t\t\t\t\t\t\t\t\"Name\":\"BT
        \  Set Bool Parameter Animator\",\n\t\t\t\t\t\t\t\t\t\t\t\"Instant\":true,\n\t\t\t\t\t\t\t\t\t\t\t\"Stringparameter\":\"walking\",\n\t\t\t\t\t\t\t\t\t\t\t\"Booleanvalue\":true\n\t\t\t\t\t\t\t\t\t\t},{\n\t\t\t\t\t\t\t\t\t\t\t\"Type\":\"BT_SetBoolParameterAnimator\",\n\t\t\t\t\t\t\t\t\t\t\t\"NodeData\":{\n\t\t\t\t\t\t\t\t\t\t\t\t\"Offset\":\"(116.31665,306.317139)\"\n\t\t\t\t\t\t\t\t\t\t\t},\n\t\t\t\t\t\t\t\t\t\t\t\"ID\":52,\n\t\t\t\t\t\t\t\t\t\t\t\"Name\":\"BT
        \  Set Bool Parameter Animator\",\n\t\t\t\t\t\t\t\t\t\t\t\"Instant\":true,\n\t\t\t\t\t\t\t\t\t\t\t\"Stringparameter\":\"rotating\",\n\t\t\t\t\t\t\t\t\t\t\t\"Booleanvalue\":false\n\t\t\t\t\t\t\t\t\t\t},{\n\t\t\t\t\t\t\t\t\t\t\t\"Type\":\"BT_SetDestinationNavAgent\",\n\t\t\t\t\t\t\t\t\t\t\t\"NodeData\":{\n\t\t\t\t\t\t\t\t\t\t\t\t\"Offset\":\"(187.424316,140.870117)\"\n\t\t\t\t\t\t\t\t\t\t\t},\n\t\t\t\t\t\t\t\t\t\t\t\"ID\":53,\n\t\t\t\t\t\t\t\t\t\t\t\"Name\":\"BT
        \  Set Destination Nav Agent\",\n\t\t\t\t\t\t\t\t\t\t\t\"Instant\":true,\n\t\t\t\t\t\t\t\t\t\t\t\"SharedVector3target\":{\n\t\t\t\t\t\t\t\t\t\t\t\t\"Type\":\"BehaviorDesigner.Runtime.SharedVector3\",\n\t\t\t\t\t\t\t\t\t\t\t\t\"Name\":\"targetPosition\",\n\t\t\t\t\t\t\t\t\t\t\t\t\"IsShared\":true,\n\t\t\t\t\t\t\t\t\t\t\t\t\"Vector3mValue\":\"(0,0,0)\"\n\t\t\t\t\t\t\t\t\t\t\t}\n\t\t\t\t\t\t\t\t\t\t}]\n\t\t\t\t\t\t\t\t\t}]\n\t\t\t\t\t\t\t\t}]\n\t\t\t\t\t\t\t}]\n\t\t\t\t\t\t},{\n\t\t\t\t\t\t\t\"Type\":\"BehaviorDesigner.Runtime.Tasks.ConditionalEvaluator\",\n\t\t\t\t\t\t\t\"NodeData\":{\n\t\t\t\t\t\t\t\t\"Offset\":\"(981.1357,179.917526)\"\n\t\t\t\t\t\t\t},\n\t\t\t\t\t\t\t\"ID\":54,\n\t\t\t\t\t\t\t\"Name\":\"Conditional
        Evaluator\",\n\t\t\t\t\t\t\t\"Instant\":true,\n\t\t\t\t\t\t\t\"SharedBoolreevaluate\":{\n\t\t\t\t\t\t\t\t\"Type\":\"BehaviorDesigner.Runtime.SharedBool\",\n\t\t\t\t\t\t\t\t\"Name\":\"\",\n\t\t\t\t\t\t\t\t\"BooleanmValue\":false\n\t\t\t\t\t\t\t},\n\t\t\t\t\t\t\t\"ConditionalconditionalTask\":{\n\t\t\t\t\t\t\t\t\"Type\":\"BehaviorDesigner.Runtime.Tasks.Basic.SharedVariables.CompareSharedBool\",\n\t\t\t\t\t\t\t\t\"SharedBoolvariable\":{\n\t\t\t\t\t\t\t\t\t\"Type\":\"BehaviorDesigner.Runtime.SharedBool\",\n\t\t\t\t\t\t\t\t\t\"Name\":\"haveNavAgent\",\n\t\t\t\t\t\t\t\t\t\"IsShared\":true,\n\t\t\t\t\t\t\t\t\t\"BooleanmValue\":true\n\t\t\t\t\t\t\t\t},\n\t\t\t\t\t\t\t\t\"SharedBoolcompareTo\":{\n\t\t\t\t\t\t\t\t\t\"Type\":\"BehaviorDesigner.Runtime.SharedBool\",\n\t\t\t\t\t\t\t\t\t\"Name\":\"\",\n\t\t\t\t\t\t\t\t\t\"BooleanmValue\":true\n\t\t\t\t\t\t\t\t}\n\t\t\t\t\t\t\t},\n\t\t\t\t\t\t\t\"Children\":[{\n\t\t\t\t\t\t\t\t\"Type\":\"BT_ActivateNavMeshAgent\",\n\t\t\t\t\t\t\t\t\"NodeData\":{\n\t\t\t\t\t\t\t\t\t\"Offset\":\"(-1.07143593,140)\"\n\t\t\t\t\t\t\t\t},\n\t\t\t\t\t\t\t\t\"ID\":55,\n\t\t\t\t\t\t\t\t\"Name\":\"BT
        \  Activate Nav Mesh Agent\",\n\t\t\t\t\t\t\t\t\"Instant\":true,\n\t\t\t\t\t\t\t\t\"Booleanenabled\":false\n\t\t\t\t\t\t\t}]\n\t\t\t\t\t\t}]\n\t\t\t\t\t}]\n\t\t\t\t}]\n\t\t\t}]\n\t\t},{\n\t\t\t\"Type\":\"BT_SetBoolParameterAnimator\",\n\t\t\t\"NodeData\":{\n\t\t\t\t\"Offset\":\"(179.5454,124.772614)\"\n\t\t\t},\n\t\t\t\"ID\":56,\n\t\t\t\"Name\":\"BT
        \  Set Bool Parameter Animator\",\n\t\t\t\"Instant\":true,\n\t\t\t\"Stringparameter\":\"walking\",\n\t\t\t\"Booleanvalue\":false\n\t\t},{\n\t\t\t\"Type\":\"BehaviorDesigner.Runtime.Tasks.ConditionalEvaluator\",\n\t\t\t\"NodeData\":{\n\t\t\t\t\"Offset\":\"(398.443359,121.75)\"\n\t\t\t},\n\t\t\t\"ID\":57,\n\t\t\t\"Name\":\"Conditional
        Evaluator\",\n\t\t\t\"Instant\":true,\n\t\t\t\"Disabled\":true,\n\t\t\t\"SharedBoolreevaluate\":{\n\t\t\t\t\"Type\":\"BehaviorDesigner.Runtime.SharedBool\",\n\t\t\t\t\"Name\":\"\",\n\t\t\t\t\"BooleanmValue\":false\n\t\t\t},\n\t\t\t\"ConditionalconditionalTask\":{\n\t\t\t\t\"Type\":\"BehaviorDesigner.Runtime.Tasks.Basic.SharedVariables.CompareSharedBool\",\n\t\t\t\t\"SharedBoolvariable\":{\n\t\t\t\t\t\"Type\":\"BehaviorDesigner.Runtime.SharedBool\",\n\t\t\t\t\t\"Name\":\"haveNavAgent\",\n\t\t\t\t\t\"IsShared\":true,\n\t\t\t\t\t\"BooleanmValue\":true\n\t\t\t\t},\n\t\t\t\t\"SharedBoolcompareTo\":{\n\t\t\t\t\t\"Type\":\"BehaviorDesigner.Runtime.SharedBool\",\n\t\t\t\t\t\"Name\":\"\",\n\t\t\t\t\t\"BooleanmValue\":true\n\t\t\t\t}\n\t\t\t},\n\t\t\t\"Children\":[{\n\t\t\t\t\"Type\":\"BT_ActivateNavMeshAgent\",\n\t\t\t\t\"NodeData\":{\n\t\t\t\t\t\"Offset\":\"(21.625061,106.750015)\"\n\t\t\t\t},\n\t\t\t\t\"ID\":58,\n\t\t\t\t\"Name\":\"BT
        \  Activate Nav Mesh Agent\",\n\t\t\t\t\"Instant\":true,\n\t\t\t\t\"Booleanenabled\":true\n\t\t\t}]\n\t\t}]\n\t},\n\t\"Variables\":[{\n\t\t\"Type\":\"BehaviorDesigner.Runtime.SharedGameObject\",\n\t\t\"Name\":\"Target\",\n\t\t\"IsShared\":true\n\t},{\n\t\t\"Type\":\"BehaviorDesigner.Runtime.SharedFloat\",\n\t\t\"Name\":\"distance\",\n\t\t\"IsShared\":true,\n\t\t\"SinglemValue\":0\n\t},{\n\t\t\"Type\":\"BehaviorDesigner.Runtime.SharedVector3\",\n\t\t\"Name\":\"aim\",\n\t\t\"IsShared\":true,\n\t\t\"Vector3mValue\":\"(0,0,0)\"\n\t},{\n\t\t\"Type\":\"BehaviorDesigner.Runtime.SharedVector3\",\n\t\t\"Name\":\"targetPosition\",\n\t\t\"IsShared\":true,\n\t\t\"Vector3mValue\":\"(0,0,0)\"\n\t},{\n\t\t\"Type\":\"BehaviorDesigner.Runtime.SharedGameObject\",\n\t\t\"Name\":\"self\",\n\t\t\"IsShared\":true\n\t},{\n\t\t\"Type\":\"BehaviorDesigner.Runtime.SharedGameObject\",\n\t\t\"Name\":\"floor\",\n\t\t\"IsShared\":true\n\t},{\n\t\t\"Type\":\"BehaviorDesigner.Runtime.SharedFloat\",\n\t\t\"Name\":\"attackRange\",\n\t\t\"IsShared\":true,\n\t\t\"SinglemValue\":5\n\t},{\n\t\t\"Type\":\"BehaviorDesigner.Runtime.SharedFloat\",\n\t\t\"Name\":\"minRockRange\",\n\t\t\"IsShared\":true,\n\t\t\"SinglemValue\":6\n\t},{\n\t\t\"Type\":\"BehaviorDesigner.Runtime.SharedFloat\",\n\t\t\"Name\":\"maxRockRange\",\n\t\t\"IsShared\":true,\n\t\t\"SinglemValue\":20\n\t},{\n\t\t\"Type\":\"BehaviorDesigner.Runtime.SharedFloat\",\n\t\t\"Name\":\"targetSelectionRange\",\n\t\t\"IsShared\":true,\n\t\t\"SinglemValue\":0\n\t},{\n\t\t\"Type\":\"BehaviorDesigner.Runtime.SharedFloat\",\n\t\t\"Name\":\"targetSelectionRangeStop\",\n\t\t\"IsShared\":true,\n\t\t\"SinglemValue\":0\n\t},{\n\t\t\"Type\":\"BehaviorDesigner.Runtime.SharedFloat\",\n\t\t\"Name\":\"rockDelay\",\n\t\t\"IsShared\":true,\n\t\t\"SinglemValue\":0\n\t},{\n\t\t\"Type\":\"BehaviorDesigner.Runtime.SharedBool\",\n\t\t\"Name\":\"haveNavAgent\",\n\t\t\"IsShared\":true,\n\t\t\"BooleanmValue\":true\n\t},{\n\t\t\"Type\":\"BehaviorDesigner.Runtime.SharedGameObject\",\n\t\t\"Name\":\"animatorGO\",\n\t\t\"IsShared\":true\n\t},{\n\t\t\"Type\":\"BehaviorDesigner.Runtime.SharedBool\",\n\t\t\"Name\":\"stunned\",\n\t\t\"IsShared\":true,\n\t\t\"BooleanmValue\":false\n\t}]\n}"
      fieldSerializationData:
        typeName: []
        fieldNameHash: 
        startIndex: 
        dataPosition: 
        unityObjects:
        - {fileID: 174034, guid: f41134a15edaf9c4198d7ce88489f59a, type: 2}
        byteData: 
        byteDataArray: 
      Version: 1.5.9
