%YAML 1.1
%TAG !u! tag:unity3d.com,2011:
--- !u!1 &102712
GameObject:
  m_ObjectHideFlags: 0
  m_PrefabParentObject: {fileID: 0}
  m_PrefabInternal: {fileID: 100100000}
  serializedVersion: 5
  m_Component:
  - component: {fileID: 416354}
  - component: {fileID: 3376484}
  - component: {fileID: 14383312}
  - component: {fileID: 11469924}
  - component: {fileID: 11430564}
  - component: {fileID: 11475062}
  - component: {fileID: 19536134}
  - component: {fileID: 11432900}
  - component: {fileID: 11406348}
  - component: {fileID: 11429968}
  - component: {fileID: 11419372}
  - component: {fileID: 11492006}
  - component: {fileID: 11444332}
  - component: {fileID: 11436650}
  - component: {fileID: 11421058}
  - component: {fileID: 11466592}
  - component: {fileID: 11406332}
  - component: {fileID: 114737383151039448}
  - component: {fileID: 11479782}
  - component: {fileID: 114215146480062540}
  - component: {fileID: 114616579003910674}
  - component: {fileID: 65483921156397570}
  - component: {fileID: 114174747215376478}
  m_Layer: 15
  m_Name: LongDistanceGolem
  m_TagString: Enemy
  m_Icon: {fileID: 0}
  m_NavMeshLayer: 0
  m_StaticEditorFlags: 0
  m_IsActive: 1
--- !u!1 &103464
GameObject:
  m_ObjectHideFlags: 1
  m_PrefabParentObject: {fileID: 0}
  m_PrefabInternal: {fileID: 100100000}
  serializedVersion: 5
  m_Component:
  - component: {fileID: 435946}
  m_Layer: 0
  m_Name: CATRigRLegDigit11
  m_TagString: Untagged
  m_Icon: {fileID: 0}
  m_NavMeshLayer: 0
  m_StaticEditorFlags: 0
  m_IsActive: 1
--- !u!1 &104990
GameObject:
  m_ObjectHideFlags: 1
  m_PrefabParentObject: {fileID: 0}
  m_PrefabInternal: {fileID: 100100000}
  serializedVersion: 5
  m_Component:
  - component: {fileID: 419200}
  m_Layer: 0
  m_Name: CATRigLArmDigit12
  m_TagString: Untagged
  m_Icon: {fileID: 0}
  m_NavMeshLayer: 0
  m_StaticEditorFlags: 0
  m_IsActive: 1
--- !u!1 &106850
GameObject:
  m_ObjectHideFlags: 1
  m_PrefabParentObject: {fileID: 0}
  m_PrefabInternal: {fileID: 100100000}
  serializedVersion: 5
  m_Component:
  - component: {fileID: 468012}
  m_Layer: 0
  m_Name: CATRigRArmPalm
  m_TagString: Untagged
  m_Icon: {fileID: 0}
  m_NavMeshLayer: 0
  m_StaticEditorFlags: 0
  m_IsActive: 1
--- !u!1 &107272
GameObject:
  m_ObjectHideFlags: 1
  m_PrefabParentObject: {fileID: 0}
  m_PrefabInternal: {fileID: 100100000}
  serializedVersion: 5
  m_Component:
  - component: {fileID: 479466}
  m_Layer: 0
  m_Name: CATRigRArmCollarbone
  m_TagString: Untagged
  m_Icon: {fileID: 0}
  m_NavMeshLayer: 0
  m_StaticEditorFlags: 0
  m_IsActive: 1
--- !u!1 &108008
GameObject:
  m_ObjectHideFlags: 1
  m_PrefabParentObject: {fileID: 0}
  m_PrefabInternal: {fileID: 100100000}
  serializedVersion: 5
  m_Component:
  - component: {fileID: 401640}
  m_Layer: 0
  m_Name: CATRigLLegAnkle
  m_TagString: Untagged
  m_Icon: {fileID: 0}
  m_NavMeshLayer: 0
  m_StaticEditorFlags: 0
  m_IsActive: 1
--- !u!1 &108320
GameObject:
  m_ObjectHideFlags: 1
  m_PrefabParentObject: {fileID: 0}
  m_PrefabInternal: {fileID: 100100000}
  serializedVersion: 5
  m_Component:
  - component: {fileID: 451790}
  m_Layer: 0
  m_Name: CATRigRLeg2
  m_TagString: Untagged
  m_Icon: {fileID: 0}
  m_NavMeshLayer: 0
  m_StaticEditorFlags: 0
  m_IsActive: 1
--- !u!1 &112850
GameObject:
  m_ObjectHideFlags: 1
  m_PrefabParentObject: {fileID: 0}
  m_PrefabInternal: {fileID: 100100000}
  serializedVersion: 5
  m_Component:
  - component: {fileID: 468896}
  m_Layer: 0
  m_Name: CATRigHub003Bone017
  m_TagString: Untagged
  m_Icon: {fileID: 0}
  m_NavMeshLayer: 0
  m_StaticEditorFlags: 0
  m_IsActive: 1
--- !u!1 &112882
GameObject:
  m_ObjectHideFlags: 1
  m_PrefabParentObject: {fileID: 0}
  m_PrefabInternal: {fileID: 100100000}
  serializedVersion: 5
  m_Component:
  - component: {fileID: 471644}
  m_Layer: 0
  m_Name: CATRigRArmDigit12
  m_TagString: Untagged
  m_Icon: {fileID: 0}
  m_NavMeshLayer: 0
  m_StaticEditorFlags: 0
  m_IsActive: 1
--- !u!1 &113726
GameObject:
  m_ObjectHideFlags: 1
  m_PrefabParentObject: {fileID: 0}
  m_PrefabInternal: {fileID: 100100000}
  serializedVersion: 5
  m_Component:
  - component: {fileID: 484438}
  m_Layer: 0
  m_Name: CATRigHub003Bone012
  m_TagString: Untagged
  m_Icon: {fileID: 0}
  m_NavMeshLayer: 0
  m_StaticEditorFlags: 0
  m_IsActive: 1
--- !u!1 &116018
GameObject:
  m_ObjectHideFlags: 1
  m_PrefabParentObject: {fileID: 0}
  m_PrefabInternal: {fileID: 100100000}
  serializedVersion: 5
  m_Component:
  - component: {fileID: 497970}
  m_Layer: 0
  m_Name: CATRigHub002
  m_TagString: Untagged
  m_Icon: {fileID: 0}
  m_NavMeshLayer: 0
  m_StaticEditorFlags: 0
  m_IsActive: 1
--- !u!1 &117284
GameObject:
  m_ObjectHideFlags: 1
  m_PrefabParentObject: {fileID: 0}
  m_PrefabInternal: {fileID: 100100000}
  serializedVersion: 5
  m_Component:
  - component: {fileID: 405032}
  m_Layer: 0
  m_Name: CATRigLLegDigit11
  m_TagString: Untagged
  m_Icon: {fileID: 0}
  m_NavMeshLayer: 0
  m_StaticEditorFlags: 0
  m_IsActive: 1
--- !u!1 &117442
GameObject:
  m_ObjectHideFlags: 1
  m_PrefabParentObject: {fileID: 0}
  m_PrefabInternal: {fileID: 100100000}
  serializedVersion: 5
  m_Component:
  - component: {fileID: 427332}
  m_Layer: 0
  m_Name: CATRigHub003Bone014
  m_TagString: Untagged
  m_Icon: {fileID: 0}
  m_NavMeshLayer: 0
  m_StaticEditorFlags: 0
  m_IsActive: 1
--- !u!1 &121030
GameObject:
  m_ObjectHideFlags: 1
  m_PrefabParentObject: {fileID: 0}
  m_PrefabInternal: {fileID: 100100000}
  serializedVersion: 5
  m_Component:
  - component: {fileID: 439980}
  m_Layer: 0
  m_Name: CATRigHub003Bone013
  m_TagString: Untagged
  m_Icon: {fileID: 0}
  m_NavMeshLayer: 0
  m_StaticEditorFlags: 0
  m_IsActive: 1
--- !u!1 &121154
GameObject:
  m_ObjectHideFlags: 1
  m_PrefabParentObject: {fileID: 0}
  m_PrefabInternal: {fileID: 100100000}
  serializedVersion: 5
  m_Component:
  - component: {fileID: 471688}
  m_Layer: 0
  m_Name: CATRigRArmDigit11
  m_TagString: Untagged
  m_Icon: {fileID: 0}
  m_NavMeshLayer: 0
  m_StaticEditorFlags: 0
  m_IsActive: 1
--- !u!1 &121826
GameObject:
  m_ObjectHideFlags: 1
  m_PrefabParentObject: {fileID: 0}
  m_PrefabInternal: {fileID: 100100000}
  serializedVersion: 5
  m_Component:
  - component: {fileID: 474618}
  m_Layer: 0
  m_Name: CATRigRLeg1
  m_TagString: Untagged
  m_Icon: {fileID: 0}
  m_NavMeshLayer: 0
  m_StaticEditorFlags: 0
  m_IsActive: 1
--- !u!1 &123222
GameObject:
  m_ObjectHideFlags: 1
  m_PrefabParentObject: {fileID: 0}
  m_PrefabInternal: {fileID: 100100000}
  serializedVersion: 5
  m_Component:
  - component: {fileID: 479738}
  m_Layer: 0
  m_Name: CATRigLArmDigit33
  m_TagString: Untagged
  m_Icon: {fileID: 0}
  m_NavMeshLayer: 0
  m_StaticEditorFlags: 0
  m_IsActive: 1
--- !u!1 &123574
GameObject:
  m_ObjectHideFlags: 1
  m_PrefabParentObject: {fileID: 0}
  m_PrefabInternal: {fileID: 100100000}
  serializedVersion: 5
  m_Component:
  - component: {fileID: 425710}
  m_Layer: 0
  m_Name: CATRigLArmDigit42
  m_TagString: Untagged
  m_Icon: {fileID: 0}
  m_NavMeshLayer: 0
  m_StaticEditorFlags: 0
  m_IsActive: 1
--- !u!1 &123778
GameObject:
  m_ObjectHideFlags: 1
  m_PrefabParentObject: {fileID: 0}
  m_PrefabInternal: {fileID: 100100000}
  serializedVersion: 5
  m_Component:
  - component: {fileID: 430228}
  m_Layer: 0
  m_Name: CATRigHub001
  m_TagString: Untagged
  m_Icon: {fileID: 0}
  m_NavMeshLayer: 0
  m_StaticEditorFlags: 0
  m_IsActive: 1
--- !u!1 &126954
GameObject:
  m_ObjectHideFlags: 1
  m_PrefabParentObject: {fileID: 0}
  m_PrefabInternal: {fileID: 100100000}
  serializedVersion: 5
  m_Component:
  - component: {fileID: 400792}
  m_Layer: 0
  m_Name: CATRigLLegPlatform
  m_TagString: Untagged
  m_Icon: {fileID: 0}
  m_NavMeshLayer: 0
  m_StaticEditorFlags: 0
  m_IsActive: 1
--- !u!1 &128422
GameObject:
  m_ObjectHideFlags: 1
  m_PrefabParentObject: {fileID: 0}
  m_PrefabInternal: {fileID: 100100000}
  serializedVersion: 5
  m_Component:
  - component: {fileID: 453884}
  m_Layer: 0
  m_Name: CATRigRArmDigit21
  m_TagString: Untagged
  m_Icon: {fileID: 0}
  m_NavMeshLayer: 0
  m_StaticEditorFlags: 0
  m_IsActive: 1
--- !u!1 &128920
GameObject:
  m_ObjectHideFlags: 1
  m_PrefabParentObject: {fileID: 0}
  m_PrefabInternal: {fileID: 100100000}
  serializedVersion: 5
  m_Component:
  - component: {fileID: 469616}
  m_Layer: 0
  m_Name: CATRigHub003Bone002
  m_TagString: Untagged
  m_Icon: {fileID: 0}
  m_NavMeshLayer: 0
  m_StaticEditorFlags: 0
  m_IsActive: 1
--- !u!1 &129094
GameObject:
  m_ObjectHideFlags: 1
  m_PrefabParentObject: {fileID: 0}
  m_PrefabInternal: {fileID: 100100000}
  serializedVersion: 5
  m_Component:
  - component: {fileID: 489154}
  m_Layer: 0
  m_Name: CATRigRArmDigit32
  m_TagString: Untagged
  m_Icon: {fileID: 0}
  m_NavMeshLayer: 0
  m_StaticEditorFlags: 0
  m_IsActive: 1
--- !u!1 &129816
GameObject:
  m_ObjectHideFlags: 1
  m_PrefabParentObject: {fileID: 0}
  m_PrefabInternal: {fileID: 100100000}
  serializedVersion: 5
  m_Component:
  - component: {fileID: 476810}
  m_Layer: 0
  m_Name: Character001
  m_TagString: Untagged
  m_Icon: {fileID: 0}
  m_NavMeshLayer: 0
  m_StaticEditorFlags: 0
  m_IsActive: 1
--- !u!1 &131178
GameObject:
  m_ObjectHideFlags: 1
  m_PrefabParentObject: {fileID: 0}
  m_PrefabInternal: {fileID: 100100000}
  serializedVersion: 5
  m_Component:
  - component: {fileID: 457412}
  m_Layer: 0
  m_Name: CATRigRArmDigit31
  m_TagString: Untagged
  m_Icon: {fileID: 0}
  m_NavMeshLayer: 0
  m_StaticEditorFlags: 0
  m_IsActive: 1
--- !u!1 &131454
GameObject:
  m_ObjectHideFlags: 1
  m_PrefabParentObject: {fileID: 0}
  m_PrefabInternal: {fileID: 100100000}
  serializedVersion: 5
  m_Component:
  - component: {fileID: 457070}
  m_Layer: 0
  m_Name: CATRigRLegPlatform
  m_TagString: Untagged
  m_Icon: {fileID: 0}
  m_NavMeshLayer: 0
  m_StaticEditorFlags: 0
  m_IsActive: 1
--- !u!1 &131590
GameObject:
  m_ObjectHideFlags: 1
  m_PrefabParentObject: {fileID: 0}
  m_PrefabInternal: {fileID: 100100000}
  serializedVersion: 5
  m_Component:
  - component: {fileID: 471550}
  m_Layer: 0
  m_Name: CATRigHub003Bone005
  m_TagString: Untagged
  m_Icon: {fileID: 0}
  m_NavMeshLayer: 0
  m_StaticEditorFlags: 0
  m_IsActive: 1
--- !u!1 &133278
GameObject:
  m_ObjectHideFlags: 1
  m_PrefabParentObject: {fileID: 0}
  m_PrefabInternal: {fileID: 100100000}
  serializedVersion: 5
  m_Component:
  - component: {fileID: 440942}
  m_Layer: 0
  m_Name: CATRigLArm2
  m_TagString: Untagged
  m_Icon: {fileID: 0}
  m_NavMeshLayer: 0
  m_StaticEditorFlags: 0
  m_IsActive: 1
--- !u!1 &135236
GameObject:
  m_ObjectHideFlags: 1
  m_PrefabParentObject: {fileID: 0}
  m_PrefabInternal: {fileID: 100100000}
  serializedVersion: 5
  m_Component:
  - component: {fileID: 472260}
  m_Layer: 0
  m_Name: CATRigLArmDigit41
  m_TagString: Untagged
  m_Icon: {fileID: 0}
  m_NavMeshLayer: 0
  m_StaticEditorFlags: 0
  m_IsActive: 1
--- !u!1 &135532
GameObject:
  m_ObjectHideFlags: 1
  m_PrefabParentObject: {fileID: 0}
  m_PrefabInternal: {fileID: 100100000}
  serializedVersion: 5
  m_Component:
  - component: {fileID: 411162}
  m_Layer: 0
  m_Name: CATRigLArmDigit11
  m_TagString: Untagged
  m_Icon: {fileID: 0}
  m_NavMeshLayer: 0
  m_StaticEditorFlags: 0
  m_IsActive: 1
--- !u!1 &135602
GameObject:
  m_ObjectHideFlags: 1
  m_PrefabParentObject: {fileID: 0}
  m_PrefabInternal: {fileID: 100100000}
  serializedVersion: 5
  m_Component:
  - component: {fileID: 430358}
  m_Layer: 0
  m_Name: CATRigHub003Bone010
  m_TagString: Untagged
  m_Icon: {fileID: 0}
  m_NavMeshLayer: 0
  m_StaticEditorFlags: 0
  m_IsActive: 1
--- !u!1 &137012
GameObject:
  m_ObjectHideFlags: 1
  m_PrefabParentObject: {fileID: 0}
  m_PrefabInternal: {fileID: 100100000}
  serializedVersion: 5
  m_Component:
  - component: {fileID: 403186}
  m_Layer: 0
  m_Name: CATRigHub003Bone008
  m_TagString: Untagged
  m_Icon: {fileID: 0}
  m_NavMeshLayer: 0
  m_StaticEditorFlags: 0
  m_IsActive: 1
--- !u!1 &137370
GameObject:
  m_ObjectHideFlags: 1
  m_PrefabParentObject: {fileID: 0}
  m_PrefabInternal: {fileID: 100100000}
  serializedVersion: 5
  m_Component:
  - component: {fileID: 462778}
  m_Layer: 0
  m_Name: CATRigRArm1
  m_TagString: Untagged
  m_Icon: {fileID: 0}
  m_NavMeshLayer: 0
  m_StaticEditorFlags: 0
  m_IsActive: 1
--- !u!1 &137942
GameObject:
  m_ObjectHideFlags: 1
  m_PrefabParentObject: {fileID: 0}
  m_PrefabInternal: {fileID: 100100000}
  serializedVersion: 5
  m_Component:
  - component: {fileID: 450970}
  m_Layer: 0
  m_Name: CATRigHub003Bone006
  m_TagString: Untagged
  m_Icon: {fileID: 0}
  m_NavMeshLayer: 0
  m_StaticEditorFlags: 0
  m_IsActive: 1
--- !u!1 &140052
GameObject:
  m_ObjectHideFlags: 1
  m_PrefabParentObject: {fileID: 0}
  m_PrefabInternal: {fileID: 100100000}
  serializedVersion: 5
  m_Component:
  - component: {fileID: 469160}
  m_Layer: 0
  m_Name: CATRigHub003Bone003
  m_TagString: Untagged
  m_Icon: {fileID: 0}
  m_NavMeshLayer: 0
  m_StaticEditorFlags: 0
  m_IsActive: 1
--- !u!1 &141986
GameObject:
  m_ObjectHideFlags: 1
  m_PrefabParentObject: {fileID: 0}
  m_PrefabInternal: {fileID: 100100000}
  serializedVersion: 5
  m_Component:
  - component: {fileID: 435594}
  m_Layer: 0
  m_Name: CATRigLArm1
  m_TagString: Untagged
  m_Icon: {fileID: 0}
  m_NavMeshLayer: 0
  m_StaticEditorFlags: 0
  m_IsActive: 1
--- !u!1 &145766
GameObject:
  m_ObjectHideFlags: 0
  m_PrefabParentObject: {fileID: 0}
  m_PrefabInternal: {fileID: 100100000}
  serializedVersion: 5
  m_Component:
  - component: {fileID: 449900}
  - component: {fileID: 11406472}
  m_Layer: 15
  m_Name: RaycastFront
  m_TagString: Untagged
  m_Icon: {fileID: 0}
  m_NavMeshLayer: 0
  m_StaticEditorFlags: 0
  m_IsActive: 1
--- !u!1 &147620
GameObject:
  m_ObjectHideFlags: 1
  m_PrefabParentObject: {fileID: 0}
  m_PrefabInternal: {fileID: 100100000}
  serializedVersion: 5
  m_Component:
  - component: {fileID: 440670}
  m_Layer: 0
  m_Name: CATRigRArmDigit22
  m_TagString: Untagged
  m_Icon: {fileID: 0}
  m_NavMeshLayer: 0
  m_StaticEditorFlags: 0
  m_IsActive: 1
--- !u!1 &149366
GameObject:
  m_ObjectHideFlags: 1
  m_PrefabParentObject: {fileID: 0}
  m_PrefabInternal: {fileID: 100100000}
  serializedVersion: 5
  m_Component:
  - component: {fileID: 402380}
  m_Layer: 0
  m_Name: CATRigHub003Bone009
  m_TagString: Untagged
  m_Icon: {fileID: 0}
  m_NavMeshLayer: 0
  m_StaticEditorFlags: 0
  m_IsActive: 1
--- !u!1 &152028
GameObject:
  m_ObjectHideFlags: 1
  m_PrefabParentObject: {fileID: 0}
  m_PrefabInternal: {fileID: 100100000}
  serializedVersion: 5
  m_Component:
  - component: {fileID: 481852}
  m_Layer: 0
  m_Name: CATRigLArmDigit32
  m_TagString: Untagged
  m_Icon: {fileID: 0}
  m_NavMeshLayer: 0
  m_StaticEditorFlags: 0
  m_IsActive: 1
--- !u!1 &153528
GameObject:
  m_ObjectHideFlags: 0
  m_PrefabParentObject: {fileID: 0}
  m_PrefabInternal: {fileID: 100100000}
  serializedVersion: 5
  m_Component:
  - component: {fileID: 436286}
  - component: {fileID: 9544890}
  - component: {fileID: 114597858728306546}
  m_Layer: 0
  m_Name: Body
  m_TagString: Untagged
  m_Icon: {fileID: 0}
  m_NavMeshLayer: 0
  m_StaticEditorFlags: 0
  m_IsActive: 1
--- !u!1 &154168
GameObject:
  m_ObjectHideFlags: 1
  m_PrefabParentObject: {fileID: 0}
  m_PrefabInternal: {fileID: 100100000}
  serializedVersion: 5
  m_Component:
  - component: {fileID: 489958}
  m_Layer: 0
  m_Name: CATRigLLeg2
  m_TagString: Untagged
  m_Icon: {fileID: 0}
  m_NavMeshLayer: 0
  m_StaticEditorFlags: 0
  m_IsActive: 1
--- !u!1 &159524
GameObject:
  m_ObjectHideFlags: 1
  m_PrefabParentObject: {fileID: 0}
  m_PrefabInternal: {fileID: 100100000}
  serializedVersion: 5
  m_Component:
  - component: {fileID: 419620}
  m_Layer: 0
  m_Name: CATRigRArmDigit13
  m_TagString: Untagged
  m_Icon: {fileID: 0}
  m_NavMeshLayer: 0
  m_StaticEditorFlags: 0
  m_IsActive: 1
--- !u!1 &161580
GameObject:
  m_ObjectHideFlags: 1
  m_PrefabParentObject: {fileID: 0}
  m_PrefabInternal: {fileID: 100100000}
  serializedVersion: 5
  m_Component:
  - component: {fileID: 414982}
  m_Layer: 0
  m_Name: CATRigLArmDigit21
  m_TagString: Untagged
  m_Icon: {fileID: 0}
  m_NavMeshLayer: 0
  m_StaticEditorFlags: 0
  m_IsActive: 1
--- !u!1 &161952
GameObject:
  m_ObjectHideFlags: 1
  m_PrefabParentObject: {fileID: 0}
  m_PrefabInternal: {fileID: 100100000}
  serializedVersion: 5
  m_Component:
  - component: {fileID: 448014}
  m_Layer: 0
  m_Name: CATRigHub003Bone016
  m_TagString: Untagged
  m_Icon: {fileID: 0}
  m_NavMeshLayer: 0
  m_StaticEditorFlags: 0
  m_IsActive: 1
--- !u!1 &162086
GameObject:
  m_ObjectHideFlags: 1
  m_PrefabParentObject: {fileID: 0}
  m_PrefabInternal: {fileID: 100100000}
  serializedVersion: 5
  m_Component:
  - component: {fileID: 412172}
  m_Layer: 0
  m_Name: CATRigHub003Bone018
  m_TagString: Untagged
  m_Icon: {fileID: 0}
  m_NavMeshLayer: 0
  m_StaticEditorFlags: 0
  m_IsActive: 1
--- !u!1 &163422
GameObject:
  m_ObjectHideFlags: 1
  m_PrefabParentObject: {fileID: 0}
  m_PrefabInternal: {fileID: 100100000}
  serializedVersion: 5
  m_Component:
  - component: {fileID: 426884}
  m_Layer: 0
  m_Name: CATRigLArmDigit13
  m_TagString: Untagged
  m_Icon: {fileID: 0}
  m_NavMeshLayer: 0
  m_StaticEditorFlags: 0
  m_IsActive: 1
--- !u!1 &163836
GameObject:
  m_ObjectHideFlags: 1
  m_PrefabParentObject: {fileID: 0}
  m_PrefabInternal: {fileID: 100100000}
  serializedVersion: 5
  m_Component:
  - component: {fileID: 431428}
  m_Layer: 0
  m_Name: CATRigLArmDigit31
  m_TagString: Untagged
  m_Icon: {fileID: 0}
  m_NavMeshLayer: 0
  m_StaticEditorFlags: 0
  m_IsActive: 1
--- !u!1 &165226
GameObject:
  m_ObjectHideFlags: 1
  m_PrefabParentObject: {fileID: 0}
  m_PrefabInternal: {fileID: 100100000}
  serializedVersion: 5
  m_Component:
  - component: {fileID: 410558}
  m_Layer: 0
  m_Name: CATRigRArmDigit23
  m_TagString: Untagged
  m_Icon: {fileID: 0}
  m_NavMeshLayer: 0
  m_StaticEditorFlags: 0
  m_IsActive: 1
--- !u!1 &165818
GameObject:
  m_ObjectHideFlags: 1
  m_PrefabParentObject: {fileID: 0}
  m_PrefabInternal: {fileID: 100100000}
  serializedVersion: 5
  m_Component:
  - component: {fileID: 457206}
  m_Layer: 0
  m_Name: CATRigLArmDigit43
  m_TagString: Untagged
  m_Icon: {fileID: 0}
  m_NavMeshLayer: 0
  m_StaticEditorFlags: 0
  m_IsActive: 1
--- !u!1 &166796
GameObject:
  m_ObjectHideFlags: 1
  m_PrefabParentObject: {fileID: 0}
  m_PrefabInternal: {fileID: 100100000}
  serializedVersion: 5
  m_Component:
  - component: {fileID: 436950}
  m_Layer: 0
  m_Name: CATRigSpine
  m_TagString: Untagged
  m_Icon: {fileID: 0}
  m_NavMeshLayer: 0
  m_StaticEditorFlags: 0
  m_IsActive: 1
--- !u!1 &166900
GameObject:
  m_ObjectHideFlags: 1
  m_PrefabParentObject: {fileID: 0}
  m_PrefabInternal: {fileID: 100100000}
  serializedVersion: 5
  m_Component:
  - component: {fileID: 461816}
  m_Layer: 0
  m_Name: CATRigHub003Bone001
  m_TagString: Untagged
  m_Icon: {fileID: 0}
  m_NavMeshLayer: 0
  m_StaticEditorFlags: 0
  m_IsActive: 1
--- !u!1 &171938
GameObject:
  m_ObjectHideFlags: 1
  m_PrefabParentObject: {fileID: 0}
  m_PrefabInternal: {fileID: 100100000}
  serializedVersion: 5
  m_Component:
  - component: {fileID: 403588}
  m_Layer: 0
  m_Name: CATRigRArm2
  m_TagString: Untagged
  m_Icon: {fileID: 0}
  m_NavMeshLayer: 0
  m_StaticEditorFlags: 0
  m_IsActive: 1
--- !u!1 &172112
GameObject:
  m_ObjectHideFlags: 1
  m_PrefabParentObject: {fileID: 0}
  m_PrefabInternal: {fileID: 100100000}
  serializedVersion: 5
  m_Component:
  - component: {fileID: 433574}
  m_Layer: 0
  m_Name: CATRigHub003Bone007
  m_TagString: Untagged
  m_Icon: {fileID: 0}
  m_NavMeshLayer: 0
  m_StaticEditorFlags: 0
  m_IsActive: 1
--- !u!1 &172480
GameObject:
  m_ObjectHideFlags: 1
  m_PrefabParentObject: {fileID: 0}
  m_PrefabInternal: {fileID: 100100000}
  serializedVersion: 5
  m_Component:
  - component: {fileID: 439240}
  m_Layer: 0
  m_Name: CATRigHub003Bone015
  m_TagString: Untagged
  m_Icon: {fileID: 0}
  m_NavMeshLayer: 0
  m_StaticEditorFlags: 0
  m_IsActive: 1
--- !u!1 &174752
GameObject:
  m_ObjectHideFlags: 1
  m_PrefabParentObject: {fileID: 0}
  m_PrefabInternal: {fileID: 100100000}
  serializedVersion: 5
  m_Component:
  - component: {fileID: 405270}
  m_Layer: 0
  m_Name: CATRigRArmDigit42
  m_TagString: Untagged
  m_Icon: {fileID: 0}
  m_NavMeshLayer: 0
  m_StaticEditorFlags: 0
  m_IsActive: 1
--- !u!1 &175186
GameObject:
  m_ObjectHideFlags: 1
  m_PrefabParentObject: {fileID: 0}
  m_PrefabInternal: {fileID: 100100000}
  serializedVersion: 5
  m_Component:
  - component: {fileID: 449058}
  m_Layer: 0
  m_Name: CATRigLArmDigit23
  m_TagString: Untagged
  m_Icon: {fileID: 0}
  m_NavMeshLayer: 0
  m_StaticEditorFlags: 0
  m_IsActive: 1
--- !u!1 &176314
GameObject:
  m_ObjectHideFlags: 1
  m_PrefabParentObject: {fileID: 0}
  m_PrefabInternal: {fileID: 100100000}
  serializedVersion: 5
  m_Component:
  - component: {fileID: 419358}
  m_Layer: 0
  m_Name: CATRigRArmDigit41
  m_TagString: Untagged
  m_Icon: {fileID: 0}
  m_NavMeshLayer: 0
  m_StaticEditorFlags: 0
  m_IsActive: 1
--- !u!1 &176436
GameObject:
  m_ObjectHideFlags: 1
  m_PrefabParentObject: {fileID: 0}
  m_PrefabInternal: {fileID: 100100000}
  serializedVersion: 5
  m_Component:
  - component: {fileID: 467636}
  m_Layer: 0
  m_Name: CATRigLArmDigit22
  m_TagString: Untagged
  m_Icon: {fileID: 0}
  m_NavMeshLayer: 0
  m_StaticEditorFlags: 0
  m_IsActive: 1
--- !u!1 &179752
GameObject:
  m_ObjectHideFlags: 1
  m_PrefabParentObject: {fileID: 0}
  m_PrefabInternal: {fileID: 100100000}
  serializedVersion: 5
  m_Component:
  - component: {fileID: 452802}
  m_Layer: 0
  m_Name: CATRigLArmCollarbone
  m_TagString: Untagged
  m_Icon: {fileID: 0}
  m_NavMeshLayer: 0
  m_StaticEditorFlags: 0
  m_IsActive: 1
--- !u!1 &181370
GameObject:
  m_ObjectHideFlags: 1
  m_PrefabParentObject: {fileID: 0}
  m_PrefabInternal: {fileID: 100100000}
  serializedVersion: 5
  m_Component:
  - component: {fileID: 470136}
  m_Layer: 0
  m_Name: CATRigLArmPalm
  m_TagString: Untagged
  m_Icon: {fileID: 0}
  m_NavMeshLayer: 0
  m_StaticEditorFlags: 0
  m_IsActive: 1
--- !u!1 &186560
GameObject:
  m_ObjectHideFlags: 1
  m_PrefabParentObject: {fileID: 0}
  m_PrefabInternal: {fileID: 100100000}
  serializedVersion: 5
  m_Component:
  - component: {fileID: 472160}
  m_Layer: 0
  m_Name: CATRigHub003Bone011
  m_TagString: Untagged
  m_Icon: {fileID: 0}
  m_NavMeshLayer: 0
  m_StaticEditorFlags: 0
  m_IsActive: 1
--- !u!1 &188758
GameObject:
  m_ObjectHideFlags: 1
  m_PrefabParentObject: {fileID: 0}
  m_PrefabInternal: {fileID: 100100000}
  serializedVersion: 5
  m_Component:
  - component: {fileID: 493758}
  m_Layer: 0
  m_Name: CATRigSpine2
  m_TagString: Untagged
  m_Icon: {fileID: 0}
  m_NavMeshLayer: 0
  m_StaticEditorFlags: 0
  m_IsActive: 1
--- !u!1 &189584
GameObject:
  m_ObjectHideFlags: 1
  m_PrefabParentObject: {fileID: 0}
  m_PrefabInternal: {fileID: 100100000}
  serializedVersion: 5
  m_Component:
  - component: {fileID: 461206}
  - component: {fileID: 13745004}
  m_Layer: 15
  m_Name: Golem
  m_TagString: Untagged
  m_Icon: {fileID: 0}
  m_NavMeshLayer: 0
  m_StaticEditorFlags: 0
  m_IsActive: 1
--- !u!1 &192554
GameObject:
  m_ObjectHideFlags: 1
  m_PrefabParentObject: {fileID: 0}
  m_PrefabInternal: {fileID: 100100000}
  serializedVersion: 5
  m_Component:
  - component: {fileID: 484088}
  m_Layer: 0
  m_Name: CATRigHub003
  m_TagString: Untagged
  m_Icon: {fileID: 0}
  m_NavMeshLayer: 0
  m_StaticEditorFlags: 0
  m_IsActive: 1
--- !u!1 &193894
GameObject:
  m_ObjectHideFlags: 1
  m_PrefabParentObject: {fileID: 0}
  m_PrefabInternal: {fileID: 100100000}
  serializedVersion: 5
  m_Component:
  - component: {fileID: 417574}
  m_Layer: 0
  m_Name: CATRigSpine1
  m_TagString: Untagged
  m_Icon: {fileID: 0}
  m_NavMeshLayer: 0
  m_StaticEditorFlags: 0
  m_IsActive: 1
--- !u!1 &195066
GameObject:
  m_ObjectHideFlags: 1
  m_PrefabParentObject: {fileID: 0}
  m_PrefabInternal: {fileID: 100100000}
  serializedVersion: 5
  m_Component:
  - component: {fileID: 471266}
  m_Layer: 0
  m_Name: CATRigLLeg1
  m_TagString: Untagged
  m_Icon: {fileID: 0}
  m_NavMeshLayer: 0
  m_StaticEditorFlags: 0
  m_IsActive: 1
--- !u!1 &195912
GameObject:
  m_ObjectHideFlags: 1
  m_PrefabParentObject: {fileID: 0}
  m_PrefabInternal: {fileID: 100100000}
  serializedVersion: 5
  m_Component:
  - component: {fileID: 436956}
  m_Layer: 0
  m_Name: CATRigHub003Bone004
  m_TagString: Untagged
  m_Icon: {fileID: 0}
  m_NavMeshLayer: 0
  m_StaticEditorFlags: 0
  m_IsActive: 1
--- !u!1 &198538
GameObject:
  m_ObjectHideFlags: 1
  m_PrefabParentObject: {fileID: 0}
  m_PrefabInternal: {fileID: 100100000}
  serializedVersion: 5
  m_Component:
  - component: {fileID: 478712}
  m_Layer: 0
  m_Name: CATRigRArmDigit33
  m_TagString: Untagged
  m_Icon: {fileID: 0}
  m_NavMeshLayer: 0
  m_StaticEditorFlags: 0
  m_IsActive: 1
--- !u!1 &199400
GameObject:
  m_ObjectHideFlags: 1
  m_PrefabParentObject: {fileID: 0}
  m_PrefabInternal: {fileID: 100100000}
  serializedVersion: 5
  m_Component:
  - component: {fileID: 424918}
  m_Layer: 0
  m_Name: CATRigRArmDigit43
  m_TagString: Untagged
  m_Icon: {fileID: 0}
  m_NavMeshLayer: 0
  m_StaticEditorFlags: 0
  m_IsActive: 1
--- !u!1 &199904
GameObject:
  m_ObjectHideFlags: 1
  m_PrefabParentObject: {fileID: 0}
  m_PrefabInternal: {fileID: 100100000}
  serializedVersion: 5
  m_Component:
  - component: {fileID: 437080}
  m_Layer: 0
  m_Name: CATRigRLegAnkle
  m_TagString: Untagged
  m_Icon: {fileID: 0}
  m_NavMeshLayer: 0
  m_StaticEditorFlags: 0
  m_IsActive: 1
--- !u!4 &400792
Transform:
  m_ObjectHideFlags: 1
  m_PrefabParentObject: {fileID: 0}
  m_PrefabInternal: {fileID: 100100000}
  m_GameObject: {fileID: 126954}
  m_LocalRotation: {x: 0.567116, y: -0.56711584, z: -0.42234996, w: 0.42235008}
  m_LocalPosition: {x: -0.3799587, y: 0.0015788276, z: -0.0947237}
  m_LocalScale: {x: 1, y: 1, z: 1}
  m_Children: []
  m_Father: {fileID: 436286}
  m_RootOrder: 1
  m_LocalEulerAnglesHint: {x: 0, y: 0, z: 0}
--- !u!4 &401640
Transform:
  m_ObjectHideFlags: 1
  m_PrefabParentObject: {fileID: 0}
  m_PrefabInternal: {fileID: 100100000}
  m_GameObject: {fileID: 108008}
  m_LocalRotation: {x: -0.09452712, y: -0.1292934, z: -0.66076016, w: 0.73331016}
  m_LocalPosition: {x: -0.48905924, y: 0, z: 0.000000059604645}
  m_LocalScale: {x: 0.9999999, y: 1.0000004, z: 0.9999999}
  m_Children:
  - {fileID: 405032}
  m_Father: {fileID: 489958}
  m_RootOrder: 0
  m_LocalEulerAnglesHint: {x: 0, y: 0, z: 0}
--- !u!4 &402380
Transform:
  m_ObjectHideFlags: 1
  m_PrefabParentObject: {fileID: 0}
  m_PrefabInternal: {fileID: 100100000}
  m_GameObject: {fileID: 149366}
  m_LocalRotation: {x: -8.191413e-10, y: 0.00000002234366, z: -0.000000014901179,
    w: 1}
  m_LocalPosition: {x: 0.13082862, y: 0.106652096, z: 0.052128635}
  m_LocalScale: {x: 1, y: 1, z: 1}
  m_Children: []
  m_Father: {fileID: 484088}
  m_RootOrder: 8
  m_LocalEulerAnglesHint: {x: 0, y: 0, z: 0}
--- !u!4 &403186
Transform:
  m_ObjectHideFlags: 1
  m_PrefabParentObject: {fileID: 0}
  m_PrefabInternal: {fileID: 100100000}
  m_GameObject: {fileID: 137012}
  m_LocalRotation: {x: -8.191413e-10, y: 0.00000002234366, z: -0.000000014901179,
    w: 1}
  m_LocalPosition: {x: 0.13082862, y: 0.11005981, z: -0.046759315}
  m_LocalScale: {x: 1, y: 1, z: 1}
  m_Children: []
  m_Father: {fileID: 484088}
  m_RootOrder: 7
  m_LocalEulerAnglesHint: {x: 0, y: 0, z: 0}
--- !u!4 &403588
Transform:
  m_ObjectHideFlags: 1
  m_PrefabParentObject: {fileID: 0}
  m_PrefabInternal: {fileID: 100100000}
  m_GameObject: {fileID: 171938}
  m_LocalRotation: {x: -0.048435267, y: -0.10197423, z: -0.26141882, w: 0.9586008}
  m_LocalPosition: {x: -0.671839, y: 0, z: -0.000000059604645}
  m_LocalScale: {x: 1.0000002, y: 0.9999995, z: 1.0000002}
  m_Children:
  - {fileID: 468012}
  m_Father: {fileID: 462778}
  m_RootOrder: 0
  m_LocalEulerAnglesHint: {x: 0, y: 0, z: 0}
--- !u!4 &405032
Transform:
  m_ObjectHideFlags: 1
  m_PrefabParentObject: {fileID: 0}
  m_PrefabInternal: {fileID: 100100000}
  m_GameObject: {fileID: 117284}
  m_LocalRotation: {x: 0.0015307046, y: -0.001182889, z: -0.17838943, w: 0.98395807}
  m_LocalPosition: {x: -0.31050068, y: 0, z: 0}
  m_LocalScale: {x: 0.9999997, y: 1.0000001, z: 1}
  m_Children: []
  m_Father: {fileID: 401640}
  m_RootOrder: 0
  m_LocalEulerAnglesHint: {x: 0, y: 0, z: 0}
--- !u!4 &405270
Transform:
  m_ObjectHideFlags: 1
  m_PrefabParentObject: {fileID: 0}
  m_PrefabInternal: {fileID: 100100000}
  m_GameObject: {fileID: 174752}
  m_LocalRotation: {x: -0.000000026077052, y: -0.000000026077005, z: -0.00000004470344,
    w: 1}
  m_LocalPosition: {x: -0.067500055, y: 0.000000059604645, z: -0.000000007450581}
  m_LocalScale: {x: 1.000001, y: 0.9999993, z: 1}
  m_Children:
  - {fileID: 424918}
  m_Father: {fileID: 419358}
  m_RootOrder: 0
  m_LocalEulerAnglesHint: {x: 0, y: 0, z: 0}
--- !u!4 &410558
Transform:
  m_ObjectHideFlags: 1
  m_PrefabParentObject: {fileID: 0}
  m_PrefabInternal: {fileID: 100100000}
  m_GameObject: {fileID: 165226}
  m_LocalRotation: {x: -0.000000065192545, y: -0.00000006705521, z: -0.00000002235174,
    w: 1}
  m_LocalPosition: {x: -0.067499995, y: 0.000000029802322, z: 0}
  m_LocalScale: {x: 1.0000002, y: 1.0000006, z: 0.9999995}
  m_Children: []
  m_Father: {fileID: 440670}
  m_RootOrder: 0
  m_LocalEulerAnglesHint: {x: 0, y: 0, z: 0}
--- !u!4 &411162
Transform:
  m_ObjectHideFlags: 1
  m_PrefabParentObject: {fileID: 0}
  m_PrefabInternal: {fileID: 100100000}
  m_GameObject: {fileID: 135532}
  m_LocalRotation: {x: 0.2790898, y: 0.28549927, z: 0.11249979, w: 0.90991366}
  m_LocalPosition: {x: -0.11638963, y: 0.011403322, z: 0.0835816}
  m_LocalScale: {x: 0.9999987, y: 1.0000005, z: 1.0000006}
  m_Children:
  - {fileID: 419200}
  m_Father: {fileID: 470136}
  m_RootOrder: 0
  m_LocalEulerAnglesHint: {x: 0, y: 0, z: 0}
--- !u!4 &412172
Transform:
  m_ObjectHideFlags: 1
  m_PrefabParentObject: {fileID: 0}
  m_PrefabInternal: {fileID: 100100000}
  m_GameObject: {fileID: 162086}
  m_LocalRotation: {x: -8.191413e-10, y: 0.00000002234366, z: -0.000000014901179,
    w: 1}
  m_LocalPosition: {x: 0.047424078, y: 0.11005987, z: 0.071336076}
  m_LocalScale: {x: 1, y: 1, z: 1}
  m_Children: []
  m_Father: {fileID: 484088}
  m_RootOrder: 17
  m_LocalEulerAnglesHint: {x: 0, y: 0, z: 0}
--- !u!4 &414982
Transform:
  m_ObjectHideFlags: 1
  m_PrefabParentObject: {fileID: 0}
  m_PrefabInternal: {fileID: 100100000}
  m_GameObject: {fileID: 161580}
  m_LocalRotation: {x: -0.0031799388, y: -0.075106375, z: 0.1059417, w: 0.9915267}
  m_LocalPosition: {x: -0.21318632, y: -0.004169464, z: 0.06713168}
  m_LocalScale: {x: 1.0000007, y: 1, z: 0.99999934}
  m_Children:
  - {fileID: 467636}
  m_Father: {fileID: 470136}
  m_RootOrder: 1
  m_LocalEulerAnglesHint: {x: 0, y: 0, z: 0}
--- !u!4 &416354
Transform:
  m_ObjectHideFlags: 1
  m_PrefabParentObject: {fileID: 0}
  m_PrefabInternal: {fileID: 100100000}
  m_GameObject: {fileID: 102712}
  m_LocalRotation: {x: -0, y: -0, z: -0, w: 1}
  m_LocalPosition: {x: -114.91249, y: 40.2, z: -88.06279}
  m_LocalScale: {x: 3, y: 3, z: 3}
  m_Children:
  - {fileID: 449900}
  - {fileID: 436286}
  - {fileID: 4576133853610282}
  m_Father: {fileID: 0}
  m_RootOrder: 0
  m_LocalEulerAnglesHint: {x: 0, y: 0, z: 0}
--- !u!4 &417574
Transform:
  m_ObjectHideFlags: 1
  m_PrefabParentObject: {fileID: 0}
  m_PrefabInternal: {fileID: 100100000}
  m_GameObject: {fileID: 193894}
  m_LocalRotation: {x: 0.000955828, y: -0.010983851, z: 0.03132128, w: 0.9994486}
  m_LocalPosition: {x: 0, y: 0, z: 0}
  m_LocalScale: {x: 1.0000002, y: 1.0000002, z: 1}
  m_Children:
  - {fileID: 493758}
  m_Father: {fileID: 430228}
  m_RootOrder: 2
  m_LocalEulerAnglesHint: {x: 0, y: 0, z: 0}
--- !u!4 &419200
Transform:
  m_ObjectHideFlags: 1
  m_PrefabParentObject: {fileID: 0}
  m_PrefabInternal: {fileID: 100100000}
  m_GameObject: {fileID: 104990}
  m_LocalRotation: {x: 0.000000007450581, y: 0.00000001490117, z: 0.00000004470351,
    w: 1}
  m_LocalPosition: {x: -0.07499999, y: 0, z: 0.000000059604645}
  m_LocalScale: {x: 0.99999946, y: 0.9999999, z: 1.0000006}
  m_Children:
  - {fileID: 426884}
  m_Father: {fileID: 411162}
  m_RootOrder: 0
  m_LocalEulerAnglesHint: {x: 0, y: 0, z: 0}
--- !u!4 &419358
Transform:
  m_ObjectHideFlags: 1
  m_PrefabParentObject: {fileID: 0}
  m_PrefabInternal: {fileID: 100100000}
  m_GameObject: {fileID: 176314}
  m_LocalRotation: {x: 0.0055629066, y: 0.09739995, z: 0.10584374, w: 0.98958546}
  m_LocalPosition: {x: -0.21159506, y: 0.004583299, z: 0.072566435}
  m_LocalScale: {x: 0.9999995, y: 1.0000006, z: 0.9999999}
  m_Children:
  - {fileID: 405270}
  m_Father: {fileID: 468012}
  m_RootOrder: 3
  m_LocalEulerAnglesHint: {x: 0, y: 0, z: 0}
--- !u!4 &419620
Transform:
  m_ObjectHideFlags: 1
  m_PrefabParentObject: {fileID: 0}
  m_PrefabInternal: {fileID: 100100000}
  m_GameObject: {fileID: 159524}
  m_LocalRotation: {x: -0.000000007450584, y: 0.000000014901161, z: 0.000000011175871,
    w: 1}
  m_LocalPosition: {x: -0.07500005, y: 0, z: 0.000000029802322}
  m_LocalScale: {x: 1, y: 0.9999996, z: 1.0000005}
  m_Children: []
  m_Father: {fileID: 471644}
  m_RootOrder: 0
  m_LocalEulerAnglesHint: {x: 0, y: 0, z: 0}
--- !u!4 &424918
Transform:
  m_ObjectHideFlags: 1
  m_PrefabParentObject: {fileID: 0}
  m_PrefabInternal: {fileID: 100100000}
  m_GameObject: {fileID: 199400}
  m_LocalRotation: {x: 0.000000058673358, y: -0.000000018626434, z: 0.000000014901148,
    w: 1}
  m_LocalPosition: {x: -0.067499936, y: -0.000000059604645, z: 0.000000007450581}
  m_LocalScale: {x: 1.000001, y: 0.9999994, z: 1.0000001}
  m_Children: []
  m_Father: {fileID: 405270}
  m_RootOrder: 0
  m_LocalEulerAnglesHint: {x: 0, y: 0, z: 0}
--- !u!4 &425710
Transform:
  m_ObjectHideFlags: 1
  m_PrefabParentObject: {fileID: 0}
  m_PrefabInternal: {fileID: 100100000}
  m_GameObject: {fileID: 123574}
  m_LocalRotation: {x: -0.000000027008351, y: -0.000000119209176, z: 0.00000002980229,
    w: 1}
  m_LocalPosition: {x: -0.067499995, y: 0.000000029802322, z: 0}
  m_LocalScale: {x: 1.000001, y: 1, z: 0.9999992}
  m_Children:
  - {fileID: 457206}
  m_Father: {fileID: 472260}
  m_RootOrder: 0
  m_LocalEulerAnglesHint: {x: 0, y: 0, z: 0}
--- !u!4 &426884
Transform:
  m_ObjectHideFlags: 1
  m_PrefabParentObject: {fileID: 0}
  m_PrefabInternal: {fileID: 100100000}
  m_GameObject: {fileID: 163422}
  m_LocalRotation: {x: 0.0000000037252907, y: -0.00000001490117, z: 0.000000026077048,
    w: 1}
  m_LocalPosition: {x: -0.07499999, y: 0, z: -0.000000029802322}
  m_LocalScale: {x: 0.9999994, y: 1, z: 1.0000007}
  m_Children: []
  m_Father: {fileID: 419200}
  m_RootOrder: 0
  m_LocalEulerAnglesHint: {x: 0, y: 0, z: 0}
--- !u!4 &427332
Transform:
  m_ObjectHideFlags: 1
  m_PrefabParentObject: {fileID: 0}
  m_PrefabInternal: {fileID: 100100000}
  m_GameObject: {fileID: 117442}
  m_LocalRotation: {x: -8.191413e-10, y: 0.00000002234366, z: -0.000000014901179,
    w: 1}
  m_LocalPosition: {x: -0.096572876, y: 0.11816324, z: -0.13120122}
  m_LocalScale: {x: 1, y: 1, z: 1}
  m_Children: []
  m_Father: {fileID: 484088}
  m_RootOrder: 13
  m_LocalEulerAnglesHint: {x: 0, y: 0, z: 0}
--- !u!4 &430228
Transform:
  m_ObjectHideFlags: 1
  m_PrefabParentObject: {fileID: 0}
  m_PrefabInternal: {fileID: 100100000}
  m_GameObject: {fileID: 123778}
  m_LocalRotation: {x: 0.50000006, y: -0.4999999, z: -0.49999994, w: 0.5000001}
  m_LocalPosition: {x: -0.0364897, y: 1.12655, z: -0.35640824}
  m_LocalScale: {x: 1, y: 1, z: 1}
  m_Children:
  - {fileID: 471266}
  - {fileID: 474618}
  - {fileID: 417574}
  m_Father: {fileID: 436286}
  m_RootOrder: 0
  m_LocalEulerAnglesHint: {x: 0, y: 0, z: 0}
--- !u!4 &430358
Transform:
  m_ObjectHideFlags: 1
  m_PrefabParentObject: {fileID: 0}
  m_PrefabInternal: {fileID: 100100000}
  m_GameObject: {fileID: 135602}
  m_LocalRotation: {x: 0.000000014346609, y: 0.00000002430399, z: 0.2544399, w: 0.96708864}
  m_LocalPosition: {x: 0.21194398, y: 0.1087576, z: -0.05574353}
  m_LocalScale: {x: 1, y: 1.0000001, z: 1}
  m_Children: []
  m_Father: {fileID: 484088}
  m_RootOrder: 9
  m_LocalEulerAnglesHint: {x: 0, y: 0, z: 0}
--- !u!4 &431428
Transform:
  m_ObjectHideFlags: 1
  m_PrefabParentObject: {fileID: 0}
  m_PrefabInternal: {fileID: 100100000}
  m_GameObject: {fileID: 163836}
  m_LocalRotation: {x: -0.004843003, y: -0.09066634, z: 0.10587892, w: 0.99022514}
  m_LocalPosition: {x: -0.21089178, y: 0.0046969056, z: 0.0010334104}
  m_LocalScale: {x: 1.0000006, y: 1.0000001, z: 0.9999994}
  m_Children:
  - {fileID: 481852}
  m_Father: {fileID: 470136}
  m_RootOrder: 2
  m_LocalEulerAnglesHint: {x: 0, y: 0, z: 0}
--- !u!4 &433574
Transform:
  m_ObjectHideFlags: 1
  m_PrefabParentObject: {fileID: 0}
  m_PrefabInternal: {fileID: 100100000}
  m_GameObject: {fileID: 172112}
  m_LocalRotation: {x: 0.000000014346609, y: 0.00000002430399, z: 0.2544399, w: 0.96708864}
  m_LocalPosition: {x: 0.199121, y: 0.13582866, z: 0.0018834416}
  m_LocalScale: {x: 1, y: 1.0000001, z: 1}
  m_Children: []
  m_Father: {fileID: 484088}
  m_RootOrder: 6
  m_LocalEulerAnglesHint: {x: 0, y: 0, z: 0}
--- !u!4 &435594
Transform:
  m_ObjectHideFlags: 1
  m_PrefabParentObject: {fileID: 0}
  m_PrefabInternal: {fileID: 100100000}
  m_GameObject: {fileID: 141986}
  m_LocalRotation: {x: -0.16646823, y: 0.59792596, z: -0.34531382, w: 0.7039398}
  m_LocalPosition: {x: -0.5046063, y: 0.00000011920929, z: 0}
  m_LocalScale: {x: 0.9999991, y: 1.0000005, z: 1.0000006}
  m_Children:
  - {fileID: 440942}
  m_Father: {fileID: 452802}
  m_RootOrder: 0
  m_LocalEulerAnglesHint: {x: 0, y: 0, z: 0}
--- !u!4 &435946
Transform:
  m_ObjectHideFlags: 1
  m_PrefabParentObject: {fileID: 0}
  m_PrefabInternal: {fileID: 100100000}
  m_GameObject: {fileID: 103464}
  m_LocalRotation: {x: -0.0015123069, y: 0.001080646, z: -0.17845917, w: 0.9839456}
  m_LocalPosition: {x: -0.3105006, y: 0.000000014901161, z: 0.000000029802322}
  m_LocalScale: {x: 1.0000001, y: 0.99999994, z: 1}
  m_Children: []
  m_Father: {fileID: 437080}
  m_RootOrder: 0
  m_LocalEulerAnglesHint: {x: 0, y: 0, z: 0}
--- !u!4 &436286
Transform:
  m_ObjectHideFlags: 1
  m_PrefabParentObject: {fileID: 0}
  m_PrefabInternal: {fileID: 100100000}
  m_GameObject: {fileID: 153528}
  m_LocalRotation: {x: 0, y: 0, z: 0, w: 1}
  m_LocalPosition: {x: 0, y: -0.55, z: 0}
  m_LocalScale: {x: 0.6, y: 0.6, z: 0.6}
  m_Children:
  - {fileID: 430228}
  - {fileID: 400792}
  - {fileID: 457070}
  - {fileID: 476810}
  - {fileID: 461206}
  m_Father: {fileID: 416354}
  m_RootOrder: 1
  m_LocalEulerAnglesHint: {x: 0, y: 0, z: 0}
--- !u!4 &436950
Transform:
  m_ObjectHideFlags: 1
  m_PrefabParentObject: {fileID: 0}
  m_PrefabInternal: {fileID: 100100000}
  m_GameObject: {fileID: 166796}
  m_LocalRotation: {x: 0.0034983177, y: 0.013874144, z: 0.078395374, w: 0.9968197}
  m_LocalPosition: {x: 0, y: 0, z: 0}
  m_LocalScale: {x: 1, y: 1.0000001, z: 1}
  m_Children:
  - {fileID: 484088}
  m_Father: {fileID: 497970}
  m_RootOrder: 2
  m_LocalEulerAnglesHint: {x: 0, y: 0, z: 0}
--- !u!4 &436956
Transform:
  m_ObjectHideFlags: 1
  m_PrefabParentObject: {fileID: 0}
  m_PrefabInternal: {fileID: 100100000}
  m_GameObject: {fileID: 195912}
  m_LocalRotation: {x: -8.191413e-10, y: 0.00000002234366, z: -0.000000014901179,
    w: 1}
  m_LocalPosition: {x: 0.109179735, y: 0.13181372, z: 0.00041603856}
  m_LocalScale: {x: 1, y: 1, z: 1}
  m_Children: []
  m_Father: {fileID: 484088}
  m_RootOrder: 3
  m_LocalEulerAnglesHint: {x: 0, y: 0, z: 0}
--- !u!4 &437080
Transform:
  m_ObjectHideFlags: 1
  m_PrefabParentObject: {fileID: 0}
  m_PrefabInternal: {fileID: 100100000}
  m_GameObject: {fileID: 199904}
  m_LocalRotation: {x: 0.12629563, y: 0.086946055, z: -0.6857515, w: 0.7115018}
  m_LocalPosition: {x: -0.48608404, y: 0, z: 0.000000014901161}
  m_LocalScale: {x: 1.0000012, y: 0.999999, z: 0.9999998}
  m_Children:
  - {fileID: 435946}
  m_Father: {fileID: 451790}
  m_RootOrder: 0
  m_LocalEulerAnglesHint: {x: 0, y: 0, z: 0}
--- !u!4 &439240
Transform:
  m_ObjectHideFlags: 1
  m_PrefabParentObject: {fileID: 0}
  m_PrefabInternal: {fileID: 100100000}
  m_GameObject: {fileID: 172480}
  m_LocalRotation: {x: -8.191413e-10, y: 0.00000002234366, z: -0.000000014901179,
    w: 1}
  m_LocalPosition: {x: -0.08894658, y: 0.12942405, z: 0.06431561}
  m_LocalScale: {x: 1, y: 1, z: 1}
  m_Children: []
  m_Father: {fileID: 484088}
  m_RootOrder: 14
  m_LocalEulerAnglesHint: {x: 0, y: 0, z: 0}
--- !u!4 &439980
Transform:
  m_ObjectHideFlags: 1
  m_PrefabParentObject: {fileID: 0}
  m_PrefabInternal: {fileID: 100100000}
  m_GameObject: {fileID: 121030}
  m_LocalRotation: {x: -8.191413e-10, y: 0.00000002234366, z: -0.000000014901179,
    w: 1}
  m_LocalPosition: {x: -0.08894658, y: 0.12942405, z: -0.06930685}
  m_LocalScale: {x: 1, y: 1, z: 1}
  m_Children: []
  m_Father: {fileID: 484088}
  m_RootOrder: 12
  m_LocalEulerAnglesHint: {x: 0, y: 0, z: 0}
--- !u!4 &440670
Transform:
  m_ObjectHideFlags: 1
  m_PrefabParentObject: {fileID: 0}
  m_PrefabInternal: {fileID: 100100000}
  m_GameObject: {fileID: 147620}
  m_LocalRotation: {x: -0.000000024214373, y: 0.000000007450581, z: -0.000000081956365,
    w: 1}
  m_LocalPosition: {x: -0.067500055, y: -0.000000029802322, z: 0}
  m_LocalScale: {x: 1.0000002, y: 1.0000006, z: 0.9999995}
  m_Children:
  - {fileID: 410558}
  m_Father: {fileID: 453884}
  m_RootOrder: 0
  m_LocalEulerAnglesHint: {x: 0, y: 0, z: 0}
--- !u!4 &440942
Transform:
  m_ObjectHideFlags: 1
  m_PrefabParentObject: {fileID: 0}
  m_PrefabInternal: {fileID: 100100000}
  m_GameObject: {fileID: 133278}
  m_LocalRotation: {x: 0.048435327, y: 0.10197425, z: -0.2614183, w: 0.95860094}
  m_LocalPosition: {x: -0.671839, y: 0, z: 0}
  m_LocalScale: {x: 0.9999996, y: 1.0000008, z: 1.0000001}
  m_Children:
  - {fileID: 470136}
  m_Father: {fileID: 435594}
  m_RootOrder: 0
  m_LocalEulerAnglesHint: {x: 0, y: 0, z: 0}
--- !u!4 &448014
Transform:
  m_ObjectHideFlags: 1
  m_PrefabParentObject: {fileID: 0}
  m_PrefabInternal: {fileID: 100100000}
  m_GameObject: {fileID: 161952}
  m_LocalRotation: {x: -8.191413e-10, y: 0.00000002234366, z: -0.000000014901179,
    w: 1}
  m_LocalPosition: {x: -0.096572876, y: 0.11816333, z: 0.12956426}
  m_LocalScale: {x: 1, y: 1, z: 1}
  m_Children: []
  m_Father: {fileID: 484088}
  m_RootOrder: 15
  m_LocalEulerAnglesHint: {x: 0, y: 0, z: 0}
--- !u!4 &449058
Transform:
  m_ObjectHideFlags: 1
  m_PrefabParentObject: {fileID: 0}
  m_PrefabInternal: {fileID: 100100000}
  m_GameObject: {fileID: 175186}
  m_LocalRotation: {x: 0.00000006332995, y: 0.000000022351731, z: -0.0000000074505784,
    w: 1}
  m_LocalPosition: {x: -0.067499995, y: 0, z: 0}
  m_LocalScale: {x: 1.0000005, y: 0.9999998, z: 0.9999991}
  m_Children: []
  m_Father: {fileID: 467636}
  m_RootOrder: 0
  m_LocalEulerAnglesHint: {x: 0, y: 0, z: 0}
--- !u!4 &449900
Transform:
  m_ObjectHideFlags: 1
  m_PrefabParentObject: {fileID: 0}
  m_PrefabInternal: {fileID: 100100000}
  m_GameObject: {fileID: 145766}
  m_LocalRotation: {x: 0, y: 0, z: 0, w: 1}
  m_LocalPosition: {x: 0, y: -0.463, z: 1.3}
  m_LocalScale: {x: 1, y: 1, z: 1}
  m_Children: []
  m_Father: {fileID: 416354}
  m_RootOrder: 0
  m_LocalEulerAnglesHint: {x: 0, y: 0, z: 0}
--- !u!4 &450970
Transform:
  m_ObjectHideFlags: 1
  m_PrefabParentObject: {fileID: 0}
  m_PrefabInternal: {fileID: 100100000}
  m_GameObject: {fileID: 137942}
  m_LocalRotation: {x: -8.191413e-10, y: 0.00000002234366, z: -0.000000014901179,
    w: 1}
  m_LocalPosition: {x: 0.17888188, y: 0.11134265, z: 0.090495706}
  m_LocalScale: {x: 1, y: 1, z: 1}
  m_Children: []
  m_Father: {fileID: 484088}
  m_RootOrder: 5
  m_LocalEulerAnglesHint: {x: 0, y: 0, z: 0}
--- !u!4 &451790
Transform:
  m_ObjectHideFlags: 1
  m_PrefabParentObject: {fileID: 0}
  m_PrefabInternal: {fileID: 100100000}
  m_GameObject: {fileID: 108320}
  m_LocalRotation: {x: -0.023765616, y: -0.04245238, z: 0.3912375, w: 0.91900283}
  m_LocalPosition: {x: -0.53295356, y: 0.000012785196, z: -0.000011593103}
  m_LocalScale: {x: 1.0000013, y: 1.0000002, z: 0.999999}
  m_Children:
  - {fileID: 437080}
  m_Father: {fileID: 474618}
  m_RootOrder: 0
  m_LocalEulerAnglesHint: {x: 0, y: 0, z: 0}
--- !u!4 &452802
Transform:
  m_ObjectHideFlags: 1
  m_PrefabParentObject: {fileID: 0}
  m_PrefabInternal: {fileID: 100100000}
  m_GameObject: {fileID: 179752}
  m_LocalRotation: {x: 0.02735748, y: 0.7774916, z: 0.14543201, w: 0.61123466}
  m_LocalPosition: {x: -0.043876946, y: -0.007053852, z: 0.1255118}
  m_LocalScale: {x: 0.99999946, y: 1.0000008, z: 1}
  m_Children:
  - {fileID: 435594}
  m_Father: {fileID: 497970}
  m_RootOrder: 0
  m_LocalEulerAnglesHint: {x: 0, y: 0, z: 0}
--- !u!4 &453884
Transform:
  m_ObjectHideFlags: 1
  m_PrefabParentObject: {fileID: 0}
  m_PrefabInternal: {fileID: 100100000}
  m_GameObject: {fileID: 128422}
  m_LocalRotation: {x: 0.0031798237, y: 0.075106636, z: 0.1059422, w: 0.99152666}
  m_LocalPosition: {x: -0.21318644, y: -0.004169345, z: -0.0671317}
  m_LocalScale: {x: 1.0000004, y: 1.0000002, z: 0.9999995}
  m_Children:
  - {fileID: 440670}
  m_Father: {fileID: 468012}
  m_RootOrder: 1
  m_LocalEulerAnglesHint: {x: 0, y: 0, z: 0}
--- !u!4 &457070
Transform:
  m_ObjectHideFlags: 1
  m_PrefabParentObject: {fileID: 0}
  m_PrefabInternal: {fileID: 100100000}
  m_GameObject: {fileID: 131454}
  m_LocalRotation: {x: 0.42235014, y: -0.42235002, z: -0.5671158, w: 0.56711596}
  m_LocalPosition: {x: 0.314454, y: 0.02246643, z: -0.12165653}
  m_LocalScale: {x: 1, y: 1, z: 1}
  m_Children: []
  m_Father: {fileID: 436286}
  m_RootOrder: 2
  m_LocalEulerAnglesHint: {x: 0, y: 0, z: 0}
--- !u!4 &457206
Transform:
  m_ObjectHideFlags: 1
  m_PrefabParentObject: {fileID: 0}
  m_PrefabInternal: {fileID: 100100000}
  m_GameObject: {fileID: 165818}
  m_LocalRotation: {x: 0.00000006239861, y: -0.000000037252867, z: 2.3245273e-15,
    w: 1}
  m_LocalPosition: {x: -0.067499936, y: -0.000000029802322, z: 0.000000007450581}
  m_LocalScale: {x: 1.000001, y: 1, z: 0.99999934}
  m_Children: []
  m_Father: {fileID: 425710}
  m_RootOrder: 0
  m_LocalEulerAnglesHint: {x: 0, y: 0, z: 0}
--- !u!4 &457412
Transform:
  m_ObjectHideFlags: 1
  m_PrefabParentObject: {fileID: 0}
  m_PrefabInternal: {fileID: 100100000}
  m_GameObject: {fileID: 131178}
  m_LocalRotation: {x: 0.004842942, y: 0.09066662, z: 0.105879426, w: 0.9902251}
  m_LocalPosition: {x: -0.21089196, y: 0.004696965, z: -0.0010334253}
  m_LocalScale: {x: 1.0000006, y: 0.99999934, z: 1}
  m_Children:
  - {fileID: 489154}
  m_Father: {fileID: 468012}
  m_RootOrder: 2
  m_LocalEulerAnglesHint: {x: 0, y: 0, z: 0}
--- !u!4 &461206
Transform:
  m_ObjectHideFlags: 1
  m_PrefabParentObject: {fileID: 0}
  m_PrefabInternal: {fileID: 100100000}
  m_GameObject: {fileID: 189584}
  m_LocalRotation: {x: -0.7071068, y: 0, z: 0, w: 0.7071068}
  m_LocalPosition: {x: -0.02896203, y: 0, z: 0.32035428}
  m_LocalScale: {x: 1, y: 1, z: 1}
  m_Children: []
  m_Father: {fileID: 436286}
  m_RootOrder: 4
  m_LocalEulerAnglesHint: {x: 0, y: 0, z: 0}
--- !u!4 &461816
Transform:
  m_ObjectHideFlags: 1
  m_PrefabParentObject: {fileID: 0}
  m_PrefabInternal: {fileID: 100100000}
  m_GameObject: {fileID: 166900}
  m_LocalRotation: {x: -8.191413e-10, y: 0.00000002234366, z: -0.000000014901179,
    w: 1}
  m_LocalPosition: {x: -0.04240012, y: 0.13236262, z: -0.06930685}
  m_LocalScale: {x: 1, y: 1, z: 1}
  m_Children: []
  m_Father: {fileID: 484088}
  m_RootOrder: 0
  m_LocalEulerAnglesHint: {x: 0, y: 0, z: 0}
--- !u!4 &462778
Transform:
  m_ObjectHideFlags: 1
  m_PrefabParentObject: {fileID: 0}
  m_PrefabInternal: {fileID: 100100000}
  m_GameObject: {fileID: 137370}
  m_LocalRotation: {x: 0.1664683, y: -0.59792566, z: -0.34531435, w: 0.70393986}
  m_LocalPosition: {x: -0.5046064, y: 0, z: 0}
  m_LocalScale: {x: 1.000001, y: 0.9999999, z: 0.99999964}
  m_Children:
  - {fileID: 403588}
  m_Father: {fileID: 479466}
  m_RootOrder: 0
  m_LocalEulerAnglesHint: {x: 0, y: 0, z: 0}
--- !u!4 &467636
Transform:
  m_ObjectHideFlags: 1
  m_PrefabParentObject: {fileID: 0}
  m_PrefabInternal: {fileID: 100100000}
  m_GameObject: {fileID: 176436}
  m_LocalRotation: {x: -0.00000008381904, y: -0.000000022351726, z: -0.00000005960462,
    w: 1}
  m_LocalPosition: {x: -0.067499995, y: 0, z: 0.000000007450581}
  m_LocalScale: {x: 1.0000005, y: 0.99999994, z: 0.999999}
  m_Children:
  - {fileID: 449058}
  m_Father: {fileID: 414982}
  m_RootOrder: 0
  m_LocalEulerAnglesHint: {x: 0, y: 0, z: 0}
--- !u!4 &468012
Transform:
  m_ObjectHideFlags: 1
  m_PrefabParentObject: {fileID: 0}
  m_PrefabInternal: {fileID: 100100000}
  m_GameObject: {fileID: 106850}
  m_LocalRotation: {x: 0.7197633, y: 0.09602925, z: 0.0002258982, w: 0.6875458}
  m_LocalPosition: {x: -0.434035, y: -0.000000029802322, z: 0}
  m_LocalScale: {x: 1.0000004, y: 0.99999905, z: 1.0000004}
  m_Children:
  - {fileID: 471688}
  - {fileID: 453884}
  - {fileID: 457412}
  - {fileID: 419358}
  m_Father: {fileID: 403588}
  m_RootOrder: 0
  m_LocalEulerAnglesHint: {x: 0, y: 0, z: 0}
--- !u!4 &468896
Transform:
  m_ObjectHideFlags: 1
  m_PrefabParentObject: {fileID: 0}
  m_PrefabInternal: {fileID: 100100000}
  m_GameObject: {fileID: 112850}
  m_LocalRotation: {x: -8.191413e-10, y: 0.00000002234366, z: -0.000000014901179,
    w: 1}
  m_LocalPosition: {x: 0.047424078, y: 0.11005984, z: -0.0606677}
  m_LocalScale: {x: 1, y: 1, z: 1}
  m_Children: []
  m_Father: {fileID: 484088}
  m_RootOrder: 16
  m_LocalEulerAnglesHint: {x: 0, y: 0, z: 0}
--- !u!4 &469160
Transform:
  m_ObjectHideFlags: 1
  m_PrefabParentObject: {fileID: 0}
  m_PrefabInternal: {fileID: 100100000}
  m_GameObject: {fileID: 140052}
  m_LocalRotation: {x: -8.191413e-10, y: 0.00000002234366, z: -0.000000014901179,
    w: 1}
  m_LocalPosition: {x: 0, y: 0, z: 0}
  m_LocalScale: {x: 1, y: 1, z: 1}
  m_Children: []
  m_Father: {fileID: 484088}
  m_RootOrder: 2
  m_LocalEulerAnglesHint: {x: 0, y: 0, z: 0}
--- !u!4 &469616
Transform:
  m_ObjectHideFlags: 1
  m_PrefabParentObject: {fileID: 0}
  m_PrefabInternal: {fileID: 100100000}
  m_GameObject: {fileID: 128920}
  m_LocalRotation: {x: -8.191413e-10, y: 0.00000002234366, z: -0.000000014901179,
    w: 1}
  m_LocalPosition: {x: -0.040740967, y: 0.12908544, z: 0.07399629}
  m_LocalScale: {x: 1, y: 1, z: 1}
  m_Children: []
  m_Father: {fileID: 484088}
  m_RootOrder: 1
  m_LocalEulerAnglesHint: {x: 0, y: 0, z: 0}
--- !u!4 &470136
Transform:
  m_ObjectHideFlags: 1
  m_PrefabParentObject: {fileID: 0}
  m_PrefabInternal: {fileID: 100100000}
  m_GameObject: {fileID: 181370}
  m_LocalRotation: {x: -0.71976334, y: -0.09602918, z: 0.00022561682, w: 0.6875457}
  m_LocalPosition: {x: -0.43403494, y: 0, z: 0}
  m_LocalScale: {x: 0.99999946, y: 1.0000011, z: 0.99999976}
  m_Children:
  - {fileID: 411162}
  - {fileID: 414982}
  - {fileID: 431428}
  - {fileID: 472260}
  m_Father: {fileID: 440942}
  m_RootOrder: 0
  m_LocalEulerAnglesHint: {x: 0, y: 0, z: 0}
--- !u!4 &471266
Transform:
  m_ObjectHideFlags: 1
  m_PrefabParentObject: {fileID: 0}
  m_PrefabInternal: {fileID: 100100000}
  m_GameObject: {fileID: 195066}
  m_LocalRotation: {x: -0.21625307, y: 0.974088, z: 0.027376946, w: 0.060313556}
  m_LocalPosition: {x: 0.04012978, y: -0.0031369328, z: 0.29210168}
  m_LocalScale: {x: 0.9999995, y: 1.0000006, z: 1}
  m_Children:
  - {fileID: 489958}
  m_Father: {fileID: 430228}
  m_RootOrder: 0
  m_LocalEulerAnglesHint: {x: 0, y: 0, z: 0}
--- !u!4 &471550
Transform:
  m_ObjectHideFlags: 1
  m_PrefabParentObject: {fileID: 0}
  m_PrefabInternal: {fileID: 100100000}
  m_GameObject: {fileID: 131590}
  m_LocalRotation: {x: -8.191413e-10, y: 0.00000002234366, z: -0.000000014901179,
    w: 1}
  m_LocalPosition: {x: 0.17892456, y: 0.111342624, z: -0.08431846}
  m_LocalScale: {x: 1, y: 1, z: 1}
  m_Children: []
  m_Father: {fileID: 484088}
  m_RootOrder: 4
  m_LocalEulerAnglesHint: {x: 0, y: 0, z: 0}
--- !u!4 &471644
Transform:
  m_ObjectHideFlags: 1
  m_PrefabParentObject: {fileID: 0}
  m_PrefabInternal: {fileID: 100100000}
  m_GameObject: {fileID: 112882}
  m_LocalRotation: {x: 0.000000011175875, y: -0.000000014901161, z: 0.000000007450581,
    w: 1}
  m_LocalPosition: {x: -0.07499999, y: -0.000000059604645, z: 0.000000029802322}
  m_LocalScale: {x: 1, y: 0.9999996, z: 1.0000005}
  m_Children:
  - {fileID: 419620}
  m_Father: {fileID: 471688}
  m_RootOrder: 0
  m_LocalEulerAnglesHint: {x: 0, y: 0, z: 0}
--- !u!4 &471688
Transform:
  m_ObjectHideFlags: 1
  m_PrefabParentObject: {fileID: 0}
  m_PrefabInternal: {fileID: 100100000}
  m_GameObject: {fileID: 121154}
  m_LocalRotation: {x: -0.2790892, y: -0.28549996, z: 0.112500414, w: 0.90991354}
  m_LocalPosition: {x: -0.11638975, y: 0.011403382, z: -0.08358161}
  m_LocalScale: {x: 1.0000005, y: 0.9999993, z: 0.9999999}
  m_Children:
  - {fileID: 471644}
  m_Father: {fileID: 468012}
  m_RootOrder: 0
  m_LocalEulerAnglesHint: {x: 0, y: 0, z: 0}
--- !u!4 &472160
Transform:
  m_ObjectHideFlags: 1
  m_PrefabParentObject: {fileID: 0}
  m_PrefabInternal: {fileID: 100100000}
  m_GameObject: {fileID: 186560}
  m_LocalRotation: {x: 0.000000014346609, y: 0.00000002430399, z: 0.2544399, w: 0.96708864}
  m_LocalPosition: {x: 0.20516884, y: 0.113361105, z: 0.049613543}
  m_LocalScale: {x: 1, y: 1.0000001, z: 1}
  m_Children: []
  m_Father: {fileID: 484088}
  m_RootOrder: 10
  m_LocalEulerAnglesHint: {x: 0, y: 0, z: 0}
--- !u!4 &472260
Transform:
  m_ObjectHideFlags: 1
  m_PrefabParentObject: {fileID: 0}
  m_PrefabInternal: {fileID: 100100000}
  m_GameObject: {fileID: 135236}
  m_LocalRotation: {x: -0.005562986, y: -0.09739965, z: 0.10584325, w: 0.9895856}
  m_LocalPosition: {x: -0.21159488, y: 0.0045832396, z: -0.07256642}
  m_LocalScale: {x: 1.0000007, y: 1, z: 0.99999934}
  m_Children:
  - {fileID: 425710}
  m_Father: {fileID: 470136}
  m_RootOrder: 3
  m_LocalEulerAnglesHint: {x: 0, y: 0, z: 0}
--- !u!4 &474618
Transform:
  m_ObjectHideFlags: 1
  m_PrefabParentObject: {fileID: 0}
  m_PrefabInternal: {fileID: 100100000}
  m_GameObject: {fileID: 121826}
  m_LocalRotation: {x: -0.24254428, y: 0.96982694, z: -0.0155690415, w: -0.019119008}
  m_LocalPosition: {x: 0.040129423, y: -0.0031368434, z: -0.29210174}
  m_LocalScale: {x: 0.9999999, y: 1, z: 1.0000001}
  m_Children:
  - {fileID: 451790}
  m_Father: {fileID: 430228}
  m_RootOrder: 1
  m_LocalEulerAnglesHint: {x: 0, y: 0, z: 0}
--- !u!4 &476810
Transform:
  m_ObjectHideFlags: 1
  m_PrefabParentObject: {fileID: 0}
  m_PrefabInternal: {fileID: 100100000}
  m_GameObject: {fileID: 129816}
  m_LocalRotation: {x: 0.50000006, y: -0.5, z: -0.4999999, w: 0.5}
  m_LocalPosition: {x: 0, y: 0, z: 0}
  m_LocalScale: {x: 1, y: 1, z: 1}
  m_Children: []
  m_Father: {fileID: 436286}
  m_RootOrder: 3
  m_LocalEulerAnglesHint: {x: 0, y: 0, z: 0}
--- !u!4 &478712
Transform:
  m_ObjectHideFlags: 1
  m_PrefabParentObject: {fileID: 0}
  m_PrefabInternal: {fileID: 100100000}
  m_GameObject: {fileID: 198538}
  m_LocalRotation: {x: 0.000000056810645, y: 0.000000014901161, z: -0.0000000074505815,
    w: 1}
  m_LocalPosition: {x: -0.08249998, y: 0.000000029802322, z: 0.0000000037252903}
  m_LocalScale: {x: 1, y: 1.0000006, z: 0.9999996}
  m_Children: []
  m_Father: {fileID: 489154}
  m_RootOrder: 0
  m_LocalEulerAnglesHint: {x: 0, y: 0, z: 0}
--- !u!4 &479466
Transform:
  m_ObjectHideFlags: 1
  m_PrefabParentObject: {fileID: 0}
  m_PrefabInternal: {fileID: 100100000}
  m_GameObject: {fileID: 107272}
  m_LocalRotation: {x: -0.027357459, y: -0.7774917, z: 0.14543204, w: 0.6112346}
  m_LocalPosition: {x: -0.043876946, y: -0.007053852, z: -0.1255118}
  m_LocalScale: {x: 1.0000006, y: 0.9999992, z: 1.0000001}
  m_Children:
  - {fileID: 462778}
  m_Father: {fileID: 497970}
  m_RootOrder: 1
  m_LocalEulerAnglesHint: {x: 0, y: 0, z: 0}
--- !u!4 &479738
Transform:
  m_ObjectHideFlags: 1
  m_PrefabParentObject: {fileID: 0}
  m_PrefabInternal: {fileID: 100100000}
  m_GameObject: {fileID: 123222}
  m_LocalRotation: {x: 0.0000000055879337, y: -0.000000052154032, z: -0.00000003725288,
    w: 1}
  m_LocalPosition: {x: -0.08249998, y: 0.000000029802322, z: -0.000000007450581}
  m_LocalScale: {x: 1.0000006, y: 1, z: 0.9999993}
  m_Children: []
  m_Father: {fileID: 481852}
  m_RootOrder: 0
  m_LocalEulerAnglesHint: {x: 0, y: 0, z: 0}
--- !u!4 &481852
Transform:
  m_ObjectHideFlags: 1
  m_PrefabParentObject: {fileID: 0}
  m_PrefabInternal: {fileID: 100100000}
  m_GameObject: {fileID: 152028}
  m_LocalRotation: {x: 0.000000018626453, y: -0.0000000298023, z: 0.00000008195633,
    w: 1}
  m_LocalPosition: {x: -0.08249998, y: 0, z: 0.000000007450581}
  m_LocalScale: {x: 1.0000007, y: 1, z: 0.9999992}
  m_Children:
  - {fileID: 479738}
  m_Father: {fileID: 431428}
  m_RootOrder: 0
  m_LocalEulerAnglesHint: {x: 0, y: 0, z: 0}
--- !u!4 &484088
Transform:
  m_ObjectHideFlags: 1
  m_PrefabParentObject: {fileID: 0}
  m_PrefabInternal: {fileID: 100100000}
  m_GameObject: {fileID: 192554}
  m_LocalRotation: {x: -0.009658448, y: -0.01055672, z: 0.40361688, w: 0.9148162}
  m_LocalPosition: {x: -0.38163388, y: 0, z: 0.0000000055879354}
  m_LocalScale: {x: 0.99999994, y: 0.9999999, z: 1}
  m_Children:
  - {fileID: 461816}
  - {fileID: 469616}
  - {fileID: 469160}
  - {fileID: 436956}
  - {fileID: 471550}
  - {fileID: 450970}
  - {fileID: 433574}
  - {fileID: 403186}
  - {fileID: 402380}
  - {fileID: 430358}
  - {fileID: 472160}
  - {fileID: 484438}
  - {fileID: 439980}
  - {fileID: 427332}
  - {fileID: 439240}
  - {fileID: 448014}
  - {fileID: 468896}
  - {fileID: 412172}
  m_Father: {fileID: 436950}
  m_RootOrder: 0
  m_LocalEulerAnglesHint: {x: 0, y: 0, z: 0}
--- !u!4 &484438
Transform:
  m_ObjectHideFlags: 1
  m_PrefabParentObject: {fileID: 0}
  m_PrefabInternal: {fileID: 100100000}
  m_GameObject: {fileID: 113726}
  m_LocalRotation: {x: -0.000000008720801, y: -0.00000003317244, z: -0.356046, w: 0.93446845}
  m_LocalPosition: {x: 0.2713263, y: 0.1425982, z: 0.0075101163}
  m_LocalScale: {x: 1.0000002, y: 1, z: 1}
  m_Children: []
  m_Father: {fileID: 484088}
  m_RootOrder: 11
  m_LocalEulerAnglesHint: {x: 0, y: 0, z: 0}
--- !u!4 &489154
Transform:
  m_ObjectHideFlags: 1
  m_PrefabParentObject: {fileID: 0}
  m_PrefabInternal: {fileID: 100100000}
  m_GameObject: {fileID: 129094}
  m_LocalRotation: {x: 0.000000032596276, y: -0.000000029802322, z: 0.000000014901163,
    w: 1}
  m_LocalPosition: {x: -0.08249998, y: -0.000000059604645, z: 0}
  m_LocalScale: {x: 0.99999994, y: 1.0000005, z: 0.9999995}
  m_Children:
  - {fileID: 478712}
  m_Father: {fileID: 457412}
  m_RootOrder: 0
  m_LocalEulerAnglesHint: {x: 0, y: 0, z: 0}
--- !u!4 &489958
Transform:
  m_ObjectHideFlags: 1
  m_PrefabParentObject: {fileID: 0}
  m_PrefabInternal: {fileID: 100100000}
  m_GameObject: {fileID: 154168}
  m_LocalRotation: {x: 0.027526109, y: 0.12823036, z: 0.32865104, w: 0.93530095}
  m_LocalPosition: {x: -0.5376798, y: 0.000013053417, z: 0.000011920929}
  m_LocalScale: {x: 1.0000002, y: 1.0000006, z: 0.99999875}
  m_Children:
  - {fileID: 401640}
  m_Father: {fileID: 471266}
  m_RootOrder: 0
  m_LocalEulerAnglesHint: {x: 0, y: 0, z: 0}
--- !u!4 &493758
Transform:
  m_ObjectHideFlags: 1
  m_PrefabParentObject: {fileID: 0}
  m_PrefabInternal: {fileID: 100100000}
  m_GameObject: {fileID: 188758}
  m_LocalRotation: {x: -0.0001869195, y: -0.000085465705, z: -0.32992038, w: 0.94400877}
  m_LocalPosition: {x: -0.41737235, y: -0.000000029802322, z: 0}
  m_LocalScale: {x: 1, y: 1.0000001, z: 1.0000001}
  m_Children:
  - {fileID: 497970}
  m_Father: {fileID: 417574}
  m_RootOrder: 0
  m_LocalEulerAnglesHint: {x: 0, y: 0, z: 0}
--- !u!4 &497970
Transform:
  m_ObjectHideFlags: 1
  m_PrefabParentObject: {fileID: 0}
  m_PrefabInternal: {fileID: 100100000}
  m_GameObject: {fileID: 116018}
  m_LocalRotation: {x: -0.008632988, y: 0.0068731904, z: -0.18796594, w: 0.9821136}
  m_LocalPosition: {x: -0.41837585, y: -0.00000023841858, z: 0}
  m_LocalScale: {x: 0.99999976, y: 0.9999997, z: 1}
  m_Children:
  - {fileID: 452802}
  - {fileID: 479466}
  - {fileID: 436950}
  m_Father: {fileID: 493758}
  m_RootOrder: 0
  m_LocalEulerAnglesHint: {x: 0, y: 0, z: 0}
--- !u!33 &3376484
MeshFilter:
  m_ObjectHideFlags: 1
  m_PrefabParentObject: {fileID: 0}
  m_PrefabInternal: {fileID: 100100000}
  m_GameObject: {fileID: 102712}
  m_Mesh: {fileID: 10202, guid: 0000000000000000e000000000000000, type: 0}
--- !u!95 &9544890
Animator:
  serializedVersion: 3
  m_ObjectHideFlags: 1
  m_PrefabParentObject: {fileID: 0}
  m_PrefabInternal: {fileID: 100100000}
  m_GameObject: {fileID: 153528}
  m_Enabled: 1
  m_Avatar: {fileID: 9000000, guid: 096ee123b763d5244a90538f3e95f4b4, type: 3}
  m_Controller: {fileID: 9100000, guid: ca8ef710887ca5f4b87d29d4c75446fe, type: 2}
  m_CullingMode: 1
  m_UpdateMode: 0
  m_ApplyRootMotion: 0
  m_LinearVelocityBlending: 0
  m_WarningMessage: 
  m_HasTransformHierarchy: 1
  m_AllowConstantClipSamplingOptimization: 1
--- !u!114 &11406332
MonoBehaviour:
  m_ObjectHideFlags: 1
  m_PrefabParentObject: {fileID: 0}
  m_PrefabInternal: {fileID: 100100000}
  m_GameObject: {fileID: 102712}
  m_Enabled: 1
  m_EditorHideFlags: 0
  m_Script: {fileID: 11500000, guid: 27e04c5217e574f4ebccaa8742efa049, type: 3}
  m_Name: 
  m_EditorClassIdentifier: 
  debug: 0
  subStates: []
  m_CurrentSubState: {fileID: 0}
  m_LastState: {fileID: 0}
  stateName: Active_Attack
  statesLogic: 0
  m_System: {fileID: 0}
  preWaitTime: 1.5
  postWaitTime: 0.1
  attackLength: 5
  attackHeight: 2
  attackForce: 12
  attackAngle: 120
--- !u!114 &11406348
MonoBehaviour:
  m_ObjectHideFlags: 1
  m_PrefabParentObject: {fileID: 0}
  m_PrefabInternal: {fileID: 100100000}
  m_GameObject: {fileID: 102712}
  m_Enabled: 0
  m_EditorHideFlags: 0
  m_Script: {fileID: 11500000, guid: a619c7ffea370f441a044f754cfff1d8, type: 3}
  m_Name: 
  m_EditorClassIdentifier: 
  gravity: 20
  fallSpeedLimit: 40
  fallingSpeedThreshold: 1.5
  timeToFall: 0.1
  corrutineTimer: 0.25
  raycastMask:
    serializedVersion: 2
    m_Bits: 1
  fallAnimation: 1
  animatorController: {fileID: 9544890}
  fallingDebug: 0
--- !u!114 &11406472
MonoBehaviour:
  m_ObjectHideFlags: 1
  m_PrefabParentObject: {fileID: 0}
  m_PrefabInternal: {fileID: 100100000}
  m_GameObject: {fileID: 145766}
  m_Enabled: 1
  m_EditorHideFlags: 0
  m_Script: {fileID: 11500000, guid: 2324beecdd3f7334e8bdb21dde6edcbf, type: 3}
  m_Name: 
  m_EditorClassIdentifier: 
--- !u!114 &11419372
MonoBehaviour:
  m_ObjectHideFlags: 1
  m_PrefabParentObject: {fileID: 0}
  m_PrefabInternal: {fileID: 100100000}
  m_GameObject: {fileID: 102712}
  m_Enabled: 1
  m_EditorHideFlags: 0
  m_Script: {fileID: 11500000, guid: 17ace8e61f4a5834ca5c8bcd76b39acc, type: 3}
  m_Name: 
  m_EditorClassIdentifier: 
  target: {fileID: 0}
  range: 40
  rangeToStop: 60
  timeToChange: 1
  maxYDistance: 2
  threshold: 1.5
  maxAggro: 50
  maxAbility: 50
  directionBetween0And1: 0
  pDistance2DToTarget: 1
  pYDistance: 0
  pTargetHealth: 2
  pTargetAbility: 1
  pTargetAggro: 1
  pTargetEnergy: 0
  pTargetState: 0
  pTargetDirection: 0
  players: {fileID: 0}
--- !u!114 &11421058
MonoBehaviour:
  m_ObjectHideFlags: 1
  m_PrefabParentObject: {fileID: 0}
  m_PrefabInternal: {fileID: 100100000}
  m_GameObject: {fileID: 102712}
  m_Enabled: 1
  m_EditorHideFlags: 0
  m_Script: {fileID: 11500000, guid: bae750758e296c846a1996fd27bd6a80, type: 3}
  m_Name: 
  m_EditorClassIdentifier: 
  debug: 0
  subStates: []
  m_CurrentSubState: {fileID: 0}
  m_LastState: {fileID: 0}
  stateName: Dying
  statesLogic: 0
  m_System: {fileID: 0}
  dieLayer: Event
  vaporize: 1
  vaporizeShader: {fileID: 4800000, guid: ee1b63fb4a866d9438ffa20549bd6663, type: 3}
  vaporizeSpeed: 0.5
  noiseTexture: {fileID: 2800000, guid: 38f6c97f4d68eac48b875fc78ebcebce, type: 3}
  burntThreshold: 0.0242
  burntStartColor: {r: 1, g: 0.76862746, b: 0.36078432, a: 1}
  burntEndColor: {r: 0.38431373, g: 0.27450982, b: 0.11372549, a: 1}
  destroyColliders: 1
--- !u!114 &11429968
MonoBehaviour:
  m_ObjectHideFlags: 1
  m_PrefabParentObject: {fileID: 0}
  m_PrefabInternal: {fileID: 100100000}
  m_GameObject: {fileID: 102712}
  m_Enabled: 1
  m_EditorHideFlags: 0
  m_Script: {fileID: 11500000, guid: 20a4886c1c03c684f993eaa3e93697c1, type: 3}
  m_Name: 
  m_EditorClassIdentifier: 
  customTags: []
--- !u!114 &11430564
MonoBehaviour:
  m_ObjectHideFlags: 1
  m_PrefabParentObject: {fileID: 0}
  m_PrefabInternal: {fileID: 100100000}
  m_GameObject: {fileID: 102712}
  m_Enabled: 1
  m_EditorHideFlags: 0
  m_Script: {fileID: 11500000, guid: 3918e0929af225040864ae66d3b7b993, type: 3}
  m_Name: 
  m_EditorClassIdentifier: 
  maxTargetDistance: 30
  offsetX: 0
  offsetY: 3
  offsetZ: 0
  angleX: 0
  angleY: 0
  angleZ: 0
  scale: 1
  movementAnimator: 1
  movementNegativeX: 0
  movementPositiveX: 0
  movementNegativeY: 0.2
  movementPositiveY: 1
  movementNegativeZ: 0
  movementPositiveZ: 0
  movementSpeed: 0.3
  rotationAnimator: 1
  rotationSpeed: 0.75
  rotationAxis: 1
  rotationTimer: 0
  scaleAnimator: 0
  scaleMin: 0.75
  scaleMax: 1
  scaleSpeed: 0.5
--- !u!114 &11432900
MonoBehaviour:
  m_ObjectHideFlags: 1
  m_PrefabParentObject: {fileID: 0}
  m_PrefabInternal: {fileID: 100100000}
  m_GameObject: {fileID: 102712}
  m_Enabled: 1
  m_EditorHideFlags: 0
  m_Script: {fileID: 11500000, guid: c68982bb3b1c8254fbe35a46bd536a6f, type: 3}
  m_Name: 
  m_EditorClassIdentifier: 
  keepFacing: 1
  stopsBehavior: 0
--- !u!114 &11436650
MonoBehaviour:
  m_ObjectHideFlags: 1
  m_PrefabParentObject: {fileID: 0}
  m_PrefabInternal: {fileID: 100100000}
  m_GameObject: {fileID: 102712}
  m_Enabled: 1
  m_EditorHideFlags: 0
  m_Script: {fileID: 11500000, guid: 831f88cc0c44f924c80d1d3cb90e9115, type: 3}
  m_Name: 
  m_EditorClassIdentifier: 
  debug: 0
  subStates: []
  m_CurrentSubState: {fileID: 0}
  m_LastState: {fileID: 0}
  stateName: Stunned
  statesLogic: 0
  m_System: {fileID: 0}
  keepFacing: 1
  stunMask:
    serializedVersion: 2
    m_Bits: 1
  movable: 1
--- !u!114 &11444332
MonoBehaviour:
  m_ObjectHideFlags: 1
  m_PrefabParentObject: {fileID: 0}
  m_PrefabInternal: {fileID: 100100000}
  m_GameObject: {fileID: 102712}
  m_Enabled: 1
  m_EditorHideFlags: 0
  m_Script: {fileID: 11500000, guid: 77e614f6783fa664990e66be33538d8e, type: 3}
  m_Name: 
  m_EditorClassIdentifier: 
  debug: 0
  subStates:
  - {fileID: 11466592}
  - {fileID: 11406332}
  - {fileID: 11479782}
  - {fileID: 114737383151039448}
  - {fileID: 114174747215376478}
  m_CurrentSubState: {fileID: 0}
  m_LastState: {fileID: 0}
  stateName: Active
  statesLogic: 0
  m_System: {fileID: 0}
--- !u!114 &11466592
MonoBehaviour:
  m_ObjectHideFlags: 1
  m_PrefabParentObject: {fileID: 0}
  m_PrefabInternal: {fileID: 100100000}
  m_GameObject: {fileID: 102712}
  m_Enabled: 1
  m_EditorHideFlags: 0
  m_Script: {fileID: 11500000, guid: c2e961638f2475c4eae5a1be12f2a799, type: 3}
  m_Name: 
  m_EditorClassIdentifier: 
  debug: 0
  subStates: []
  m_CurrentSubState: {fileID: 0}
  m_LastState: {fileID: 0}
  stateName: Active_Chase
  statesLogic: 0
  m_System: {fileID: 0}
  canMove: 1
  movementSpeed: 4.5
  delayAfterAttack: 6
  attackRange: 4.5
  maxAngle: 60
  maxDifferenceY: 1.5
  areaAttackRange: 14
  maxAngleAreaAttack: 40
  delayAfterAreaAttack: 20
  delayAfterChargeAttack: 20
  chargeRange: 10
  maxAngleCharge: 25
  delayAfterThrow: 6
  throwMaxRange: 25
  throwMinRange: 6
  throwMaxAngle: 20
  rotationSpeed: 1.5
  threshold: 15
--- !u!114 &11469924
MonoBehaviour:
  m_ObjectHideFlags: 1
  m_PrefabParentObject: {fileID: 0}
  m_PrefabInternal: {fileID: 100100000}
  m_GameObject: {fileID: 102712}
  m_Enabled: 1
  m_EditorHideFlags: 0
  m_Script: {fileID: 11500000, guid: 75cf8d7b2ed4e1b419e233912d6de044, type: 3}
  m_Name: 
  m_EditorClassIdentifier: 
  health: 0
  maxHealth: 100
  defense: 5
  damageThreshold: 0
  invincible: 0
  godmode: 0
  damagedTime: 0.25
  damagedMaterial: {fileID: 2100000, guid: 4c5030721b23d5b4290a9a840a51bf21, type: 2}
  healthBar: {fileID: 0}
  damageBar: {fileID: 0}
  alphaBar: {fileID: 0}
  damageDelayInterval: 0.25
  damageApplySpeed: 70
  fuegoFauto: {fileID: 114215146480062540}
--- !u!114 &11475062
MonoBehaviour:
  m_ObjectHideFlags: 1
  m_PrefabParentObject: {fileID: 0}
  m_PrefabInternal: {fileID: 100100000}
  m_GameObject: {fileID: 102712}
  m_Enabled: 1
  m_EditorHideFlags: 0
  m_Script: {fileID: 11500000, guid: f68e5467a45f23b40a39a3b02a54924c, type: 3}
  m_Name: 
  m_EditorClassIdentifier: 
  barPrefab: {fileID: 22352720, guid: 4767d9c49ef53924889f405c433f92b5, type: 2}
  scaleX: 1
  scaleY: 1
  offsetY: 1
  showText: 0
--- !u!114 &11479782
MonoBehaviour:
  m_ObjectHideFlags: 1
  m_PrefabParentObject: {fileID: 0}
  m_PrefabInternal: {fileID: 100100000}
  m_GameObject: {fileID: 102712}
  m_Enabled: 1
  m_EditorHideFlags: 0
  m_Script: {fileID: 11500000, guid: 486df5b16085f6f4cb96083f0e1db885, type: 3}
  m_Name: 
  m_EditorClassIdentifier: 
  debug: 0
  subStates: []
  m_CurrentSubState: {fileID: 0}
  m_LastState: {fileID: 0}
  stateName: Active_Throw
  statesLogic: 0
  m_System: {fileID: 0}
  preWaitTime: 1.5
  postWaitTime: 0.1
  rockRadius: 2
  rockSpeed: 10
  rockLifeTime: 5
  rockDamage: 15
  rockOffset: 4
  aimOffset: 1.6
  rockPrefab: {fileID: 174034, guid: f41134a15edaf9c4198d7ce88489f59a, type: 2}
  parable: 1
  calcBySpeed: 1
  parableTime: 2
  parableXSpeed: 30
  rotationSpeed: 5
  threshold: 0.5
--- !u!114 &11492006
MonoBehaviour:
  m_ObjectHideFlags: 1
  m_PrefabParentObject: {fileID: 0}
  m_PrefabInternal: {fileID: 100100000}
  m_GameObject: {fileID: 102712}
  m_Enabled: 1
  m_EditorHideFlags: 0
  m_Script: {fileID: 11500000, guid: da2a84537b329424fb9b0f0d967fcec3, type: 3}
  m_Name: 
  m_EditorClassIdentifier: 
  debug: 0
  states:
  - {fileID: 11444332}
  - {fileID: 11436650}
  - {fileID: 11421058}
  m_CurrentState: {fileID: 0}
  statesLogic: 0
  m_LastState: {fileID: 0}
--- !u!137 &13745004
SkinnedMeshRenderer:
  m_ObjectHideFlags: 1
  m_PrefabParentObject: {fileID: 0}
  m_PrefabInternal: {fileID: 100100000}
  m_GameObject: {fileID: 189584}
  m_Enabled: 1
  m_CastShadows: 1
  m_ReceiveShadows: 1
  m_MotionVectors: 1
  m_LightProbeUsage: 1
  m_ReflectionProbeUsage: 1
  m_Materials:
  - {fileID: 2100000, guid: fb40c3547b8ccec4c9568fe61eff15db, type: 2}
  m_StaticBatchInfo:
    firstSubMesh: 0
    subMeshCount: 0
  m_StaticBatchRoot: {fileID: 0}
  m_ProbeAnchor: {fileID: 0}
  m_LightProbeVolumeOverride: {fileID: 0}
  m_ScaleInLightmap: 1
  m_PreserveUVs: 0
  m_IgnoreNormalsForChartDetection: 0
  m_ImportantGI: 0
  m_SelectedEditorRenderState: 3
  m_MinimumChartSize: 4
  m_AutoUVMaxDistance: 0.5
  m_AutoUVMaxAngle: 89
  m_LightmapParameters: {fileID: 0}
  m_SortingLayerID: 0
  m_SortingLayer: 0
  m_SortingOrder: 0
  serializedVersion: 2
  m_Quality: 0
  m_UpdateWhenOffscreen: 0
  m_SkinnedMotionVectors: 1
  m_Mesh: {fileID: 4300000, guid: 096ee123b763d5244a90538f3e95f4b4, type: 3}
  m_Bones:
  - {fileID: 484088}
  - {fileID: 433574}
  - {fileID: 493758}
  - {fileID: 497970}
  - {fileID: 405032}
  - {fileID: 417574}
  - {fileID: 430228}
  - {fileID: 452802}
  - {fileID: 435594}
  - {fileID: 439240}
  - {fileID: 436950}
  - {fileID: 484438}
  - {fileID: 472160}
  - {fileID: 436956}
  - {fileID: 402380}
  - {fileID: 412172}
  - {fileID: 469616}
  - {fileID: 448014}
  - {fileID: 469160}
  - {fileID: 430358}
  - {fileID: 489958}
  - {fileID: 401640}
  - {fileID: 471266}
  - {fileID: 470136}
  - {fileID: 440942}
  - {fileID: 425710}
  - {fileID: 414982}
  - {fileID: 467636}
  - {fileID: 411162}
  - {fileID: 472260}
  - {fileID: 431428}
  - {fileID: 481852}
  - {fileID: 457206}
  - {fileID: 479738}
  - {fileID: 449058}
  - {fileID: 419200}
  - {fileID: 426884}
  - {fileID: 474618}
  - {fileID: 476810}
  - {fileID: 462778}
  - {fileID: 479466}
  - {fileID: 403186}
  - {fileID: 468896}
  - {fileID: 439980}
  - {fileID: 427332}
  - {fileID: 451790}
  - {fileID: 437080}
  - {fileID: 468012}
  - {fileID: 403588}
  - {fileID: 405270}
  - {fileID: 435946}
  - {fileID: 419358}
  - {fileID: 457412}
  - {fileID: 471688}
  - {fileID: 471644}
  - {fileID: 453884}
  - {fileID: 440670}
  - {fileID: 478712}
  - {fileID: 489154}
  - {fileID: 410558}
  - {fileID: 424918}
  - {fileID: 419620}
  m_BlendShapeWeights: []
  m_RootBone: {fileID: 430228}
  m_AABB:
    m_Center: {x: -0.1738661, y: 0.16261292, z: -0.005169779}
    m_Extent: {x: 1.4568372, y: 0.9387357, z: 0.91143763}
  m_DirtyAABB: 0
--- !u!143 &14383312
CharacterController:
  m_ObjectHideFlags: 1
  m_PrefabParentObject: {fileID: 0}
  m_PrefabInternal: {fileID: 100100000}
  m_GameObject: {fileID: 102712}
  m_Material: {fileID: 0}
  m_IsTrigger: 0
  m_Enabled: 1
  serializedVersion: 2
  m_Height: 1.5
  m_Radius: 0.5
  m_SlopeLimit: 0
  m_StepOffset: 0.3
  m_SkinWidth: 0.08
  m_MinMoveDistance: 0.001
  m_Center: {x: 0, y: 0.24, z: 0}
--- !u!195 &19536134
NavMeshAgent:
  m_ObjectHideFlags: 1
  m_PrefabParentObject: {fileID: 0}
  m_PrefabInternal: {fileID: 100100000}
  m_GameObject: {fileID: 102712}
  m_Enabled: 1
  m_AgentTypeID: 0
  m_Radius: 0.75
  m_Speed: 4.5
  m_Acceleration: 8
  avoidancePriority: 50
  m_AngularSpeed: 120
  m_StoppingDistance: 2
  m_AutoTraverseOffMeshLink: 1
  m_AutoBraking: 1
  m_AutoRepath: 1
  m_Height: 1
  m_BaseOffset: 0.5
  m_WalkableMask: 1
  m_ObstacleAvoidanceType: 4
--- !u!1001 &100100000
Prefab:
  m_ObjectHideFlags: 1
  serializedVersion: 2
  m_Modification:
    m_TransformParent: {fileID: 0}
    m_Modifications: []
    m_RemovedComponents: []
  m_ParentPrefab: {fileID: 0}
  m_RootGameObject: {fileID: 102712}
  m_IsPrefabParent: 1
--- !u!1 &1253009447146244
GameObject:
  m_ObjectHideFlags: 0
  m_PrefabParentObject: {fileID: 0}
  m_PrefabInternal: {fileID: 100100000}
  serializedVersion: 5
  m_Component:
  - component: {fileID: 4576133853610282}
  - component: {fileID: 65408127902946802}
  - component: {fileID: 114508269773099044}
  - component: {fileID: 54258775173389496}
  m_Layer: 15
  m_Name: ChargeCollider
  m_TagString: Untagged
  m_Icon: {fileID: 0}
  m_NavMeshLayer: 0
  m_StaticEditorFlags: 0
  m_IsActive: 0
--- !u!4 &4576133853610282
Transform:
  m_ObjectHideFlags: 1
  m_PrefabParentObject: {fileID: 0}
  m_PrefabInternal: {fileID: 100100000}
  m_GameObject: {fileID: 1253009447146244}
  m_LocalRotation: {x: -0, y: -0, z: -0, w: 1}
  m_LocalPosition: {x: 0, y: 0, z: 0}
  m_LocalScale: {x: 1, y: 1, z: 1}
  m_Children: []
  m_Father: {fileID: 416354}
  m_RootOrder: 2
  m_LocalEulerAnglesHint: {x: 0, y: 0, z: 0}
--- !u!54 &54258775173389496
Rigidbody:
  m_ObjectHideFlags: 1
  m_PrefabParentObject: {fileID: 0}
  m_PrefabInternal: {fileID: 100100000}
  m_GameObject: {fileID: 1253009447146244}
  serializedVersion: 2
  m_Mass: 1
  m_Drag: 0
  m_AngularDrag: 0.05
  m_UseGravity: 0
  m_IsKinematic: 0
  m_Interpolate: 0
  m_Constraints: 126
  m_CollisionDetection: 0
--- !u!65 &65408127902946802
BoxCollider:
  m_ObjectHideFlags: 1
  m_PrefabParentObject: {fileID: 0}
  m_PrefabInternal: {fileID: 100100000}
  m_GameObject: {fileID: 1253009447146244}
  m_Material: {fileID: 0}
  m_IsTrigger: 0
  m_Enabled: 1
  serializedVersion: 2
  m_Size: {x: 1, y: 1.5, z: 1.3}
  m_Center: {x: 0, y: 0.24, z: 0.25}
--- !u!65 &65483921156397570
BoxCollider:
  m_ObjectHideFlags: 1
  m_PrefabParentObject: {fileID: 0}
  m_PrefabInternal: {fileID: 100100000}
  m_GameObject: {fileID: 102712}
  m_Material: {fileID: 0}
  m_IsTrigger: 0
  m_Enabled: 1
  serializedVersion: 2
  m_Size: {x: 0.5, y: 1, z: 0.5}
  m_Center: {x: 0, y: 0, z: 0}
--- !u!114 &114174747215376478
MonoBehaviour:
  m_ObjectHideFlags: 1
  m_PrefabParentObject: {fileID: 0}
  m_PrefabInternal: {fileID: 100100000}
  m_GameObject: {fileID: 102712}
  m_Enabled: 1
  m_EditorHideFlags: 0
  m_Script: {fileID: 11500000, guid: f5b63621f4077604b82fd21a36eb3b7f, type: 3}
  m_Name: 
  m_EditorClassIdentifier: 
  debug: 0
  subStates: []
  m_CurrentSubState: {fileID: 0}
  m_LastState: {fileID: 0}
  stateName: Active_Charge
  statesLogic: 0
  m_System: {fileID: 0}
  chargeCollider: {fileID: 1253009447146244}
  damage: 25
  pushSpeed: 15
  pushTime: 0.5
  maxAngle: 75
  angularSpeed: 5
  stopDistance: 2.75
  chargeSpeed: 10
  maxChargingTime: 10
  maxDifferenceY: 3.5
  chasePlayer: 0
--- !u!114 &114215146480062540
MonoBehaviour:
  m_ObjectHideFlags: 1
  m_PrefabParentObject: {fileID: 0}
  m_PrefabInternal: {fileID: 100100000}
  m_GameObject: {fileID: 102712}
  m_Enabled: 1
  m_EditorHideFlags: 0
  m_Script: {fileID: 11500000, guid: 3b4c3eaaf64cfeb4a8c1cd35ffaa3eae, type: 3}
  m_Name: 
  m_EditorClassIdentifier: 
  prefabFauto: {fileID: 164852, guid: ea7dfb57f8af4d046b54574a6a346b78, type: 2}
  DropChance: 35
--- !u!114 &114508269773099044
MonoBehaviour:
  m_ObjectHideFlags: 1
  m_PrefabParentObject: {fileID: 0}
  m_PrefabInternal: {fileID: 100100000}
  m_GameObject: {fileID: 1253009447146244}
  m_Enabled: 1
  m_EditorHideFlags: 0
  m_Script: {fileID: 11500000, guid: feaee78bdf14ade4c836df7f9717cb4d, type: 3}
  m_Name: 
  m_EditorClassIdentifier: 
  damage: 0
  pushTime: 0
  pushSpeed: 0
--- !u!114 &114597858728306546
MonoBehaviour:
  m_ObjectHideFlags: 1
  m_PrefabParentObject: {fileID: 0}
  m_PrefabInternal: {fileID: 100100000}
  m_GameObject: {fileID: 153528}
  m_Enabled: 1
  m_EditorHideFlags: 0
  m_Script: {fileID: 11500000, guid: ed4e85b6dcbd8014e962fa04a2602e63, type: 3}
  m_Name: 
  m_EditorClassIdentifier: 
  stateThrow: {fileID: 0}
  navMeshAgent: {fileID: 19536134}
  stateAreaAttack: {fileID: 0}
--- !u!114 &114616579003910674
MonoBehaviour:
  m_ObjectHideFlags: 1
  m_PrefabParentObject: {fileID: 0}
  m_PrefabInternal: {fileID: 100100000}
  m_GameObject: {fileID: 102712}
  m_Enabled: 1
  m_EditorHideFlags: 0
  m_Script: {fileID: 11500000, guid: d37e16c5327bfeb4282c3098ddc6dc9c, type: 3}
  m_Name: 
  m_EditorClassIdentifier: 
--- !u!114 &114737383151039448
MonoBehaviour:
  m_ObjectHideFlags: 1
  m_PrefabParentObject: {fileID: 0}
  m_PrefabInternal: {fileID: 100100000}
  m_GameObject: {fileID: 102712}
  m_Enabled: 1
  m_EditorHideFlags: 0
  m_Script: {fileID: 11500000, guid: 3110592ecbf508040a45d7f938dc7610, type: 3}
  m_Name: 
  m_EditorClassIdentifier: 
  debug: 0
  subStates: []
  m_CurrentSubState: {fileID: 0}
  m_LastState: {fileID: 0}
  stateName: Active_AreaAttack
  statesLogic: 0
  m_System: {fileID: 0}
  preWaitTime: 2
  postWaitTime: 0.1
  attackLength: 4
  attackHeight: 2
  attackForce: 20
  attackAngle: 360
  raycastDistance: 55
  stompRockPrefab: {fileID: 1180932075189928, guid: 60598def00c27804b844510da2f6f90f,
    type: 2}
  stompPrefab: {fileID: 1262082029492046, guid: 0057420868ea8d546a544c2a6249ef2f,
    type: 2}
  distanceBetweenRocks: 2.5
  distance: 25
  delayBetweenRocks: 0.15
