%YAML 1.1
%TAG !u! tag:unity3d.com,2011:
--- !u!114 &11400000
MonoBehaviour:
  m_ObjectHideFlags: 0
  m_PrefabParentObject: {fileID: 0}
  m_PrefabInternal: {fileID: 0}
  m_GameObject: {fileID: 0}
  m_Enabled: 1
  m_EditorHideFlags: 0
  m_Script: {fileID: 11500000, guid: 440bad29e1c6cfd44a8d00451851d4fb, type: 3}
  m_Name: A2_Altura8_2_Points
  m_EditorClassIdentifier: 
  pointsList:
  - {x: -27.776716, y: 23.201075, z: -71.260925, w: 0.7068708}
  - {x: -27.813202, y: 23.201075, z: -70.749344, w: 0.95810896}
  - {x: -27.701681, y: 23.201075, z: -70.1815, w: 0.6481216}
  - {x: -27.783138, y: 23.201075, z: -69.808525, w: 0.56011736}
  - {x: -27.147968, y: 23.201075, z: -71.73333, w: 0.63639295}
  - {x: -27.183508, y: 23.201073, z: -71.14706, w: 0.68153477}
  - {x: -27.267153, y: 23.201073, z: -70.68634, w: 0.95985764}
  - {x: -27.296711, y: 23.201075, z: -70.20271, w: 0.7793442}
  - {x: -27.327225, y: 23.201075, z: -69.829124, w: 0.8036243}
  - {x: -27.126163, y: 23.201075, z: -69.181595, w: 0.9927696}
  - {x: -27.260895, y: 23.201075, z: -68.89383, w: 0.92935747}
  - {x: -27.227997, y: 23.201075, z: -68.05936, w: 0.68717754}
  - {x: -27.198755, y: 23.201075, z: -67.742516, w: 0.50684875}
  - {x: -26.601383, y: 23.201075, z: -71.75077, w: 0.7130239}
  - {x: -26.63404, y: 23.201075, z: -71.25759, w: 0.75286376}
  - {x: -26.81031, y: 23.201075, z: -70.70401, w: 0.98948854}
  - {x: -26.889936, y: 23.201075, z: -70.26796, w: 0.99303114}
  - {x: -26.85817, y: 23.201075, z: -69.67001, w: 0.7949797}
  - {x: -26.662182, y: 23.201075, z: -69.06266, w: 0.90957654}
  - {x: -26.71795, y: 23.201075, z: -68.55828, w: 0.9725463}
  - {x: -26.65793, y: 23.201075, z: -68.24997, w: 0.7122977}
  - {x: -26.623014, y: 23.201075, z: -67.604004, w: 0.5110576}
  - {x: -26.64288, y: 23.201075, z: -67.36373, w: 0.9986854}
  - {x: -26.712532, y: 23.201075, z: -66.70194, w: 0.56299794}
  - {x: -26.283531, y: 23.201075, z: -71.7563, w: 0.55151635}
  - {x: -26.10812, y: 23.201075, z: -71.325, w: 0.97615117}
  - {x: -26.127165, y: 23.201075, z: -70.94149, w: 0.51888466}
  - {x: -26.26443, y: 23.201075, z: -70.187454, w: 0.5835227}
  - {x: -26.278519, y: 23.201075, z: -69.8081, w: 0.86017126}
  - {x: -26.317593, y: 23.201075, z: -69.249565, w: 0.6690949}
  - {x: -26.135242, y: 23.201075, z: -68.73624, w: 0.6473414}
  - {x: -26.050406, y: 23.201073, z: -68.28011, w: 0.84851784}
  - {x: -26.184065, y: 23.201075, z: -67.74382, w: 0.80866814}
  - {x: -26.3416, y: 23.201075, z: -67.12363, w: 0.8626787}
  - {x: -26.213196, y: 23.201075, z: -66.7542, w: 0.61843944}
  - {x: -26.308317, y: 23.201075, z: -66.22706, w: 0.6360229}
  - {x: -26.36861, y: 23.201075, z: -65.6684, w: 0.7135135}
  - {x: -26.250185, y: 23.201075, z: -65.329124, w: 0.73000014}
  - {x: -26.175358, y: 23.201075, z: -64.17944, w: 0.77774274}
  - {x: -26.211754, y: 23.126484, z: -63.7592, w: 0.5499541}
  - {x: -25.702267, y: 23.201075, z: -71.572105, w: 0.9428143}
  - {x: -25.833843, y: 23.201075, z: -71.24722, w: 0.97102153}
  - {x: -25.801836, y: 23.201075, z: -70.507706, w: 0.5575}
  - {x: -25.71258, y: 23.201075, z: -69.994774, w: 0.7890557}
  - {x: -25.529085, y: 23.201075, z: -69.69935, w: 0.9925019}
  - {x: -25.712435, y: 23.201075, z: -69.12245, w: 0.87558866}
  - {x: -25.63617, y: 23.201075, z: -68.77615, w: 0.7416116}
  - {x: -25.590332, y: 23.201075, z: -68.13839, w: 0.6503117}
  - {x: -25.832584, y: 23.201075, z: -67.64691, w: 0.7870463}
  - {x: -25.713509, y: 23.201075, z: -67.080894, w: 0.59997636}
  - {x: -25.569637, y: 23.201075, z: -66.75349, w: 0.5476828}
  - {x: -25.699408, y: 23.201075, z: -66.232704, w: 0.95973057}
  - {x: -25.895338, y: 23.201075, z: -65.710075, w: 0.64934886}
  - {x: -25.894712, y: 23.201075, z: -65.23398, w: 0.72115827}
  - {x: -25.724686, y: 23.201075, z: -64.83766, w: 0.5138841}
  - {x: -25.593311, y: 23.201075, z: -64.2558, w: 0.6444535}
  - {x: -25.767498, y: 23.201073, z: -63.698387, w: 0.8221051}
  - {x: -25.583258, y: 23.178423, z: -63.197655, w: 0.7307271}
  - {x: -25.214146, y: 23.161505, z: -72.07612, w: 0.62769043}
  - {x: -25.433718, y: 23.201075, z: -71.79792, w: 0.79270005}
  - {x: -25.277706, y: 23.201075, z: -71.24087, w: 0.57481205}
  - {x: -25.049751, y: 23.201075, z: -70.780235, w: 0.98208964}
  - {x: -25.21041, y: 23.201075, z: -70.18561, w: 0.6560452}
  - {x: -25.115875, y: 23.201075, z: -69.7087, w: 0.6705326}
  - {x: -25.22258, y: 23.201075, z: -69.26666, w: 0.8287566}
  - {x: -25.198011, y: 23.201075, z: -68.865234, w: 0.6998466}
  - {x: -25.327532, y: 23.201075, z: -68.42914, w: 0.84328735}
  - {x: -24.983856, y: 23.201075, z: -67.73982, w: 0.7365974}
  - {x: -25.023136, y: 23.201075, z: -67.249374, w: 0.51618046}
  - {x: -25.172203, y: 23.201075, z: -66.580185, w: 0.67480683}
  - {x: -25.23949, y: 23.201075, z: -66.379944, w: 0.832369}
  - {x: -25.185907, y: 23.201075, z: -65.77122, w: 0.6115629}
  - {x: -25.2505, y: 23.201075, z: -65.31137, w: 0.63174987}
  - {x: -25.158768, y: 23.201075, z: -64.85863, w: 0.51358956}
  - {x: -25.12695, y: 23.201075, z: -64.1639, w: 0.5195966}
  - {x: -25.232996, y: 23.201073, z: -63.788177, w: 0.7068498}
  - {x: -25.100393, y: 23.201073, z: -63.23098, w: 0.88414747}
  - {x: -24.7388, y: 23.144556, z: -72.18209, w: 0.7647517}
  - {x: -24.706629, y: 23.201073, z: -71.76623, w: 0.8885811}
  - {x: -24.766266, y: 23.201075, z: -71.34383, w: 0.61753345}
  - {x: -24.583374, y: 23.201075, z: -70.723564, w: 0.70387423}
  - {x: -24.521034, y: 23.201075, z: -70.24626, w: 0.71942484}
  - {x: -24.674706, y: 23.201075, z: -69.891075, w: 0.763978}
  - {x: -24.652514, y: 23.201075, z: -69.30304, w: 0.93655366}
  - {x: -24.871643, y: 23.201075, z: -68.75393, w: 0.76008296}
  - {x: -24.622646, y: 23.201075, z: -68.110954, w: 0.5747667}
  - {x: -24.834053, y: 23.201075, z: -67.59476, w: 0.9266348}
  - {x: -24.743015, y: 23.201075, z: -67.34351, w: 0.95822614}
  - {x: -24.711655, y: 23.201075, z: -66.610405, w: 0.5739908}
  - {x: -24.786884, y: 23.201075, z: -66.32634, w: 0.59597343}
  - {x: -24.700123, y: 23.201075, z: -65.846954, w: 0.6293318}
  - {x: -24.734362, y: 23.201075, z: -65.32329, w: 0.96350104}
  - {x: -24.787735, y: 23.201075, z: -64.7854, w: 0.50909376}
  - {x: -24.885399, y: 23.201075, z: -64.19167, w: 0.6736165}
  - {x: -24.642063, y: 23.201073, z: -63.80307, w: 0.80477834}
  - {x: -24.762245, y: 23.201073, z: -63.25129, w: 0.5352014}
  - {x: -24.685558, y: 22.979883, z: -62.68523, w: 0.6720443}
  - {x: -24.223415, y: 23.158264, z: -72.18918, w: 0.88789093}
  - {x: -24.32748, y: 23.201075, z: -71.62802, w: 0.99875575}
  - {x: -24.11788, y: 23.201073, z: -71.21341, w: 0.83220315}
  - {x: -24.156597, y: 23.201075, z: -70.76347, w: 0.52031595}
  - {x: -24.18473, y: 23.201075, z: -70.18828, w: 0.6753092}
  - {x: -24.185616, y: 23.201075, z: -69.78123, w: 0.58968395}
  - {x: -24.301514, y: 23.201075, z: -69.22688, w: 0.8063041}
  - {x: -24.312248, y: 23.201075, z: -68.72023, w: 0.6333939}
  - {x: -24.226686, y: 23.201073, z: -68.05913, w: 0.5864124}
  - {x: -24.147366, y: 23.201075, z: -67.86236, w: 0.8532534}
  - {x: -24.421497, y: 23.201075, z: -67.224365, w: 0.74265337}
  - {x: -24.31784, y: 23.201075, z: -66.66762, w: 0.849344}
  - {x: -24.117176, y: 23.201075, z: -66.098, w: 0.9508858}
  - {x: -24.239174, y: 23.201075, z: -65.78535, w: 0.55538607}
  - {x: -24.291365, y: 23.201075, z: -65.20705, w: 0.8253422}
  - {x: -24.195248, y: 23.201075, z: -64.68395, w: 0.6534538}
  - {x: -24.3457, y: 23.201075, z: -64.24896, w: 0.9407677}
  - {x: -24.239986, y: 23.201073, z: -63.728306, w: 0.89946145}
  - {x: -24.22417, y: 23.201073, z: -63.197456, w: 0.95281124}
  - {x: -24.299007, y: 22.95384, z: -62.597282, w: 0.88547385}
  - {x: -23.865562, y: 23.201075, z: -71.6765, w: 0.6228709}
  - {x: -23.561865, y: 23.201075, z: -71.17561, w: 0.81589705}
  - {x: -23.682976, y: 23.201075, z: -70.53442, w: 0.8736107}
  - {x: -23.73541, y: 23.201075, z: -70.19854, w: 0.97481805}
  - {x: -23.932388, y: 23.201075, z: -69.70533, w: 0.9672132}
  - {x: -23.612686, y: 23.201075, z: -69.08578, w: 0.97815514}
  - {x: -23.85408, y: 23.201075, z: -68.74581, w: 0.8092338}
  - {x: -23.68751, y: 23.201075, z: -68.15083, w: 0.6516799}
  - {x: -23.821213, y: 23.201075, z: -67.71433, w: 0.7059573}
  - {x: -23.840889, y: 23.201075, z: -67.160095, w: 0.9533358}
  - {x: -23.870316, y: 23.201075, z: -66.791756, w: 0.9208838}
  - {x: -23.844894, y: 23.201075, z: -66.21841, w: 0.76413214}
  - {x: -23.696186, y: 23.201075, z: -65.70356, w: 0.7272054}
  - {x: -23.591656, y: 23.201075, z: -65.39932, w: 0.8619469}
  - {x: -23.580193, y: 23.201075, z: -64.72371, w: 0.8174762}
  - {x: -23.691952, y: 23.201075, z: -64.18072, w: 0.5692651}
  - {x: -23.716164, y: 23.201073, z: -63.84023, w: 0.76742136}
  - {x: -23.912918, y: 23.201073, z: -63.228745, w: 0.66683686}
  - {x: -23.770292, y: 23.071867, z: -62.819958, w: 0.8007295}
  - {x: -23.373638, y: 23.020018, z: -72.77303, w: 0.9585354}
  - {x: -23.078552, y: 23.201075, z: -72.27693, w: 0.9929021}
  - {x: -23.241127, y: 23.201075, z: -71.70158, w: 0.596118}
  - {x: -23.332468, y: 23.201075, z: -71.19697, w: 0.9027078}
  - {x: -23.166471, y: 23.201075, z: -70.70264, w: 0.9340516}
  - {x: -23.1743, y: 23.201075, z: -70.21606, w: 0.7131319}
  - {x: -23.237652, y: 23.201075, z: -69.76302, w: 0.94446343}
  - {x: -23.243816, y: 23.201073, z: -69.08407, w: 0.5205559}
  - {x: -23.260025, y: 23.201075, z: -68.9294, w: 0.62052906}
  - {x: -23.08474, y: 23.201075, z: -68.20821, w: 0.8106302}
  - {x: -23.251272, y: 23.201075, z: -67.93903, w: 0.8501793}
  - {x: -23.210629, y: 23.201075, z: -67.129486, w: 0.91354144}
  - {x: -23.41422, y: 23.201075, z: -66.761055, w: 0.8306327}
  - {x: -23.077675, y: 23.201075, z: -66.17384, w: 0.8434107}
  - {x: -23.418354, y: 23.201073, z: -65.70212, w: 0.84154963}
  - {x: -23.234453, y: 23.201075, z: -65.36084, w: 0.5487572}
  - {x: -23.257137, y: 23.201075, z: -64.79266, w: 0.7230954}
  - {x: -23.126652, y: 23.201075, z: -64.27367, w: 0.61903834}
  - {x: -23.183306, y: 23.201073, z: -63.744064, w: 0.99593765}
  - {x: -23.208588, y: 23.20107, z: -63.32908, w: 0.8948287}
  - {x: -23.22201, y: 23.03326, z: -62.578094, w: 0.6227172}
  - {x: -23.397331, y: 22.947472, z: -62.342487, w: 0.9184783}
  - {x: -22.880428, y: 23.201075, z: -72.614174, w: 0.84271747}
  - {x: -22.712357, y: 23.201075, z: -72.16076, w: 0.57083786}
  - {x: -22.50172, y: 23.201073, z: -71.78745, w: 0.9739103}
  - {x: -22.740402, y: 23.201075, z: -71.17862, w: 0.5641417}
  - {x: -22.653347, y: 23.201073, z: -70.73463, w: 0.84502095}
  - {x: -22.870312, y: 23.201075, z: -70.286476, w: 0.50412524}
  - {x: -22.5905, y: 23.201075, z: -69.910065, w: 0.8821012}
  - {x: -22.574215, y: 23.201075, z: -69.222626, w: 0.8858966}
  - {x: -22.531555, y: 23.201075, z: -68.69964, w: 0.82456285}
  - {x: -22.625332, y: 23.201075, z: -68.13378, w: 0.7545265}
  - {x: -22.615978, y: 23.201075, z: -67.73446, w: 0.7676469}
  - {x: -22.79976, y: 23.201075, z: -67.31258, w: 0.80491316}
  - {x: -22.839489, y: 23.201073, z: -66.63564, w: 0.9242295}
  - {x: -22.786955, y: 23.201075, z: -66.114174, w: 0.86333007}
  - {x: -22.768257, y: 23.201075, z: -65.73438, w: 0.79266787}
  - {x: -22.735191, y: 23.201075, z: -65.31344, w: 0.91051257}
  - {x: -22.544159, y: 23.201075, z: -64.90029, w: 0.616411}
  - {x: -22.748999, y: 23.201073, z: -64.232254, w: 0.6641394}
  - {x: -22.712856, y: 23.201073, z: -63.520813, w: 0.7226591}
  - {x: -22.75829, y: 23.190136, z: -63.0267, w: 0.8343817}
  - {x: -22.086958, y: 23.147173, z: -73.27449, w: 0.9339462}
  - {x: -22.015627, y: 23.201075, z: -72.71663, w: 0.9152788}
  - {x: -21.985777, y: 23.201075, z: -72.290596, w: 0.53550935}
  - {x: -22.274498, y: 23.201075, z: -71.68951, w: 0.88316613}
  - {x: -22.142368, y: 23.201075, z: -71.07798, w: 0.7910781}
  - {x: -22.06277, y: 23.201075, z: -70.81336, w: 0.7086232}
  - {x: -22.165047, y: 23.201075, z: -70.40707, w: 0.570042}
  - {x: -22.252499, y: 23.201075, z: -69.8954, w: 0.5224843}
  - {x: -22.146791, y: 23.201075, z: -69.26505, w: 0.6070196}
  - {x: -22.289078, y: 23.201073, z: -68.89869, w: 0.56199425}
  - {x: -22.180475, y: 23.201075, z: -68.16705, w: 0.74969137}
  - {x: -22.442291, y: 23.201075, z: -67.762794, w: 0.54640555}
  - {x: -22.040668, y: 23.201075, z: -67.198524, w: 0.5068314}
  - {x: -22.083021, y: 23.201075, z: -66.769806, w: 0.50907505}
  - {x: -22.317509, y: 23.201075, z: -66.26898, w: 0.79487896}
  - {x: -22.334923, y: 23.201075, z: -65.85494, w: 0.988138}
  - {x: -22.267355, y: 23.201073, z: -65.337364, w: 0.8578348}
  - {x: -22.292507, y: 23.201075, z: -64.90608, w: 0.9459734}
  - {x: -22.21891, y: 23.201075, z: -64.20119, w: 0.5610187}
  - {x: -22.212635, y: 23.201073, z: -63.94416, w: 0.56947327}
  - {x: -22.162964, y: 23.201073, z: -63.287003, w: 0.6412703}
  - {x: -22.207357, y: 23.004675, z: -62.594673, w: 0.7864412}
  - {x: -21.776354, y: 23.084293, z: -73.61218, w: 0.77465785}
  - {x: -21.93679, y: 23.201075, z: -73.241356, w: 0.80023265}
  - {x: -21.712574, y: 23.201073, z: -72.64232, w: 0.9404522}
  - {x: -21.825764, y: 23.201073, z: -72.232155, w: 0.9858038}
  - {x: -21.747757, y: 23.201075, z: -71.542336, w: 0.6812639}
  - {x: -21.668873, y: 23.201075, z: -71.368706, w: 0.93344295}
  - {x: -21.565039, y: 23.201073, z: -70.684204, w: 0.8265395}
  - {x: -21.678654, y: 23.201075, z: -70.4312, w: 0.5166066}
  - {x: -21.508186, y: 23.201073, z: -69.80195, w: 0.67320836}
  - {x: -21.80364, y: 23.201075, z: -69.160835, w: 0.64887357}
  - {x: -21.693253, y: 23.201075, z: -68.866234, w: 0.7995429}
  - {x: -21.70541, y: 23.201075, z: -68.179825, w: 0.7941611}
  - {x: -21.757908, y: 23.201075, z: -67.66309, w: 0.62915707}
  - {x: -21.727386, y: 23.201075, z: -67.21432, w: 0.5967967}
  - {x: -21.534706, y: 23.201075, z: -66.66074, w: 0.96053785}
  - {x: -21.68105, y: 23.201075, z: -66.20375, w: 0.65096843}
  - {x: -21.56876, y: 23.201075, z: -65.71555, w: 0.7613331}
  - {x: -21.849934, y: 23.201075, z: -65.26222, w: 0.5795461}
  - {x: -21.669989, y: 23.201075, z: -64.50037, w: 0.50825095}
  - {x: -21.82096, y: 23.201073, z: -64.13334, w: 0.704335}
  - {x: -21.760002, y: 23.201073, z: -63.84135, w: 0.5980137}
  - {x: -21.685127, y: 23.201073, z: -63.277977, w: 0.9716477}
  - {x: -21.768396, y: 23.078783, z: -62.85717, w: 0.9873027}
  - {x: -21.232813, y: 23.201075, z: -73.23224, w: 0.8650443}
  - {x: -21.2002, y: 23.201075, z: -72.601715, w: 0.62778306}
  - {x: -21.173172, y: 23.201075, z: -72.340034, w: 0.97337514}
  - {x: -21.390596, y: 23.201075, z: -71.68321, w: 0.96472585}
  - {x: -21.313921, y: 23.201075, z: -71.29333, w: 0.85768926}
  - {x: -21.086578, y: 23.201075, z: -70.76355, w: 0.58207005}
  - {x: -21.198225, y: 23.201075, z: -70.042305, w: 0.7959155}
  - {x: -21.180086, y: 23.201075, z: -69.57581, w: 0.82695335}
  - {x: -21.13388, y: 23.201075, z: -69.318596, w: 0.6847863}
  - {x: -21.058922, y: 23.201075, z: -68.74856, w: 0.6721747}
  - {x: -21.175262, y: 23.201075, z: -68.23786, w: 0.76952374}
  - {x: -21.346075, y: 23.201075, z: -67.57937, w: 0.7898841}
  - {x: -21.169146, y: 23.201075, z: -67.10318, w: 0.6114258}
  - {x: -21.194338, y: 23.201075, z: -66.80605, w: 0.7404492}
  - {x: -21.277756, y: 23.201075, z: -66.099106, w: 0.9756094}
  - {x: -21.122423, y: 23.201075, z: -65.720116, w: 0.82751256}
  - {x: -21.13139, y: 23.201075, z: -65.1674, w: 0.5597024}
  - {x: -21.224516, y: 23.201075, z: -64.59904, w: 0.6627705}
  - {x: -21.217184, y: 23.201073, z: -64.06658, w: 0.91325325}
  - {x: -21.2723, y: 23.201073, z: -63.758766, w: 0.6837621}
  - {x: -21.139091, y: 23.12122, z: -63.058327, w: 0.84899557}
  - {x: -20.841862, y: 23.201075, z: -73.771706, w: 0.6198122}
  - {x: -20.56737, y: 23.201075, z: -73.36837, w: 0.7371062}
  - {x: -20.705833, y: 23.201075, z: -72.64971, w: 0.9817418}
  - {x: -20.799255, y: 23.201075, z: -72.35822, w: 0.808946}
  - {x: -20.75447, y: 23.201075, z: -71.61975, w: 0.7141323}
  - {x: -20.716665, y: 23.201075, z: -71.24975, w: 0.8092791}
  - {x: -20.696041, y: 23.201075, z: -70.812614, w: 0.9880668}
  - {x: -20.6917, y: 23.201075, z: -70.17329, w: 0.82906204}
  - {x: -20.731163, y: 23.201075, z: -69.948586, w: 0.99291635}
  - {x: -20.796085, y: 23.201075, z: -69.23016, w: 0.86484283}
  - {x: -20.861877, y: 23.201075, z: -68.81143, w: 0.91004485}
  - {x: -20.563433, y: 23.201075, z: -68.149734, w: 0.5340279}
  - {x: -20.787863, y: 23.201075, z: -67.78985, w: 0.5665092}
  - {x: -20.765255, y: 23.201075, z: -67.328964, w: 0.96379536}
  - {x: -20.825348, y: 23.201075, z: -66.751526, w: 0.72430384}
  - {x: -20.685694, y: 23.201075, z: -66.11838, w: 0.74224913}
  - {x: -20.622894, y: 23.201075, z: -65.886024, w: 0.94239116}
  - {x: -20.900398, y: 23.201075, z: -65.325134, w: 0.5120327}
  - {x: -20.691782, y: 23.201075, z: -64.576546, w: 0.65566623}
  - {x: -20.662437, y: 23.201075, z: -64.224014, w: 0.9983494}
  - {x: -20.73139, y: 23.201073, z: -63.91794, w: 0.8648477}
  - {x: -20.612661, y: 23.201073, z: -63.34906, w: 0.882076}
  - {x: -20.912973, y: 23.002739, z: -62.765728, w: 0.9555259}
  - {x: -20.259966, y: 23.201075, z: -74.135666, w: 0.93153423}
  - {x: -20.26123, y: 23.201075, z: -73.73478, w: 0.7388669}
  - {x: -20.180943, y: 23.201075, z: -73.28841, w: 0.8934831}
  - {x: -20.302711, y: 23.201075, z: -72.74104, w: 0.91452074}
  - {x: -20.226887, y: 23.201075, z: -72.04214, w: 0.94112223}
  - {x: -20.199232, y: 23.201075, z: -71.56476, w: 0.88987064}
  - {x: -20.127493, y: 23.201075, z: -71.312485, w: 0.78593457}
  - {x: -20.134432, y: 23.201075, z: -70.660225, w: 0.6348523}
  - {x: -20.202665, y: 23.201075, z: -70.360245, w: 0.6402513}
  - {x: -20.018728, y: 23.201075, z: -69.781944, w: 0.66530275}
  - {x: -20.190434, y: 23.201075, z: -69.43383, w: 0.6513567}
  - {x: -20.18658, y: 23.201075, z: -68.60859, w: 0.8470846}
  - {x: -20.102764, y: 23.201075, z: -68.163345, w: 0.65507996}
  - {x: -20.214182, y: 23.201075, z: -67.664185, w: 0.7033651}
  - {x: -20.109135, y: 23.201075, z: -67.104744, w: 0.8826755}
  - {x: -20.272278, y: 23.201075, z: -66.69894, w: 0.90228254}
  - {x: -20.274164, y: 23.201075, z: -66.410416, w: 0.7964791}
  - {x: -20.197077, y: 23.201075, z: -65.73484, w: 0.7380667}
  - {x: -20.23686, y: 23.201075, z: -65.39634, w: 0.9918436}
  - {x: -20.341442, y: 23.201075, z: -64.67933, w: 0.93687123}
  - {x: -20.100986, y: 23.201075, z: -64.366806, w: 0.77825093}
  - {x: -20.214022, y: 23.201073, z: -63.628876, w: 0.6289574}
  - {x: -20.211433, y: 23.141846, z: -63.240467, w: 0.82392204}
  - {x: -20.153189, y: 22.915642, z: -62.631157, w: 0.9539116}
  - {x: -19.807577, y: 23.057053, z: -75.20601, w: 0.5117791}
  - {x: -19.851067, y: 23.14619, z: -74.72434, w: 0.7186544}
  - {x: -19.820526, y: 23.201075, z: -74.22629, w: 0.8294766}
  - {x: -19.67358, y: 23.201075, z: -73.76034, w: 0.62882626}
  - {x: -19.642998, y: 23.201075, z: -73.178734, w: 0.9466484}
  - {x: -19.694862, y: 23.201075, z: -72.59766, w: 0.93212605}
  - {x: -19.662668, y: 23.201075, z: -72.09483, w: 0.81543773}
  - {x: -19.79409, y: 23.201075, z: -71.870255, w: 0.6928468}
  - {x: -19.892157, y: 23.201073, z: -71.24171, w: 0.7001935}
  - {x: -19.635605, y: 23.201075, z: -70.73832, w: 0.9366672}
  - {x: -19.600956, y: 23.201075, z: -70.36213, w: 0.67170954}
  - {x: -19.865309, y: 23.201075, z: -69.80205, w: 0.88530564}
  - {x: -19.6665, y: 23.201075, z: -69.08223, w: 0.97796476}
  - {x: -19.785425, y: 23.201075, z: -68.70751, w: 0.63085604}
  - {x: -19.763433, y: 23.201075, z: -68.41783, w: 0.9284372}
  - {x: -19.731441, y: 23.201075, z: -67.71242, w: 0.60710406}
  - {x: -19.55325, y: 23.201075, z: -67.2858, w: 0.63372314}
  - {x: -19.703224, y: 23.201075, z: -66.78864, w: 0.7801312}
  - {x: -19.562757, y: 23.201075, z: -66.238594, w: 0.78478444}
  - {x: -19.565205, y: 23.201075, z: -65.85508, w: 0.6296098}
  - {x: -19.60511, y: 23.201075, z: -65.12473, w: 0.6391467}
  - {x: -19.65475, y: 23.201073, z: -64.60783, w: 0.72743595}
  - {x: -19.733788, y: 23.201075, z: -64.189415, w: 0.7977958}
  - {x: -19.736395, y: 23.201073, z: -63.74746, w: 0.98261905}
  - {x: -19.78285, y: 23.156797, z: -63.33941, w: 0.68229735}
  - {x: -19.847572, y: 22.941963, z: -62.74444, w: 0.95733213}
  - {x: -19.149628, y: 23.185957, z: -75.73582, w: 0.609532}
  - {x: -19.233364, y: 23.201075, z: -75.210045, w: 0.5509579}
  - {x: -19.12675, y: 23.201075, z: -74.53003, w: 0.9680223}
  - {x: -19.22495, y: 23.201075, z: -74.2106, w: 0.8843701}
  - {x: -19.40005, y: 23.201075, z: -73.74174, w: 0.6796336}
  - {x: -19.266369, y: 23.201075, z: -73.44162, w: 0.57067996}
  - {x: -19.256622, y: 23.201075, z: -72.81725, w: 0.80417526}
  - {x: -19.009115, y: 23.201075, z: -72.14707, w: 0.74957836}
  - {x: -19.103588, y: 23.201073, z: -71.74923, w: 0.67414534}
  - {x: -19.351727, y: 23.201075, z: -71.116295, w: 0.69725215}
  - {x: -19.409883, y: 23.201075, z: -70.81895, w: 0.58201975}
  - {x: -19.23454, y: 23.201075, z: -70.289986, w: 0.6269157}
  - {x: -19.12553, y: 23.201075, z: -69.89785, w: 0.7724198}
  - {x: -19.077196, y: 23.201075, z: -69.08716, w: 0.8591912}
  - {x: -19.429823, y: 23.201075, z: -68.73287, w: 0.80481577}
  - {x: -19.336634, y: 23.201075, z: -68.25157, w: 0.9665437}
  - {x: -19.241228, y: 23.201075, z: -67.85679, w: 0.92221016}
  - {x: -19.229242, y: 23.201075, z: -67.113914, w: 0.7292006}
  - {x: -19.24549, y: 23.201075, z: -66.67204, w: 0.947593}
  - {x: -19.315157, y: 23.201075, z: -66.16178, w: 0.52273905}
  - {x: -19.061329, y: 23.201075, z: -65.66679, w: 0.8228683}
  - {x: -19.23759, y: 23.201075, z: -65.18392, w: 0.73595595}
  - {x: -19.358593, y: 23.201075, z: -64.66635, w: 0.8208622}
  - {x: -19.448565, y: 23.201073, z: -64.22403, w: 0.6882801}
  - {x: -19.201359, y: 23.201073, z: -63.84088, w: 0.5000434}
  - {x: -18.911573, y: 23.139002, z: -76.356674, w: 0.71607053}
  - {x: -18.644234, y: 23.201075, z: -75.604645, w: 0.62997746}
  - {x: -18.678602, y: 23.201075, z: -75.14866, w: 0.81484306}
  - {x: -18.678034, y: 23.201075, z: -74.668205, w: 0.6024729}
  - {x: -18.692434, y: 23.201075, z: -74.34446, w: 0.71452665}
  - {x: -18.845083, y: 23.201075, z: -73.73833, w: 0.6918094}
  - {x: -18.61344, y: 23.201075, z: -73.223625, w: 0.82572025}
  - {x: -18.69946, y: 23.201075, z: -72.76748, w: 0.6301886}
  - {x: -18.673845, y: 23.201075, z: -72.254875, w: 0.5197159}
  - {x: -18.668743, y: 23.201075, z: -71.892685, w: 0.51649976}
  - {x: -18.652643, y: 23.201075, z: -71.26621, w: 0.78958845}
  - {x: -18.695456, y: 23.201075, z: -70.9348, w: 0.88183165}
  - {x: -18.618732, y: 23.201075, z: -70.16204, w: 0.7777697}
  - {x: -18.721657, y: 23.201075, z: -69.76732, w: 0.62832403}
  - {x: -18.80302, y: 23.201073, z: -69.05781, w: 0.6800989}
  - {x: -18.814236, y: 23.201075, z: -68.796936, w: 0.57439256}
  - {x: -18.669083, y: 23.201075, z: -68.37898, w: 0.86069876}
  - {x: -18.838055, y: 23.201075, z: -67.73077, w: 0.9478444}
  - {x: -18.551115, y: 23.201075, z: -67.26952, w: 0.91763836}
  - {x: -18.692995, y: 23.201075, z: -66.76203, w: 0.5411661}
  - {x: -18.621056, y: 23.201075, z: -66.26582, w: 0.89527214}
  - {x: -18.774122, y: 23.201075, z: -65.89225, w: 0.54159296}
  - {x: -18.890762, y: 23.201075, z: -65.23525, w: 0.63922894}
  - {x: -18.57642, y: 23.201075, z: -64.763176, w: 0.8652371}
  - {x: -18.04454, y: 23.201075, z: -77.2823, w: 0.83814144}
  - {x: -18.206726, y: 23.201075, z: -76.5568, w: 0.5182612}
  - {x: -18.243118, y: 23.201075, z: -76.3958, w: 0.7736391}
  - {x: -18.169323, y: 23.201075, z: -75.78826, w: 0.5020658}
  - {x: -18.02549, y: 23.201075, z: -75.22224, w: 0.8640854}
  - {x: -18.253662, y: 23.201075, z: -74.73415, w: 0.9505257}
  - {x: -18.383472, y: 23.201075, z: -74.23903, w: 0.6084273}
  - {x: -18.218437, y: 23.201075, z: -73.52854, w: 0.5896476}
  - {x: -18.14069, y: 23.201075, z: -73.246796, w: 0.73888814}
  - {x: -18.015877, y: 23.201075, z: -72.72252, w: 0.5610135}
  - {x: -18.2523, y: 23.201075, z: -72.15434, w: 0.956613}
  - {x: -18.095133, y: 23.201075, z: -71.66753, w: 0.7934953}
  - {x: -18.18233, y: 23.201073, z: -71.32637, w: 0.95951456}
  - {x: -18.241755, y: 23.201075, z: -70.76801, w: 0.79095864}
  - {x: -18.2104, y: 23.201075, z: -70.09429, w: 0.91582257}
  - {x: -18.099827, y: 23.201075, z: -69.79232, w: 0.54326206}
  - {x: -17.98368, y: 23.201075, z: -69.26238, w: 0.6121189}
  - {x: -18.1702, y: 23.201075, z: -68.75092, w: 0.97575665}
  - {x: -18.276678, y: 23.201075, z: -68.05017, w: 0.7055299}
  - {x: -18.153952, y: 23.201075, z: -67.962524, w: 0.6827183}
  - {x: -18.11977, y: 23.201075, z: -67.1906, w: 0.93158853}
  - {x: -18.31313, y: 23.201075, z: -66.69141, w: 0.9158423}
  - {x: -18.217731, y: 23.201075, z: -66.143005, w: 0.7572999}
  - {x: -18.417538, y: 23.201075, z: -65.73617, w: 0.94695324}
  - {x: -18.041965, y: 23.201075, z: -65.27636, w: 0.58645236}
  - {x: -18.339333, y: 23.194563, z: -64.79079, w: 0.7015965}
  - {x: -17.820251, y: 23.157434, z: -78.13855, w: 0.6066037}
  - {x: -17.574455, y: 23.201075, z: -77.78252, w: 0.73661005}
  - {x: -17.859833, y: 23.201075, z: -77.19294, w: 0.66506135}
  - {x: -17.92196, y: 23.201075, z: -76.73039, w: 0.9989557}
  - {x: -17.775158, y: 23.201075, z: -76.15746, w: 0.74284196}
  - {x: -17.683853, y: 23.201075, z: -75.6641, w: 0.60470176}
  - {x: -17.60801, y: 23.201075, z: -75.238655, w: 0.99045116}
  - {x: -17.654747, y: 23.201075, z: -74.93656, w: 0.72652626}
  - {x: -17.663319, y: 23.201075, z: -74.27935, w: 0.69753253}
  - {x: -17.60079, y: 23.201075, z: -73.65557, w: 0.5440768}
  - {x: -17.689425, y: 23.201075, z: -73.08696, w: 0.71045125}
  - {x: -17.610533, y: 23.201075, z: -72.573715, w: 0.59115016}
  - {x: -17.74497, y: 23.201075, z: -72.06497, w: 0.8793891}
  - {x: -17.626492, y: 23.201075, z: -71.52565, w: 0.88261855}
  - {x: -17.57174, y: 23.201075, z: -71.22796, w: 0.86409956}
  - {x: -17.755983, y: 23.201073, z: -70.926056, w: 0.55164665}
  - {x: -17.937508, y: 23.201075, z: -70.27136, w: 0.5296236}
  - {x: -17.725132, y: 23.201075, z: -69.82156, w: 0.6341715}
  - {x: -17.790121, y: 23.201075, z: -69.26698, w: 0.88494647}
  - {x: -17.780361, y: 23.201075, z: -68.756195, w: 0.94437635}
  - {x: -17.761845, y: 23.201075, z: -68.37484, w: 0.7702811}
  - {x: -17.90115, y: 23.201075, z: -67.70271, w: 0.7810546}
  - {x: -17.763123, y: 23.201075, z: -67.190384, w: 0.64661455}
  - {x: -17.838484, y: 23.201075, z: -66.73984, w: 0.86757255}
  - {x: -17.732807, y: 23.201075, z: -66.4227, w: 0.6970252}
  - {x: -17.732956, y: 23.201075, z: -65.760956, w: 0.69857013}
  - {x: -17.808083, y: 23.141253, z: -65.22575, w: 0.75206923}
  - {x: -17.298737, y: 23.201075, z: -78.73605, w: 0.53052986}
  - {x: -17.02988, y: 23.201075, z: -78.24231, w: 0.65406585}
  - {x: -17.166042, y: 23.201075, z: -77.71201, w: 0.96211815}
  - {x: -17.447203, y: 23.201075, z: -75.696724, w: 0.96084625}
  - {x: -17.241222, y: 23.201075, z: -75.14705, w: 0.6143927}
  - {x: -17.233782, y: 23.201075, z: -74.977585, w: 0.7209902}
  - {x: -17.386211, y: 23.201075, z: -74.244675, w: 0.80317605}
  - {x: -17.236439, y: 23.201075, z: -73.54033, w: 0.8689005}
  - {x: -17.075554, y: 23.201075, z: -73.35466, w: 0.5112129}
  - {x: -17.184525, y: 23.201075, z: -72.86671, w: 0.56688946}
  - {x: -17.174866, y: 23.201075, z: -72.143234, w: 0.54949474}
  - {x: -17.30819, y: 23.201075, z: -71.69829, w: 0.80669427}
  - {x: -17.260704, y: 23.201075, z: -71.326614, w: 0.7772001}
  - {x: -17.22858, y: 23.201075, z: -70.7552, w: 0.9583315}
  - {x: -17.278965, y: 23.201075, z: -70.39844, w: 0.63177514}
  - {x: -17.242718, y: 23.201075, z: -69.53105, w: 0.9760466}
  - {x: -17.228464, y: 23.201073, z: -69.235054, w: 0.7436631}
  - {x: -17.259775, y: 23.201075, z: -68.80989, w: 0.58345795}
  - {x: -17.32835, y: 23.201075, z: -68.14385, w: 0.50625783}
  - {x: -17.302704, y: 23.201075, z: -67.870224, w: 0.5834477}
  - {x: -17.207767, y: 23.201075, z: -67.350044, w: 0.72895396}
  - {x: -17.41972, y: 23.201075, z: -66.72828, w: 0.9735379}
  - {x: -17.258358, y: 23.201075, z: -66.26749, w: 0.88104635}
  - {x: -17.121887, y: 23.090792, z: -65.85996, w: 0.88129735}
  - {x: -16.62945, y: 23.171179, z: -79.29953, w: 0.6528157}
  - {x: -16.782116, y: 23.201075, z: -78.74033, w: 0.68253684}
  - {x: -16.580435, y: 23.201075, z: -75.181786, w: 0.6237815}
  - {x: -16.744267, y: 23.201075, z: -74.6956, w: 0.8523497}
  - {x: -16.672758, y: 23.201075, z: -74.11574, w: 0.8985316}
  - {x: -16.683926, y: 23.201075, z: -73.90518, w: 0.50819826}
  - {x: -16.592018, y: 23.201075, z: -73.276764, w: 0.72281945}
  - {x: -16.866531, y: 23.201075, z: -72.75014, w: 0.71823645}
  - {x: -16.716656, y: 23.201075, z: -72.3161, w: 0.6456276}
  - {x: -16.597233, y: 23.201075, z: -71.7097, w: 0.5931182}
  - {x: -16.768923, y: 23.201075, z: -71.099266, w: 0.98705614}
  - {x: -16.56778, y: 23.201075, z: -70.75494, w: 0.5022495}
  - {x: -16.533474, y: 23.201075, z: -70.28926, w: 0.95153755}
  - {x: -16.867088, y: 23.201075, z: -69.637596, w: 0.8367864}
  - {x: -16.717167, y: 23.201075, z: -69.31114, w: 0.55133235}
  - {x: -16.650612, y: 23.201075, z: -68.823204, w: 0.581098}
  - {x: -16.650463, y: 23.201075, z: -68.221924, w: 0.6668551}
  - {x: -16.649734, y: 23.201075, z: -67.76865, w: 0.59527296}
  - {x: -16.63929, y: 23.201075, z: -67.33409, w: 0.92970955}
  - {x: -16.806896, y: 23.194563, z: -66.65049, w: 0.9784207}
  - {x: -16.70462, y: 22.996733, z: -65.99627, w: 0.99936885}
  - {x: -15.97979, y: 23.16406, z: -79.70581, w: 0.6300553}
  - {x: -16.285025, y: 23.201075, z: -79.36608, w: 0.9540485}
  - {x: -16.249168, y: 23.201075, z: -74.82205, w: 0.77264714}
  - {x: -16.098616, y: 23.201075, z: -74.28718, w: 0.688931}
  - {x: -16.001959, y: 23.201073, z: -73.70195, w: 0.84582216}
  - {x: -16.204071, y: 23.201075, z: -73.13982, w: 0.75237}
  - {x: -16.0013, y: 23.201073, z: -72.70516, w: 0.90018046}
  - {x: -16.118452, y: 23.201075, z: -72.145935, w: 0.66077757}
  - {x: -16.024261, y: 23.201075, z: -71.75501, w: 0.5454558}
  - {x: -16.134922, y: 23.201075, z: -71.257645, w: 0.61414015}
  - {x: -16.221395, y: 23.201075, z: -70.74451, w: 0.8277539}
  - {x: -16.35531, y: 23.201075, z: -70.308495, w: 0.9260068}
  - {x: -16.30968, y: 23.201075, z: -69.77214, w: 0.9523841}
  - {x: -16.073639, y: 23.201075, z: -69.199684, w: 0.58775485}
  - {x: -16.162708, y: 23.201075, z: -68.68122, w: 0.55295163}
  - {x: -16.3606, y: 23.201075, z: -68.23923, w: 0.77400935}
  - {x: -16.239676, y: 23.201075, z: -67.65807, w: 0.9158776}
  - {x: -16.247377, y: 23.13895, z: -67.1107, w: 0.9664224}
  - {x: -15.764961, y: 23.201075, z: -79.650635, w: 0.9217308}
  - {x: -15.734104, y: 23.201075, z: -74.657845, w: 0.8920057}
  - {x: -15.675957, y: 23.201075, z: -74.284996, w: 0.6299498}
  - {x: -15.637287, y: 23.201075, z: -73.76619, w: 0.5785335}
  - {x: -15.468807, y: 23.201073, z: -73.20623, w: 0.66920245}
  - {x: -15.7928915, y: 23.201075, z: -72.855965, w: 0.82583916}
  - {x: -15.541359, y: 23.201075, z: -72.23049, w: 0.7488234}
  - {x: -15.645171, y: 23.201075, z: -71.80241, w: 0.5206473}
  - {x: -15.884222, y: 23.201075, z: -71.23109, w: 0.79248583}
  - {x: -15.648087, y: 23.201075, z: -70.829155, w: 0.64100575}
  - {x: -15.745495, y: 23.201075, z: -70.34728, w: 0.9084367}
  - {x: -15.672472, y: 23.201075, z: -69.88665, w: 0.93633235}
  - {x: -15.691335, y: 23.201075, z: -69.13527, w: 0.9504854}
  - {x: -15.476515, y: 23.201075, z: -68.738266, w: 0.87309027}
  - {x: -15.718473, y: 23.201073, z: -68.11452, w: 0.5114151}
  - {x: -15.598677, y: 23.111599, z: -67.79033, w: 0.79458046}
  - {x: -15.111519, y: 23.1436, z: -80.28813, w: 0.7527466}
  - {x: -15.322366, y: 23.201075, z: -79.742035, w: 0.63265646}
  - {x: -15.268988, y: 23.201073, z: -74.11934, w: 0.82976794}
  - {x: -15.217323, y: 23.201075, z: -73.77769, w: 0.7830912}
  - {x: -15.222934, y: 23.201075, z: -73.05778, w: 0.571785}
  - {x: -15.243166, y: 23.201075, z: -72.8674, w: 0.56699693}
  - {x: -15.2414875, y: 23.201075, z: -72.41533, w: 0.78908706}
  - {x: -15.244387, y: 23.201075, z: -71.77591, w: 0.625792}
  - {x: -15.177973, y: 23.201075, z: -71.22732, w: 0.51876855}
  - {x: -15.231634, y: 23.201075, z: -70.61573, w: 0.5193092}
  - {x: -15.204895, y: 23.201075, z: -70.481255, w: 0.92956394}
  - {x: -15.07465, y: 23.201075, z: -69.75242, w: 0.79442024}
  - {x: -15.37388, y: 23.201075, z: -69.23582, w: 0.7003596}
  - {x: -15.238699, y: 23.201075, z: -68.632385, w: 0.58279985}
  - {x: -15.218992, y: 23.088482, z: -68.16014, w: 0.53608483}
  - {x: -14.699562, y: 23.127445, z: -80.587585, w: 0.8506443}
  - {x: -14.8047695, y: 23.201077, z: -80.19887, w: 0.5732765}
  - {x: -14.701068, y: 23.201075, z: -79.72505, w: 0.6311674}
  - {x: -14.699316, y: 23.201075, z: -74.394165, w: 0.82840616}
  - {x: -14.63106, y: 23.201075, z: -73.7319, w: 0.9239617}
  - {x: -14.712637, y: 23.201075, z: -73.11588, w: 0.8956848}
  - {x: -14.841735, y: 23.201075, z: -72.856224, w: 0.7609763}
  - {x: -14.841784, y: 23.201075, z: -72.23885, w: 0.5800518}
  - {x: -14.908421, y: 23.201075, z: -71.7141, w: 0.5795018}
  - {x: -14.76716, y: 23.201075, z: -71.3677, w: 0.75383556}
  - {x: -14.847408, y: 23.201075, z: -70.64949, w: 0.55729115}
  - {x: -14.887256, y: 23.201075, z: -70.23095, w: 0.7285564}
  - {x: -14.564661, y: 23.201075, z: -69.73717, w: 0.524648}
  - {x: -14.535543, y: 23.17914, z: -69.346214, w: 0.67705417}
  - {x: -14.0188875, y: 23.05165, z: -81.2587, w: 0.7641777}
  - {x: -14.170754, y: 23.173061, z: -80.73363, w: 0.6656728}
  - {x: -14.322321, y: 23.201075, z: -80.11809, w: 0.560533}
  - {x: -14.188649, y: 23.201075, z: -79.53145, w: 0.53705394}
  - {x: -14.223888, y: 23.201075, z: -74.17818, w: 0.6939697}
  - {x: -14.432199, y: 23.201075, z: -73.72682, w: 0.6779542}
  - {x: -14.284721, y: 23.201075, z: -73.40457, w: 0.81737775}
  - {x: -14.244991, y: 23.201075, z: -72.96421, w: 0.6944593}
  - {x: -14.27066, y: 23.201075, z: -72.112625, w: 0.5023291}
  - {x: -14.316082, y: 23.201075, z: -71.83355, w: 0.9789871}
  - {x: -14.10112, y: 23.201075, z: -71.13552, w: 0.6108289}
  - {x: -14.23054, y: 23.201075, z: -70.70207, w: 0.6712204}
  - {x: -14.154419, y: 23.201073, z: -70.20459, w: 0.61614937}
  - {x: -14.430651, y: 23.201075, z: -69.77365, w: 0.5922413}
  - {x: -13.709585, y: 23.201077, z: -80.7541, w: 0.54090893}
  - {x: -13.577691, y: 23.201077, z: -80.19284, w: 0.5327921}
  - {x: -13.725602, y: 23.201075, z: -79.610535, w: 0.5455142}
  - {x: -13.7155075, y: 23.201075, z: -74.59528, w: 0.88426936}
  - {x: -13.694763, y: 23.201075, z: -74.20411, w: 0.63862574}
  - {x: -13.701439, y: 23.201075, z: -73.858635, w: 0.56691927}
  - {x: -13.928648, y: 23.201075, z: -73.23207, w: 0.8813581}
  - {x: -13.745467, y: 23.201075, z: -72.69141, w: 0.92842364}
  - {x: -13.728668, y: 23.201075, z: -72.21762, w: 0.7121074}
  - {x: -13.718649, y: 23.201075, z: -71.56865, w: 0.7035339}
  - {x: -13.599963, y: 23.201075, z: -71.140816, w: 0.5263579}
  - {x: -13.717213, y: 23.201075, z: -70.72177, w: 0.62997043}
  - {x: -13.695161, y: 23.106699, z: -70.08139, w: 0.56722057}
  - {x: -13.15993, y: 23.182713, z: -81.29132, w: 0.61338437}
  - {x: -13.173914, y: 23.201077, z: -80.69653, w: 0.8024138}
  - {x: -13.3060665, y: 23.201077, z: -80.22427, w: 0.9406817}
  - {x: -13.114974, y: 23.201075, z: -79.68757, w: 0.60210043}
  - {x: -13.350097, y: 23.201075, z: -79.24459, w: 0.9337455}
  - {x: -13.03835, y: 23.201075, z: -74.71105, w: 0.5216849}
  - {x: -13.160382, y: 23.201075, z: -74.177246, w: 0.8638273}
  - {x: -13.269038, y: 23.201075, z: -73.68011, w: 0.9653253}
  - {x: -13.043243, y: 23.201075, z: -73.26162, w: 0.5419392}
  - {x: -13.180615, y: 23.201075, z: -72.71121, w: 0.62287664}
  - {x: -13.204034, y: 23.201075, z: -72.27553, w: 0.7981343}
  - {x: -13.201971, y: 23.201075, z: -71.545006, w: 0.6724019}
  - {x: -13.200521, y: 23.201075, z: -71.42149, w: 0.6008459}
  - {x: -13.195075, y: 23.201075, z: -70.7962, w: 0.673318}
  - {x: -12.690025, y: 23.129383, z: -81.758255, w: 0.945054}
  - {x: -12.675728, y: 23.201077, z: -81.242455, w: 0.64340484}
  - {x: -12.662264, y: 23.201077, z: -80.60635, w: 0.67262065}
  - {x: -12.666091, y: 23.201077, z: -80.255905, w: 0.8035257}
  - {x: -12.724233, y: 23.201075, z: -79.97577, w: 0.58299565}
  - {x: -12.699343, y: 23.201075, z: -79.22488, w: 0.5874721}
  - {x: -12.668382, y: 23.201075, z: -78.72835, w: 0.9650284}
  - {x: -12.526453, y: 23.201075, z: -74.834335, w: 0.8522845}
  - {x: -12.844504, y: 23.201075, z: -74.28962, w: 0.8663449}
  - {x: -12.553588, y: 23.201075, z: -73.78405, w: 0.53332406}
  - {x: -12.798346, y: 23.201075, z: -73.28059, w: 0.7219471}
  - {x: -12.895097, y: 23.201075, z: -72.6978, w: 0.6594111}
  - {x: -12.733743, y: 23.201075, z: -72.252205, w: 0.8403824}
  - {x: -12.772514, y: 23.201075, z: -71.676254, w: 0.78687406}
  - {x: -12.69218, y: 23.201075, z: -71.41849, w: 0.9442603}
  - {x: -12.366218, y: 23.050837, z: -82.230125, w: 0.6128357}
  - {x: -12.147158, y: 23.201077, z: -81.81228, w: 0.96270984}
  - {x: -12.128814, y: 23.201077, z: -81.20798, w: 0.78047585}
  - {x: -12.192485, y: 23.201077, z: -80.56198, w: 0.8461339}
  - {x: -12.232679, y: 23.201075, z: -80.07632, w: 0.6954528}
  - {x: -12.149916, y: 23.201075, z: -79.729904, w: 0.9612276}
  - {x: -12.178235, y: 23.201075, z: -79.28481, w: 0.72376263}
  - {x: -12.1907215, y: 23.201075, z: -78.838974, w: 0.68228936}
  - {x: -12.195981, y: 23.201075, z: -78.00784, w: 0.8118061}
  - {x: -12.222334, y: 23.201075, z: -77.83543, w: 0.5322023}
  - {x: -11.99846, y: 23.201075, z: -76.26049, w: 0.9563306}
  - {x: -12.202872, y: 23.201075, z: -75.64279, w: 0.65771115}
  - {x: -12.2352295, y: 23.201075, z: -75.28631, w: 0.89165705}
  - {x: -12.271762, y: 23.201069, z: -74.675934, w: 0.58969307}
  - {x: -12.286981, y: 23.201075, z: -74.136955, w: 0.5719301}
  - {x: -12.192797, y: 23.201075, z: -73.78125, w: 0.90414214}
  - {x: -12.28133, y: 23.201075, z: -73.07821, w: 0.68086255}
  - {x: -12.186487, y: 23.201075, z: -72.9739, w: 0.67201173}
  - {x: -12.206079, y: 23.201075, z: -72.25066, w: 0.56115854}
  - {x: -11.982101, y: 23.1512, z: -71.71911, w: 0.67506063}
  - {x: -11.673387, y: 23.171516, z: -82.20269, w: 0.7132987}
  - {x: -11.574209, y: 23.201077, z: -81.70145, w: 0.6322433}
  - {x: -11.602002, y: 23.201077, z: -81.2348, w: 0.63300467}
  - {x: -11.606973, y: 23.201077, z: -80.655716, w: 0.85445446}
  - {x: -11.6700735, y: 23.201075, z: -80.242355, w: 0.9576286}
  - {x: -11.711788, y: 23.201075, z: -79.60476, w: 0.6857178}
  - {x: -11.799476, y: 23.201075, z: -79.27261, w: 0.93918073}
  - {x: -11.79345, y: 23.201075, z: -78.61553, w: 0.5322451}
  - {x: -11.7090645, y: 23.201075, z: -78.11453, w: 0.72704864}
  - {x: -11.576658, y: 23.201073, z: -77.655945, w: 0.7880986}
  - {x: -11.762705, y: 23.201075, z: -77.099304, w: 0.6680466}
  - {x: -11.7090645, y: 23.201075, z: -76.858986, w: 0.77690256}
  - {x: -11.738375, y: 23.201075, z: -76.32613, w: 0.50957143}
  - {x: -11.680997, y: 23.201073, z: -75.545425, w: 0.8371538}
  - {x: -11.675344, y: 23.201075, z: -75.44032, w: 0.7324426}
  - {x: -11.702981, y: 23.201075, z: -74.54046, w: 0.533599}
  - {x: -11.589272, y: 23.201075, z: -74.32413, w: 0.848673}
  - {x: -11.893842, y: 23.201075, z: -73.71757, w: 0.50402254}
  - {x: -11.704462, y: 23.201075, z: -73.07487, w: 0.7649034}
  - {x: -11.900185, y: 23.201075, z: -72.7324, w: 0.51011854}
  - {x: -11.704918, y: 23.201075, z: -72.18404, w: 0.5606764}
  - {x: -11.373707, y: 23.082691, z: -82.69448, w: 0.5680366}
  - {x: -11.131136, y: 23.201075, z: -82.17165, w: 0.70244324}
  - {x: -11.261667, y: 23.201077, z: -81.60728, w: 0.81007946}
  - {x: -11.210834, y: 23.201077, z: -81.145065, w: 0.98395306}
  - {x: -11.055266, y: 23.201077, z: -80.86835, w: 0.61933106}
  - {x: -11.3489895, y: 23.201077, z: -80.31239, w: 0.60155475}
  - {x: -11.302674, y: 23.201075, z: -79.77382, w: 0.6529459}
  - {x: -11.366444, y: 23.201075, z: -79.30165, w: 0.54629004}
  - {x: -11.17478, y: 23.201075, z: -78.61109, w: 0.5409786}
  - {x: -11.161898, y: 23.201075, z: -78.119545, w: 0.5058968}
  - {x: -10.982395, y: 23.201073, z: -77.776215, w: 0.9728724}
  - {x: -11.23176, y: 23.201075, z: -77.18338, w: 0.78811944}
  - {x: -11.198731, y: 23.201075, z: -76.7559, w: 0.65766394}
  - {x: -11.157159, y: 23.201075, z: -76.056076, w: 0.54470813}
  - {x: -11.301857, y: 23.201075, z: -75.689384, w: 0.57282585}
  - {x: -11.3212805, y: 23.201075, z: -75.33693, w: 0.6707727}
  - {x: -11.258486, y: 23.201075, z: -74.59785, w: 0.54839075}
  - {x: -11.253485, y: 23.201075, z: -74.15939, w: 0.7909899}
  - {x: -11.247454, y: 23.201075, z: -73.69149, w: 0.87801903}
  - {x: -11.433402, y: 23.201075, z: -73.2435, w: 0.7556784}
  - {x: -11.196961, y: 23.201075, z: -72.7292, w: 0.71760166}
  - {x: -11.118466, y: 23.021029, z: -72.16801, w: 0.61529386}
  - {x: -10.627405, y: 23.095057, z: -83.18302, w: 0.5364302}
  - {x: -10.879279, y: 23.15182, z: -82.78444, w: 0.5408799}
  - {x: -10.625917, y: 23.201077, z: -82.3438, w: 0.676476}
  - {x: -10.80002, y: 23.201077, z: -81.951584, w: 0.84799296}
  - {x: -10.6006775, y: 23.201077, z: -81.25891, w: 0.7567717}
  - {x: -10.781172, y: 23.201077, z: -80.74896, w: 0.5142079}
  - {x: -10.5211315, y: 23.201077, z: -80.2585, w: 0.7418959}
  - {x: -10.683197, y: 23.201073, z: -79.73311, w: 0.9847376}
  - {x: -10.503416, y: 23.201075, z: -79.139206, w: 0.51907796}
  - {x: -10.860941, y: 23.201073, z: -78.76777, w: 0.6008085}
  - {x: -10.714804, y: 23.201075, z: -78.45834, w: 0.78621066}
  - {x: -10.533203, y: 23.201075, z: -77.755615, w: 0.65082085}
  - {x: -10.660767, y: 23.201075, z: -77.2199, w: 0.7408688}
  - {x: -10.788271, y: 23.201075, z: -76.77918, w: 0.7017}
  - {x: -10.601948, y: 23.201075, z: -76.30626, w: 0.74735296}
  - {x: -10.7136, y: 23.201075, z: -75.54574, w: 0.77356815}
  - {x: -10.614099, y: 23.201075, z: -75.17447, w: 0.86436164}
  - {x: -10.530565, y: 23.201075, z: -74.72744, w: 0.5138016}
  - {x: -10.713836, y: 23.201075, z: -74.30721, w: 0.8584886}
  - {x: -10.857412, y: 23.201075, z: -73.678055, w: 0.87056047}
  - {x: -10.677031, y: 23.201075, z: -73.16548, w: 0.51017684}
  - {x: -10.638131, y: 23.10361, z: -72.800285, w: 0.9912279}
  - {x: -10.213181, y: 23.027596, z: -83.76638, w: 0.50249535}
  - {x: -10.174599, y: 23.201075, z: -83.2285, w: 0.5631551}
  - {x: -10.009326, y: 23.201077, z: -82.70447, w: 0.7147682}
  - {x: -10.201728, y: 23.201077, z: -82.092926, w: 0.94591284}
  - {x: -10.28409, y: 23.201077, z: -81.706436, w: 0.7394788}
  - {x: -10.434234, y: 23.201077, z: -81.272354, w: 0.5463849}
  - {x: -10.032859, y: 23.201077, z: -80.62257, w: 0.8187313}
  - {x: -9.97078, y: 23.201077, z: -80.24733, w: 0.7275864}
  - {x: -10.257601, y: 23.201075, z: -79.8961, w: 0.99895054}
  - {x: -10.3841715, y: 23.201075, z: -79.32761, w: 0.76955545}
  - {x: -10.131693, y: 23.201075, z: -78.63893, w: 0.9958939}
  - {x: -10.200231, y: 23.201073, z: -78.466805, w: 0.53818077}
  - {x: -10.177401, y: 23.201075, z: -77.55125, w: 0.86920947}
  - {x: -10.083492, y: 23.201075, z: -77.09215, w: 0.9901949}
  - {x: -10.200631, y: 23.201075, z: -76.58508, w: 0.5382512}
  - {x: -10.208361, y: 23.201075, z: -76.08464, w: 0.75030005}
  - {x: -10.204163, y: 23.201075, z: -75.553375, w: 0.50361174}
  - {x: -10.306126, y: 23.201075, z: -75.22641, w: 0.8509775}
  - {x: -10.333048, y: 23.201075, z: -74.73891, w: 0.9430487}
  - {x: -10.382898, y: 23.201073, z: -74.12462, w: 0.8943484}
  - {x: -10.157585, y: 23.201075, z: -73.78746, w: 0.95675087}
  - {x: -10.181784, y: 23.180618, z: -73.370094, w: 0.57578033}
  - {x: -9.689625, y: 23.201077, z: -83.50123, w: 0.9929363}
  - {x: -9.4641695, y: 23.201077, z: -83.23946, w: 0.62343246}
  - {x: -9.746357, y: 23.201077, z: -82.59434, w: 0.8398559}
  - {x: -9.574921, y: 23.201077, z: -82.08103, w: 0.9116421}
  - {x: -9.67527, y: 23.201077, z: -81.82198, w: 0.67057836}
  - {x: -9.485121, y: 23.201077, z: -81.23613, w: 0.886056}
  - {x: -9.776608, y: 23.201077, z: -80.7758, w: 0.7317796}
  - {x: -9.677092, y: 23.201077, z: -80.244446, w: 0.7371644}
  - {x: -9.957082, y: 23.201073, z: -79.75644, w: 0.5363037}
  - {x: -9.837589, y: 23.201075, z: -79.23462, w: 0.8701831}
  - {x: -9.72976, y: 23.201075, z: -78.72638, w: 0.6222248}
  - {x: -9.59109, y: 23.201075, z: -78.222626, w: 0.6057594}
  - {x: -9.743991, y: 23.201075, z: -77.64875, w: 0.6741338}
  - {x: -9.624458, y: 23.201075, z: -77.28268, w: 0.6041884}
  - {x: -9.760189, y: 23.201075, z: -76.72761, w: 0.77992594}
  - {x: -9.638048, y: 23.201075, z: -76.37748, w: 0.9816052}
  - {x: -9.619677, y: 23.201075, z: -75.79424, w: 0.5743168}
  - {x: -9.623518, y: 23.201073, z: -75.0141, w: 0.96240497}
  - {x: -9.679206, y: 23.201075, z: -74.59018, w: 0.61140215}
  - {x: -9.504316, y: 23.201075, z: -74.15701, w: 0.53187686}
  - {x: -9.716105, y: 23.201075, z: -73.96848, w: 0.6971388}
  - {x: -9.872837, y: 23.113367, z: -73.3164, w: 0.9186289}
  - {x: -9.14532, y: 23.141647, z: -84.468025, w: 0.8001083}
  - {x: -9.326049, y: 23.201077, z: -83.80077, w: 0.5313709}
  - {x: -9.244538, y: 23.201077, z: -83.14838, w: 0.7945975}
  - {x: -9.164154, y: 23.201077, z: -82.61895, w: 0.8219659}
  - {x: -9.172503, y: 23.201077, z: -82.14471, w: 0.54623044}
  - {x: -9.027338, y: 23.201077, z: -81.6844, w: 0.57833284}
  - {x: -9.153823, y: 23.201077, z: -81.19728, w: 0.9574646}
  - {x: -9.151132, y: 23.201077, z: -80.81793, w: 0.8516032}
  - {x: -9.221632, y: 23.201077, z: -80.36301, w: 0.65605843}
  - {x: -9.350463, y: 23.201075, z: -79.67885, w: 0.8181892}
  - {x: -9.400381, y: 23.201075, z: -79.22418, w: 0.74556756}
  - {x: -9.131742, y: 23.201075, z: -78.70065, w: 0.93488103}
  - {x: -9.210195, y: 23.201075, z: -78.12115, w: 0.97883207}
  - {x: -9.3775425, y: 23.201075, z: -77.70452, w: 0.6201949}
  - {x: -9.0438595, y: 23.201075, z: -77.23316, w: 0.8592962}
  - {x: -9.364999, y: 23.201075, z: -76.76503, w: 0.5761929}
  - {x: -9.200725, y: 23.201075, z: -76.27984, w: 0.8055475}
  - {x: -9.184828, y: 23.201075, z: -75.792305, w: 0.79507446}
  - {x: -9.154264, y: 23.201075, z: -75.30696, w: 0.79593885}
  - {x: -9.075134, y: 23.201075, z: -74.74789, w: 0.5967741}
  - {x: -9.202213, y: 23.071066, z: -73.74976, w: 0.6879673}
  - {x: -8.74675, y: 23.170826, z: -84.76722, w: 0.5584058}
  - {x: -8.509211, y: 23.201077, z: -84.33851, w: 0.8974637}
  - {x: -8.559444, y: 23.201077, z: -83.67984, w: 0.66488934}
  - {x: -8.775007, y: 23.201077, z: -83.06842, w: 0.92175657}
  - {x: -8.688655, y: 23.201077, z: -82.78259, w: 0.6929494}
  - {x: -8.589452, y: 23.201077, z: -82.35514, w: 0.9400286}
  - {x: -8.615287, y: 23.201077, z: -81.65834, w: 0.839852}
  - {x: -8.816512, y: 23.201077, z: -81.234474, w: 0.7939081}
  - {x: -8.641515, y: 23.201077, z: -80.813095, w: 0.9718195}
  - {x: -8.70836, y: 23.201077, z: -80.3333, w: 0.6449748}
  - {x: -8.680923, y: 23.201075, z: -79.71124, w: 0.96719843}
  - {x: -8.810291, y: 23.201075, z: -79.25932, w: 0.52582955}
  - {x: -8.721592, y: 23.201075, z: -78.73444, w: 0.8348701}
  - {x: -8.719467, y: 23.201075, z: -78.36184, w: 0.58179814}
  - {x: -8.834153, y: 23.201075, z: -77.760284, w: 0.6592449}
  - {x: -8.788996, y: 23.201075, z: -77.21943, w: 0.5605581}
  - {x: -8.632585, y: 23.201075, z: -76.895676, w: 0.71470857}
  - {x: -8.839564, y: 23.201075, z: -76.24475, w: 0.61635226}
  - {x: -8.6235695, y: 23.201075, z: -75.789345, w: 0.83263147}
  - {x: -8.712394, y: 23.201075, z: -75.24809, w: 0.87825614}
  - {x: -8.726912, y: 23.196852, z: -74.8831, w: 0.6549485}
  - {x: -8.786323, y: 23.070625, z: -74.155334, w: 0.85611266}
  - {x: -8.190737, y: 23.201077, z: -85.07375, w: 0.6048815}
  - {x: -8.309967, y: 23.201077, z: -84.65054, w: 0.9350835}
  - {x: -8.115561, y: 23.201077, z: -84.384834, w: 0.81494683}
  - {x: -8.1329155, y: 23.201077, z: -83.70644, w: 0.843873}
  - {x: -8.260229, y: 23.201077, z: -83.296844, w: 0.6784667}
  - {x: -8.293121, y: 23.201077, z: -82.53886, w: 0.9967168}
  - {x: -8.145565, y: 23.201077, z: -81.998566, w: 0.6818861}
  - {x: -8.125461, y: 23.201077, z: -81.77561, w: 0.9490192}
  - {x: -8.212977, y: 23.201077, z: -81.19406, w: 0.917927}
  - {x: -8.201889, y: 23.201077, z: -80.75085, w: 0.73961294}
  - {x: -8.22805, y: 23.201075, z: -80.02774, w: 0.952636}
  - {x: -8.187551, y: 23.201075, z: -79.957214, w: 0.81851554}
  - {x: -8.194933, y: 23.201075, z: -79.44356, w: 0.6112957}
  - {x: -8.233814, y: 23.201075, z: -78.83249, w: 0.521943}
  - {x: -8.257566, y: 23.201075, z: -78.27784, w: 0.51290494}
  - {x: -8.065416, y: 23.201075, z: -77.851776, w: 0.86167264}
  - {x: -8.225328, y: 23.201075, z: -77.45914, w: 0.8224279}
  - {x: -8.27383, y: 23.201075, z: -76.60772, w: 0.5453548}
  - {x: -8.1849785, y: 23.201075, z: -76.35852, w: 0.9584924}
  - {x: -8.215967, y: 23.201075, z: -75.65969, w: 0.674374}
  - {x: -8.396335, y: 23.200417, z: -75.22624, w: 0.5925645}
  - {x: -8.181116, y: 23.073523, z: -74.76425, w: 0.64923584}
  - {x: -7.7551503, y: 23.201077, z: -85.14469, w: 0.5760634}
  - {x: -7.647568, y: 23.201077, z: -84.74927, w: 0.8799801}
  - {x: -7.602153, y: 23.201077, z: -84.3253, w: 0.7503377}
  - {x: -7.6445866, y: 23.201077, z: -83.96634, w: 0.7039435}
  - {x: -7.765784, y: 23.201077, z: -83.23259, w: 0.51630294}
  - {x: -7.860241, y: 23.201077, z: -82.59804, w: 0.8841625}
  - {x: -7.539399, y: 23.201077, z: -82.099075, w: 0.5338142}
  - {x: -7.601735, y: 23.201077, z: -81.61665, w: 0.85743266}
  - {x: -7.744596, y: 23.201075, z: -81.325806, w: 0.5712725}
  - {x: -7.673822, y: 23.201077, z: -80.52324, w: 0.60558695}
  - {x: -7.71336, y: 23.201075, z: -80.02301, w: 0.7148876}
  - {x: -7.7132916, y: 23.201075, z: -79.49311, w: 0.8689801}
  - {x: -7.5728793, y: 23.201075, z: -79.14952, w: 0.9353201}
  - {x: -7.842761, y: 23.201075, z: -78.872406, w: 0.98701817}
  - {x: -7.789233, y: 23.201075, z: -78.08476, w: 0.9256271}
  - {x: -7.7308764, y: 23.201075, z: -77.923454, w: 0.82862765}
  - {x: -7.6411147, y: 23.201075, z: -77.37839, w: 0.6373881}
  - {x: -7.838205, y: 23.201075, z: -76.57658, w: 0.5500159}
  - {x: -7.706852, y: 23.201075, z: -76.08406, w: 0.7765335}
  - {x: -7.945371, y: 23.201075, z: -75.73491, w: 0.59060055}
  - {x: -7.1241364, y: 23.201077, z: -85.63384, w: 0.7543942}
  - {x: -7.22896, y: 23.201077, z: -85.0318, w: 0.8026917}
  - {x: -7.198486, y: 23.201077, z: -84.654045, w: 0.920272}
  - {x: -7.279476, y: 23.201077, z: -84.25103, w: 0.7925222}
  - {x: -7.216647, y: 23.201077, z: -83.86141, w: 0.8285358}
  - {x: -7.0687156, y: 23.201075, z: -83.231255, w: 0.8666735}
  - {x: -7.023166, y: 23.201077, z: -82.738205, w: 0.67206407}
  - {x: -7.3098145, y: 23.201077, z: -82.240364, w: 0.93744665}
  - {x: -7.047264, y: 23.201077, z: -81.8008, w: 0.6530125}
  - {x: -7.1885047, y: 23.201077, z: -81.07226, w: 0.62605846}
  - {x: -7.2843895, y: 23.201077, z: -80.77898, w: 0.8909413}
  - {x: -7.2368455, y: 23.201075, z: -80.05815, w: 0.9058875}
  - {x: -7.069099, y: 23.201073, z: -79.77602, w: 0.606089}
  - {x: -7.257028, y: 23.201075, z: -79.21483, w: 0.52778774}
  - {x: -7.1969533, y: 23.201075, z: -78.5494, w: 0.97462374}
  - {x: -7.1610446, y: 23.201075, z: -78.23938, w: 0.96547925}
  - {x: -7.093151, y: 23.201075, z: -77.73684, w: 0.88655776}
  - {x: -7.1960626, y: 23.201075, z: -77.07864, w: 0.69281995}
  - {x: -7.2144885, y: 23.201075, z: -76.78609, w: 0.71958566}
  - {x: -7.1074452, y: 23.157448, z: -76.26243, w: 0.6566019}
  - {x: -7.0169654, y: 23.05676, z: -75.81712, w: 0.6804832}
  - {x: -6.6103754, y: 23.14306, z: -85.77153, w: 0.5784029}
  - {x: -6.4805784, y: 23.201077, z: -85.29315, w: 0.7815238}
  - {x: -6.7057323, y: 23.201077, z: -84.491005, w: 0.62926054}
  - {x: -6.672721, y: 23.201077, z: -84.23975, w: 0.66251194}
  - {x: -6.767871, y: 23.201077, z: -83.63059, w: 0.5789101}
  - {x: -6.6645093, y: 23.201077, z: -83.04555, w: 0.8494345}
  - {x: -6.868873, y: 23.201077, z: -82.77454, w: 0.97735184}
  - {x: -6.7091336, y: 23.201077, z: -82.23187, w: 0.9699246}
  - {x: -6.7809434, y: 23.201077, z: -81.72451, w: 0.85450304}
  - {x: -6.7508597, y: 23.201077, z: -81.27669, w: 0.9160784}
  - {x: -6.7400784, y: 23.201077, z: -80.76933, w: 0.88105774}
  - {x: -6.6658792, y: 23.201077, z: -80.191376, w: 0.97288054}
  - {x: -6.7074156, y: 23.201075, z: -79.72612, w: 0.5963244}
  - {x: -6.6940947, y: 23.201075, z: -79.27333, w: 0.63697505}
  - {x: -6.795264, y: 23.201075, z: -78.72756, w: 0.8766234}
  - {x: -6.792913, y: 23.201075, z: -78.18165, w: 0.9156621}
  - {x: -6.791593, y: 23.201075, z: -77.60403, w: 0.5083795}
  - {x: -6.7189403, y: 23.201075, z: -77.241585, w: 0.7455796}
  - {x: -6.944705, y: 23.201075, z: -76.68829, w: 0.7894685}
  - {x: -6.7129498, y: 23.124758, z: -76.475945, w: 0.9666099}
  - {x: -6.7573586, y: 23.03424, z: -75.952286, w: 0.72721696}
  - {x: -6.2109957, y: 23.201077, z: -85.68365, w: 0.9307218}
  - {x: -6.2346845, y: 23.201077, z: -85.03826, w: 0.53795457}
  - {x: -6.149808, y: 23.201077, z: -84.55989, w: 0.87624645}
  - {x: -6.184105, y: 23.201077, z: -84.26759, w: 0.5100396}
  - {x: -6.163579, y: 23.201077, z: -83.79569, w: 0.77704394}
  - {x: -6.220872, y: 23.201077, z: -83.17561, w: 0.52443343}
  - {x: -6.0165153, y: 23.201077, z: -82.76901, w: 0.83428127}
  - {x: -6.4448733, y: 23.201077, z: -82.30363, w: 0.9969305}
  - {x: -6.157889, y: 23.201077, z: -81.75959, w: 0.9187489}
  - {x: -6.158325, y: 23.201077, z: -81.26967, w: 0.6280149}
  - {x: -6.195732, y: 23.201077, z: -80.6857, w: 0.5357009}
  - {x: -6.019895, y: 23.201077, z: -80.23581, w: 0.83379364}
  - {x: -6.074991, y: 23.201075, z: -79.80194, w: 0.6336566}
  - {x: -6.4290247, y: 23.201075, z: -79.25554, w: 0.7003652}
  - {x: -6.3717694, y: 23.201075, z: -78.85219, w: 0.57388407}
  - {x: -6.2591944, y: 23.201075, z: -78.10675, w: 0.6181545}
  - {x: -6.0961523, y: 23.201075, z: -77.68904, w: 0.98242635}
  - {x: -6.183452, y: 23.200064, z: -77.3947, w: 0.97726923}
  - {x: -6.1362767, y: 23.078732, z: -76.79741, w: 0.9180324}
  - {x: -6.1358223, y: 22.972324, z: -76.23348, w: 0.97580045}
  - {x: -5.7329364, y: 23.201077, z: -85.61064, w: 0.65589976}
  - {x: -5.8443403, y: 23.201077, z: -85.373985, w: 0.93074906}
  - {x: -5.7239475, y: 23.201077, z: -84.7702, w: 0.7492931}
  - {x: -5.6320033, y: 23.201077, z: -84.124626, w: 0.8004024}
  - {x: -5.875456, y: 23.201075, z: -83.641685, w: 0.5588345}
  - {x: -5.7114844, y: 23.201077, z: -83.17171, w: 0.9281529}
  - {x: -5.4881, y: 23.201077, z: -82.718376, w: 0.9066102}
  - {x: -5.7096734, y: 23.201077, z: -82.407715, w: 0.7887609}
  - {x: -5.583366, y: 23.201075, z: -81.83199, w: 0.8719686}
  - {x: -5.8113475, y: 23.201077, z: -81.23419, w: 0.72808313}
  - {x: -5.672018, y: 23.201077, z: -80.710175, w: 0.6502377}
  - {x: -5.728211, y: 23.201075, z: -80.125244, w: 0.6170343}
  - {x: -5.579571, y: 23.201075, z: -79.7484, w: 0.7927135}
  - {x: -5.6871204, y: 23.201075, z: -79.407486, w: 0.838219}
  - {x: -5.680217, y: 23.201075, z: -78.827965, w: 0.7996906}
  - {x: -5.582473, y: 23.201075, z: -78.328316, w: 0.63592696}
  - {x: -5.6326756, y: 23.16305, z: -77.694435, w: 0.7059814}
  - {x: -5.566978, y: 23.055185, z: -77.23665, w: 0.68933785}
  - {x: -5.8962646, y: 22.92522, z: -76.218575, w: 0.5175141}
  - {x: -5.276704, y: 23.201077, z: -85.75621, w: 0.83486885}
  - {x: -5.038719, y: 23.201077, z: -85.195404, w: 0.74587595}
  - {x: -5.214237, y: 23.201077, z: -84.71068, w: 0.5757556}
  - {x: -5.381819, y: 23.201077, z: -84.28369, w: 0.54358244}
  - {x: -5.1471887, y: 23.201077, z: -83.74521, w: 0.8073541}
  - {x: -5.435351, y: 23.201077, z: -83.23123, w: 0.99283886}
  - {x: -5.311559, y: 23.201077, z: -82.62228, w: 0.9751928}
  - {x: -5.2082844, y: 23.201077, z: -82.435455, w: 0.50800055}
  - {x: -5.212644, y: 23.201077, z: -81.568665, w: 0.97114015}
  - {x: -5.229183, y: 23.201077, z: -81.193954, w: 0.5896543}
  - {x: -5.185829, y: 23.201077, z: -80.84411, w: 0.5870918}
  - {x: -5.105662, y: 23.201077, z: -80.213104, w: 0.8211673}
  - {x: -5.2248063, y: 23.201075, z: -79.60299, w: 0.9890565}
  - {x: -5.259262, y: 23.201075, z: -79.35947, w: 0.9511521}
  - {x: -5.1454134, y: 23.201075, z: -78.63698, w: 0.94255495}
  - {x: -5.299563, y: 23.201075, z: -78.31058, w: 0.6789142}
  - {x: -5.0219913, y: 23.055485, z: -77.73305, w: 0.7595384}
  - {x: -5.348955, y: 23.02097, z: -77.27174, w: 0.71099985}
  - {x: -4.8175178, y: 23.115557, z: -85.923965, w: 0.71592927}
  - {x: -4.6126175, y: 23.201077, z: -85.32811, w: 0.9385289}
  - {x: -4.604616, y: 23.201077, z: -84.65964, w: 0.76377356}
  - {x: -4.7096677, y: 23.201077, z: -84.213684, w: 0.989096}
  - {x: -4.7165055, y: 23.201077, z: -83.65058, w: 0.9819394}
  - {x: -4.8068066, y: 23.201077, z: -83.243805, w: 0.62581336}
  - {x: -4.729357, y: 23.201077, z: -82.80639, w: 0.50607836}
  - {x: -4.768821, y: 23.201077, z: -82.12792, w: 0.86628324}
  - {x: -4.7217913, y: 23.201077, z: -81.83445, w: 0.58527184}
  - {x: -4.6773186, y: 23.201077, z: -81.3291, w: 0.77157104}
  - {x: -4.481498, y: 23.201077, z: -80.69794, w: 0.71162736}
  - {x: -4.693534, y: 23.201077, z: -80.35898, w: 0.6519201}
  - {x: -4.851588, y: 23.201075, z: -79.869385, w: 0.53366154}
  - {x: -4.8097587, y: 23.201075, z: -79.27813, w: 0.62708795}
  - {x: -4.6521435, y: 23.201075, z: -78.737045, w: 0.63577116}
  - {x: -4.5604496, y: 23.081284, z: -78.196106, w: 0.5890349}
  - {x: -4.807185, y: 23.017668, z: -77.74669, w: 0.71475923}
  - {x: -4.761473, y: 22.893744, z: -77.18015, w: 0.53396374}
  - {x: -3.9999676, y: 23.201077, z: -85.233154, w: 0.96528476}
  - {x: -4.378811, y: 23.201077, z: -84.651825, w: 0.81152177}
  - {x: -4.1925106, y: 23.201077, z: -84.13494, w: 0.74352825}
  - {x: -4.297062, y: 23.201077, z: -83.8562, w: 0.8997172}
  - {x: -4.199402, y: 23.201077, z: -83.131836, w: 0.93531305}
  - {x: -4.1469383, y: 23.201077, z: -82.82373, w: 0.8710243}
  - {x: -4.163327, y: 23.201077, z: -82.22189, w: 0.6556499}
  - {x: -4.3437204, y: 23.201077, z: -81.76947, w: 0.8128716}
  - {x: -4.115594, y: 23.201077, z: -81.34163, w: 0.8960052}
  - {x: -4.2034235, y: 23.201077, z: -80.70943, w: 0.69542086}
  - {x: -4.2092667, y: 23.201077, z: -80.33707, w: 0.6984682}
  - {x: -4.1592255, y: 23.201075, z: -79.649994, w: 0.9492774}
  - {x: -4.2105007, y: 23.201075, z: -79.174286, w: 0.70811594}
  - {x: -4.134451, y: 23.150612, z: -78.807915, w: 0.9435393}
  - {x: -4.370865, y: 23.045525, z: -78.19849, w: 0.6247784}
  - {x: -4.017454, y: 22.871935, z: -77.769745, w: 0.522133}
  - {x: -4.1343384, y: 22.762901, z: -77.1088, w: 0.9172824}
  - {x: -3.819645, y: 23.201077, z: -85.86334, w: 0.80945206}
  - {x: -3.714263, y: 23.201077, z: -85.40322, w: 0.5315405}
  - {x: -3.7171135, y: 23.201077, z: -84.6367, w: 0.6871979}
  - {x: -3.8134184, y: 23.201077, z: -84.29128, w: 0.69883835}
  - {x: -3.766447, y: 23.201077, z: -83.93655, w: 0.9636049}
  - {x: -3.6704578, y: 23.201077, z: -83.46057, w: 0.7752075}
  - {x: -3.8741446, y: 23.201077, z: -82.71448, w: 0.8827501}
  - {x: -3.864808, y: 23.201077, z: -82.2532, w: 0.5216349}
  - {x: -3.7227898, y: 23.201077, z: -81.74436, w: 0.5147287}
  - {x: -3.7662735, y: 23.201077, z: -81.34739, w: 0.9787198}
  - {x: -3.6646338, y: 23.201077, z: -80.70216, w: 0.69345737}
  - {x: -3.7888126, y: 23.201077, z: -80.17346, w: 0.76044023}
  - {x: -3.884036, y: 23.201075, z: -79.77443, w: 0.90575075}
  - {x: -3.8715963, y: 23.201075, z: -79.2228, w: 0.56551844}
  - {x: -3.6441002, y: 23.035933, z: -78.72421, w: 0.84795773}
  - {x: -3.5417728, y: 22.91337, z: -78.30715, w: 0.5632195}
  - {x: -3.7003555, y: 22.77385, z: -77.59895, w: 0.7530986}
  - {x: -3.7917776, y: 22.745396, z: -77.356705, w: 0.92870533}
  - {x: -3.0036983, y: 23.201077, z: -85.2659, w: 0.7359344}
  - {x: -3.01861, y: 23.201077, z: -84.75292, w: 0.87743485}
  - {x: -3.2330084, y: 23.201077, z: -84.34967, w: 0.53048533}
  - {x: -3.3312273, y: 23.201077, z: -83.60237, w: 0.565982}
  - {x: -3.207675, y: 23.201077, z: -83.339066, w: 0.510159}
  - {x: -3.1146765, y: 23.201077, z: -82.7141, w: 0.82640994}
  - {x: -3.044712, y: 23.201077, z: -82.23409, w: 0.6998111}
  - {x: -3.0730267, y: 23.201077, z: -81.77084, w: 0.70469606}
  - {x: -3.1759186, y: 23.201077, z: -81.195175, w: 0.7612356}
  - {x: -3.0199966, y: 23.201077, z: -80.73009, w: 0.57074666}
  - {x: -3.2077007, y: 23.201075, z: -80.03084, w: 0.89703405}
  - {x: -3.3354998, y: 23.201075, z: -79.78635, w: 0.5973571}
  - {x: -3.1889334, y: 23.100672, z: -79.340096, w: 0.6581867}
  - {x: -3.0076694, y: 22.91693, z: -78.736465, w: 0.8189644}
  - {x: -3.2706194, y: 22.874975, z: -78.36223, w: 0.8280584}
  - {x: -2.9817038, y: 22.671824, z: -77.763596, w: 0.9835424}
  - {x: -2.6904488, y: 23.201077, z: -84.83345, w: 0.5122006}
  - {x: -2.6578379, y: 23.201077, z: -84.10657, w: 0.5584613}
  - {x: -2.7569876, y: 23.201075, z: -83.59564, w: 0.70553386}
  - {x: -2.8745375, y: 23.201077, z: -83.34407, w: 0.6332605}
  - {x: -2.7134562, y: 23.201077, z: -82.72269, w: 0.6045067}
  - {x: -2.7866468, y: 23.201077, z: -82.22804, w: 0.902445}
  - {x: -2.764495, y: 23.201077, z: -81.56557, w: 0.5747872}
  - {x: -2.6373167, y: 23.201077, z: -81.27415, w: 0.9028527}
  - {x: -2.5043707, y: 23.201077, z: -80.78134, w: 0.7789751}
  - {x: -2.6373854, y: 23.201077, z: -80.26678, w: 0.55944735}
  - {x: -2.536273, y: 23.036707, z: -79.58794, w: 0.6373508}
  - {x: -2.8064651, y: 22.962902, z: -79.079025, w: 0.77828336}
  - {x: -2.8292818, y: 22.874311, z: -78.70238, w: 0.8791235}
  - {x: -2.6233044, y: 22.725613, z: -78.25993, w: 0.7485167}
  - {x: -2.1682987, y: 23.201077, z: -84.75993, w: 0.796962}
  - {x: -2.1699286, y: 23.201077, z: -84.38826, w: 0.83438945}
  - {x: -2.1263208, y: 23.201077, z: -83.73414, w: 0.94120914}
  - {x: -2.241394, y: 23.201075, z: -83.31088, w: 0.5898124}
  - {x: -2.3718395, y: 23.201077, z: -82.69253, w: 0.8714272}
  - {x: -2.2781057, y: 23.201077, z: -82.2423, w: 0.5323427}
  - {x: -2.2963305, y: 23.201077, z: -81.64468, w: 0.6580676}
  - {x: -2.1864977, y: 23.201077, z: -81.23063, w: 0.52711964}
  - {x: -2.1844444, y: 23.201077, z: -80.78263, w: 0.78059983}
  - {x: -2.200573, y: 23.162714, z: -80.35923, w: 0.6849427}
  - {x: -2.3114004, y: 23.008799, z: -79.64955, w: 0.66727114}
  - {x: -2.131156, y: 22.84736, z: -79.1355, w: 0.56506944}
  - {x: -2.2811308, y: 22.734053, z: -78.559944, w: 0.94958687}
  - {x: -2.1966934, y: 22.683792, z: -78.42191, w: 0.5332661}
  - {x: -1.6016226, y: 23.201077, z: -84.20621, w: 0.6204277}
  - {x: -1.6579466, y: 23.201077, z: -83.9221, w: 0.5257665}
  - {x: -1.7473993, y: 23.201077, z: -83.22681, w: 0.9229304}
  - {x: -1.766552, y: 23.201077, z: -82.94599, w: 0.8416413}
  - {x: -1.81738, y: 23.201077, z: -82.229164, w: 0.8956699}
  - {x: -1.6341133, y: 23.201077, z: -81.708405, w: 0.631217}
  - {x: -1.7624884, y: 23.201077, z: -81.176254, w: 0.92482686}
  - {x: -1.7111874, y: 23.179155, z: -80.6055, w: 0.8364645}
  - {x: -1.7314043, y: 23.028492, z: -80.09854, w: 0.7310629}
  - {x: -1.6836767, y: 22.906029, z: -79.69963, w: 0.86071306}
  - {x: -1.7297878, y: 22.790741, z: -79.21791, w: 0.64237916}
  - {x: -1.7143602, y: 22.664524, z: -78.71854, w: 0.92899364}
  - {x: -1.2310524, y: 23.201077, z: -83.782364, w: 0.86891526}
  - {x: -1.2241306, y: 23.201077, z: -83.37643, w: 0.7745563}
  - {x: -1.0291986, y: 23.201077, z: -82.80488, w: 0.8228957}
  - {x: -1.2359934, y: 23.201075, z: -82.312904, w: 0.7918694}
  - {x: -1.1553078, y: 23.201077, z: -81.85805, w: 0.8704924}
  - {x: -1.3820848, y: 23.201077, z: -81.184616, w: 0.6602255}
  - {x: -1.2921009, y: 23.191528, z: -80.73282, w: 0.79095244}
  - {x: -1.1185112, y: 23.024498, z: -80.21101, w: 0.89527285}
  - {x: -1.2045288, y: 22.903152, z: -79.78841, w: 0.77283835}
  - {x: -1.3269835, y: 22.744251, z: -79.23297, w: 0.7169951}
  - {x: -0.7010031, y: 23.201077, z: -83.8852, w: 0.7352593}
  - {x: -0.6415968, y: 23.201077, z: -83.42082, w: 0.8852695}
  - {x: -0.7391939, y: 23.201077, z: -82.84569, w: 0.8774411}
  - {x: -0.71172905, y: 23.201077, z: -82.30463, w: 0.8720289}
  - {x: -0.7495527, y: 23.201077, z: -81.786026, w: 0.5070339}
  - {x: -0.60528564, y: 23.201077, z: -81.2332, w: 0.5534822}
  - {x: -0.6468067, y: 23.187803, z: -80.85286, w: 0.9038545}
  - {x: -0.71328545, y: 23.003904, z: -80.22549, w: 0.70763016}
  - {x: -0.5987406, y: 22.85443, z: -79.75016, w: 0.9329407}
  - {x: -0.84217644, y: 22.767282, z: -79.40935, w: 0.8257882}
  - {x: -0.2850914, y: 23.201077, z: -83.16028, w: 0.71659744}
  - {x: -0.04759407, y: 23.201077, z: -82.73226, w: 0.8327969}
  - {x: -0.25837326, y: 23.201077, z: -82.36592, w: 0.619976}
  - {x: -0.17414856, y: 23.201077, z: -81.54268, w: 0.6363931}
  - {x: -0.34787178, y: 23.201077, z: -81.20691, w: 0.87628293}
  - {x: -0.3108282, y: 23.106813, z: -80.65155, w: 0.729895}
  - {x: -0.23567963, y: 22.951136, z: -80.14744, w: 0.8736005}
  - {x: -0.21734619, y: 22.780315, z: -79.581116, w: 0.86357397}
  - {x: 0.48253918, y: 23.201077, z: -82.76677, w: 0.74457014}
  - {x: 0.34668064, y: 23.201077, z: -82.25448, w: 0.9332294}
  - {x: 0.41827583, y: 23.201077, z: -81.775696, w: 0.90355074}
  - {x: 0.37462807, y: 23.201077, z: -81.18422, w: 0.7410929}
  - {x: 0.26859283, y: 23.105602, z: -80.76646, w: 0.97585714}
  - {x: 0.25024414, y: 22.93861, z: -80.205376, w: 0.88657737}
  - {x: 0.16181374, y: 22.803633, z: -79.73677, w: 0.7848195}
  - {x: 0.90614986, y: 23.201077, z: -82.836105, w: 0.539541}
  - {x: 0.8022375, y: 23.201077, z: -82.03979, w: 0.9708199}
  - {x: 0.7350378, y: 23.201077, z: -81.875534, w: 0.7752731}
  - {x: 0.6931925, y: 23.201077, z: -81.26544, w: 0.8046477}
  - {x: 0.8051939, y: 23.06421, z: -80.73848, w: 0.6090106}
  - {x: 0.8233938, y: 22.92793, z: -80.28741, w: 0.9121711}
  - {x: 1.4707594, y: 23.201077, z: -82.24962, w: 0.7684418}
  - {x: 1.4552021, y: 23.201077, z: -81.73442, w: 0.60703677}
  - {x: 1.2176523, y: 23.187134, z: -81.23338, w: 0.68443596}
  - {x: 1.2086735, y: 23.02755, z: -80.69897, w: 0.6764815}
  - {x: 1.7029762, y: 23.201077, z: -81.832344, w: 0.52965987}
  - {x: 1.7857761, y: 23.090971, z: -81.0291, w: 0.8150761}
  - {x: 1.7912216, y: 23.030695, z: -80.829056, w: 0.5328602}
  - {x: 2.3795614, y: 23.201077, z: -81.83582, w: 0.99869484}
  - {x: 2.3119087, y: 23.155098, z: -81.35111, w: 0.5559198}
  - {x: 2.0679026, y: 22.981798, z: -80.78848, w: 0.6600889}
  - {x: 2.9574032, y: 22.965818, z: -81.221756, w: 0.5015546}
