%YAML 1.1
%TAG !u! tag:unity3d.com,2011:
--- !u!114 &11400000
MonoBehaviour:
  m_ObjectHideFlags: 0
  m_PrefabParentObject: {fileID: 0}
  m_PrefabInternal: {fileID: 0}
  m_GameObject: {fileID: 0}
  m_Enabled: 1
  m_EditorHideFlags: 0
  m_Script: {fileID: 11500000, guid: 440bad29e1c6cfd44a8d00451851d4fb, type: 3}
  m_Name: H1_Altura1_3_Points
  m_EditorClassIdentifier: 
  pointsList:
  - {x: 16.882, y: 1.442598, z: 23.185905, w: 0.9063006}
  - {x: 16.877522, y: 1.4593111, z: 23.599054, w: 0.7113533}
  - {x: 16.856812, y: 1.4591677, z: 24.501865, w: 0.8670817}
  - {x: 17.00707, y: 1.4621437, z: 25.655212, w: 0.52153367}
  - {x: 16.844421, y: 1.454494, z: 26.359568, w: 0.92752266}
  - {x: 16.968155, y: 1.4556627, z: 26.989815, w: 0.5801848}
  - {x: 17.76816, y: 1.4577811, z: 22.372938, w: 0.93157214}
  - {x: 17.739548, y: 1.4672939, z: 22.874622, w: 0.60009813}
  - {x: 17.646471, y: 1.4851056, z: 23.638775, w: 0.8216263}
  - {x: 17.697098, y: 1.4841572, z: 24.818722, w: 0.6155517}
  - {x: 17.950424, y: 1.4902991, z: 25.506279, w: 0.98156655}
  - {x: 17.958683, y: 1.4879246, z: 26.300392, w: 0.8896228}
  - {x: 17.768745, y: 1.4788047, z: 27.17722, w: 0.91117465}
  - {x: 17.904518, y: 1.479134, z: 27.943354, w: 0.6584625}
  - {x: 17.806969, y: 1.4690835, z: 28.836414, w: 0.9532769}
  - {x: 18.38165, y: 1.4810071, z: 23.12217, w: 0.65190566}
  - {x: 18.359232, y: 1.5000011, z: 23.8028, w: 0.6118487}
  - {x: 18.822792, y: 1.500001, z: 24.787004, w: 0.80682516}
  - {x: 18.401455, y: 1.5000008, z: 25.525333, w: 0.75787616}
  - {x: 18.624372, y: 1.5000005, z: 26.49292, w: 0.74847186}
  - {x: 18.698092, y: 1.5000006, z: 27.240934, w: 0.7101692}
  - {x: 18.413631, y: 1.4956763, z: 27.680944, w: 0.8970797}
  - {x: 18.477713, y: 1.4914532, z: 28.77415, w: 0.83849245}
  - {x: 18.587292, y: 1.4871224, z: 29.663643, w: 0.79102874}
  - {x: 19.598942, y: 1.4713997, z: 22.982288, w: 0.69827306}
  - {x: 19.357962, y: 1.4926437, z: 23.621693, w: 0.7620461}
  - {x: 19.10411, y: 1.500001, z: 24.720295, w: 0.56114864}
  - {x: 19.33389, y: 1.5000008, z: 25.689144, w: 0.6748915}
  - {x: 19.60303, y: 1.5000007, z: 26.337044, w: 0.69152725}
  - {x: 19.416157, y: 1.5000006, z: 27.319115, w: 0.95702094}
  - {x: 19.414257, y: 1.5000006, z: 27.702332, w: 0.5330341}
  - {x: 19.172916, y: 1.5000005, z: 28.502388, w: 0.97927856}
  - {x: 19.46117, y: 1.5000004, z: 29.3594, w: 0.83911073}
  - {x: 19.52303, y: 1.5000002, z: 30.217367, w: 0.9693159}
  - {x: 20.188562, y: 1.4717302, z: 23.156116, w: 0.85744035}
  - {x: 20.395435, y: 1.4901774, z: 23.766739, w: 0.7781353}
  - {x: 20.026262, y: 1.5000008, z: 24.846363, w: 0.7770721}
  - {x: 20.313408, y: 1.5000008, z: 25.660381, w: 0.91268575}
  - {x: 20.039198, y: 1.5000007, z: 26.306726, w: 0.8333638}
  - {x: 20.127571, y: 1.5000006, z: 27.181202, w: 0.93263406}
  - {x: 19.948744, y: 1.5000005, z: 27.843304, w: 0.6152389}
  - {x: 20.395235, y: 1.5000004, z: 29.04558, w: 0.6066065}
  - {x: 20.200932, y: 1.5000004, z: 29.68181, w: 0.73807764}
  - {x: 20.345823, y: 1.5000002, z: 30.385561, w: 0.6721804}
  - {x: 20.296406, y: 1.467601, z: 31.388035, w: 0.60700685}
  - {x: 20.960674, y: 1.4835094, z: 23.76333, w: 0.5346908}
  - {x: 21.10971, y: 1.5000008, z: 25.14606, w: 0.8726458}
  - {x: 20.6916, y: 1.5000008, z: 25.587524, w: 0.66717315}
  - {x: 20.847322, y: 1.5000007, z: 26.33161, w: 0.9276501}
  - {x: 21.083544, y: 1.5000006, z: 27.301403, w: 0.8103756}
  - {x: 20.913353, y: 1.5000005, z: 28.164349, w: 0.9836927}
  - {x: 21.083838, y: 1.5000005, z: 28.779713, w: 0.67255735}
  - {x: 20.963692, y: 1.5000001, z: 29.23501, w: 0.6239653}
  - {x: 20.71674, y: 1.5000002, z: 30.381342, w: 0.7893722}
  - {x: 21.012476, y: 1.487269, z: 30.880861, w: 0.956741}
  - {x: 21.973625, y: 1.4762203, z: 23.986456, w: 0.99353343}
  - {x: 21.698055, y: 1.500001, z: 24.644958, w: 0.8224455}
  - {x: 21.382105, y: 1.5000008, z: 25.510582, w: 0.972966}
  - {x: 21.82294, y: 1.5000005, z: 26.738626, w: 0.5067182}
  - {x: 21.699373, y: 1.5000006, z: 27.493422, w: 0.76356804}
  - {x: 21.744194, y: 1.5000005, z: 28.10439, w: 0.52415794}
  - {x: 21.619791, y: 1.5000005, z: 28.80905, w: 0.5432162}
  - {x: 21.487072, y: 1.5000005, z: 29.502817, w: 0.69008493}
  - {x: 21.787775, y: 1.5000002, z: 30.314898, w: 0.6635636}
  - {x: 21.731205, y: 1.4721884, z: 31.35018, w: 0.6508856}
  - {x: 22.490864, y: 1.5000011, z: 24.787323, w: 0.89018375}
  - {x: 22.519466, y: 1.5000007, z: 25.941698, w: 0.94741213}
  - {x: 22.575506, y: 1.5000007, z: 26.247059, w: 0.5778862}
  - {x: 22.667715, y: 1.5000006, z: 27.186598, w: 0.5608907}
  - {x: 22.443327, y: 1.5000005, z: 28.108526, w: 0.65702116}
  - {x: 22.7543, y: 1.5000002, z: 28.57594, w: 0.6710589}
  - {x: 22.234898, y: 1.5000004, z: 29.461515, w: 0.74382854}
  - {x: 22.932293, y: 1.4982357, z: 30.400093, w: 0.8575157}
  - {x: 22.493067, y: 1.4687972, z: 31.359184, w: 0.84686154}
  - {x: 23.136307, y: 1.5000008, z: 24.946003, w: 0.73038435}
  - {x: 23.36405, y: 1.5000008, z: 25.541458, w: 0.9226799}
  - {x: 23.357376, y: 1.5000008, z: 26.68686, w: 0.76333416}
  - {x: 23.342184, y: 1.5000004, z: 27.0392, w: 0.6441183}
  - {x: 23.34367, y: 1.5000006, z: 27.827839, w: 0.63187444}
  - {x: 23.51739, y: 1.5000006, z: 28.826483, w: 0.5267204}
  - {x: 23.329247, y: 1.5000004, z: 29.56523, w: 0.8549561}
  - {x: 23.272318, y: 1.4990349, z: 30.337315, w: 0.83079237}
  - {x: 23.653278, y: 1.4656979, z: 31.194836, w: 0.66380644}
  - {x: 24.209112, y: 1.5000008, z: 25.518751, w: 0.5340636}
  - {x: 24.251415, y: 1.5000007, z: 26.174198, w: 0.5564524}
  - {x: 24.047709, y: 1.5000006, z: 26.924871, w: 0.99057084}
  - {x: 24.108519, y: 1.5000005, z: 27.997328, w: 0.8672326}
  - {x: 24.042765, y: 1.5000005, z: 28.452768, w: 0.9467309}
  - {x: 23.981222, y: 1.5000004, z: 29.543465, w: 0.62300706}
  - {x: 24.10936, y: 1.4958925, z: 30.297665, w: 0.88611287}
  - {x: 24.5477, y: 1.4552451, z: 31.189365, w: 0.95599127}
  - {x: 25.040712, y: 1.4865363, z: 26.382832, w: 0.7317184}
  - {x: 24.971027, y: 1.4940181, z: 26.837666, w: 0.5092887}
  - {x: 25.27208, y: 1.4912928, z: 28.030712, w: 0.6964365}
  - {x: 24.904446, y: 1.5000005, z: 28.764616, w: 0.89239025}
  - {x: 24.98882, y: 1.4962983, z: 29.828701, w: 0.53800124}
  - {x: 25.098919, y: 1.4546236, z: 30.492838, w: 0.82669276}
  - {x: 25.961384, y: 1.4650406, z: 27.12188, w: 0.59447783}
  - {x: 25.749216, y: 1.4762326, z: 27.918198, w: 0.9543852}
  - {x: 25.708578, y: 1.4793535, z: 28.701904, w: 0.55153936}
  - {x: 25.62262, y: 1.4740564, z: 29.29147, w: 0.7780627}
