%YAML 1.1
%TAG !u! tag:unity3d.com,2011:
--- !u!114 &11400000
MonoBehaviour:
  m_ObjectHideFlags: 0
  m_PrefabParentObject: {fileID: 0}
  m_PrefabInternal: {fileID: 0}
  m_GameObject: {fileID: 0}
  m_Enabled: 1
  m_EditorHideFlags: 0
  m_Script: {fileID: 11500000, guid: 440bad29e1c6cfd44a8d00451851d4fb, type: 3}
  m_Name: H1_Altura3_1_Points
  m_EditorClassIdentifier: 
  pointsList:
  - {x: 12.991954, y: 4.500003, z: 73.72702, w: 0.8790217}
  - {x: 13.073942, y: 4.5000024, z: 74.45547, w: 0.6500504}
  - {x: 13.576129, y: 4.500003, z: 73.67046, w: 0.50028235}
  - {x: 13.77356, y: 4.5000024, z: 74.35122, w: 0.9659854}
  - {x: 13.660849, y: 4.5000024, z: 75.03228, w: 0.7884451}
  - {x: 14.064566, y: 4.500003, z: 73.51887, w: 0.79345775}
  - {x: 14.133241, y: 4.500003, z: 73.87814, w: 0.5536717}
  - {x: 13.944893, y: 4.5000024, z: 74.37171, w: 0.9329803}
  - {x: 14.04987, y: 4.5000024, z: 74.69945, w: 0.969302}
  - {x: 14.069762, y: 4.5000024, z: 75.535, w: 0.7091489}
  - {x: 14.050758, y: 4.5000024, z: 75.86698, w: 0.70013654}
  - {x: 14.490491, y: 4.500003, z: 73.29486, w: 0.8530608}
  - {x: 14.581102, y: 4.500003, z: 73.89113, w: 0.933245}
  - {x: 14.530492, y: 4.5000024, z: 74.19264, w: 0.54375523}
  - {x: 14.395797, y: 4.5000024, z: 74.864655, w: 0.5407522}
  - {x: 14.759684, y: 4.5000024, z: 75.444244, w: 0.88021904}
  - {x: 14.704604, y: 4.5000024, z: 75.82997, w: 0.684533}
  - {x: 14.631992, y: 4.5000024, z: 76.37941, w: 0.9759701}
  - {x: 15.009072, y: 4.500003, z: 72.85535, w: 0.6180481}
  - {x: 15.047666, y: 4.500003, z: 73.40416, w: 0.6832893}
  - {x: 14.895379, y: 4.5000024, z: 74.021034, w: 0.58761007}
  - {x: 14.95405, y: 4.5000024, z: 74.22304, w: 0.6714505}
  - {x: 15.048416, y: 4.5000024, z: 74.87659, w: 0.8618289}
  - {x: 15.012393, y: 4.5000024, z: 75.40088, w: 0.8746127}
  - {x: 15.01582, y: 4.5000024, z: 75.87831, w: 0.83991873}
  - {x: 15.038563, y: 4.5000024, z: 76.57947, w: 0.804953}
  - {x: 15.232857, y: 4.5000024, z: 76.77798, w: 0.5915948}
  - {x: 15.588407, y: 4.500003, z: 72.70581, w: 0.6563475}
  - {x: 15.675218, y: 4.500003, z: 73.36476, w: 0.7234099}
  - {x: 15.383687, y: 4.500003, z: 73.79686, w: 0.7748213}
  - {x: 15.381801, y: 4.5000024, z: 74.39675, w: 0.70766926}
  - {x: 15.591429, y: 4.5000024, z: 74.6439, w: 0.9496167}
  - {x: 15.417034, y: 4.5000024, z: 75.39873, w: 0.95343596}
  - {x: 15.638811, y: 4.5000024, z: 75.78109, w: 0.57480454}
  - {x: 15.732591, y: 4.5000024, z: 76.37173, w: 0.9608322}
  - {x: 15.469511, y: 4.5000024, z: 77.06673, w: 0.6536579}
  - {x: 15.640995, y: 4.5000024, z: 77.57214, w: 0.5489163}
  - {x: 15.48737, y: 4.5000024, z: 77.80171, w: 0.6161596}
  - {x: 16.111988, y: 4.500003, z: 72.918175, w: 0.72707593}
  - {x: 16.067314, y: 4.500003, z: 73.543045, w: 0.8221989}
  - {x: 15.898744, y: 4.500003, z: 73.918015, w: 0.67555857}
  - {x: 16.165878, y: 4.5000024, z: 74.30725, w: 0.6902362}
  - {x: 16.022842, y: 4.5000024, z: 74.78011, w: 0.7698872}
  - {x: 15.982578, y: 4.5000024, z: 75.39084, w: 0.704978}
  - {x: 16.07024, y: 4.5000024, z: 75.883224, w: 0.7717743}
  - {x: 16.016155, y: 4.5000024, z: 76.2572, w: 0.7483579}
  - {x: 15.952416, y: 4.5000024, z: 76.861374, w: 0.9974577}
  - {x: 15.990318, y: 4.5000024, z: 77.483284, w: 0.79049516}
  - {x: 16.012905, y: 4.5000024, z: 77.86444, w: 0.5466027}
  - {x: 15.910675, y: 4.500002, z: 78.36555, w: 0.51940745}
  - {x: 16.419283, y: 4.500003, z: 72.7959, w: 0.9665412}
  - {x: 16.578625, y: 4.500003, z: 73.533516, w: 0.85639495}
  - {x: 16.657768, y: 4.500003, z: 73.91097, w: 0.8648283}
  - {x: 16.601952, y: 4.5000024, z: 74.15498, w: 0.6682267}
  - {x: 16.505043, y: 4.5000024, z: 74.71114, w: 0.9006215}
  - {x: 16.528942, y: 4.5000024, z: 75.52569, w: 0.6836418}
  - {x: 16.560438, y: 4.5000024, z: 75.8566, w: 0.62916183}
  - {x: 16.467964, y: 4.5000024, z: 76.248146, w: 0.6502006}
  - {x: 16.678741, y: 4.5000024, z: 76.82969, w: 0.74013853}
  - {x: 16.721565, y: 4.5000024, z: 77.45294, w: 0.7070118}
  - {x: 16.540344, y: 4.500002, z: 78.02498, w: 0.6438689}
  - {x: 16.49858, y: 4.500002, z: 78.39492, w: 0.7260463}
  - {x: 16.374104, y: 4.500002, z: 78.858955, w: 0.698985}
  - {x: 17.055681, y: 4.500003, z: 72.817955, w: 0.77152586}
  - {x: 16.85181, y: 4.500003, z: 73.36423, w: 0.9857534}
  - {x: 17.054811, y: 4.500003, z: 73.66218, w: 0.5976119}
  - {x: 17.197474, y: 4.5000024, z: 74.36806, w: 0.80723}
  - {x: 17.038445, y: 4.5000024, z: 74.829445, w: 0.7533591}
  - {x: 17.041832, y: 4.5000024, z: 75.5944, w: 0.5590102}
  - {x: 17.033953, y: 4.5000024, z: 75.899376, w: 0.90725}
  - {x: 17.103765, y: 4.5000024, z: 76.520706, w: 0.6505358}
  - {x: 16.906744, y: 4.5000024, z: 76.717094, w: 0.6249962}
  - {x: 17.053345, y: 4.500002, z: 77.28993, w: 0.80263495}
  - {x: 17.059145, y: 4.5000024, z: 77.72322, w: 0.511913}
  - {x: 16.949726, y: 4.500002, z: 78.34438, w: 0.50333506}
  - {x: 17.063297, y: 4.500002, z: 78.83129, w: 0.8568808}
  - {x: 17.154812, y: 4.500002, z: 79.51402, w: 0.9542857}
  - {x: 17.101202, y: 4.500002, z: 79.79347, w: 0.8865389}
  - {x: 17.682953, y: 4.500003, z: 72.38551, w: 0.6932181}
  - {x: 17.739431, y: 4.500003, z: 72.9201, w: 0.93496054}
  - {x: 17.601604, y: 4.500003, z: 73.22154, w: 0.79507184}
  - {x: 17.54966, y: 4.500003, z: 73.832, w: 0.98828465}
  - {x: 17.707983, y: 4.5000024, z: 74.44602, w: 0.5920749}
  - {x: 17.747313, y: 4.5000024, z: 74.855644, w: 0.7906126}
  - {x: 17.600584, y: 4.5000024, z: 75.23974, w: 0.65544546}
  - {x: 17.400642, y: 4.5000024, z: 75.88314, w: 0.948862}
  - {x: 17.584234, y: 4.5000024, z: 76.302475, w: 0.905136}
  - {x: 17.59314, y: 4.500003, z: 76.924324, w: 0.512173}
  - {x: 17.351019, y: 4.5000024, z: 77.37375, w: 0.97478133}
  - {x: 17.742971, y: 4.5000024, z: 77.86494, w: 0.78389037}
  - {x: 17.579807, y: 4.500002, z: 78.36342, w: 0.65105486}
  - {x: 17.427898, y: 4.500002, z: 78.74543, w: 0.8222135}
  - {x: 17.435856, y: 4.500002, z: 79.38464, w: 0.73401964}
  - {x: 17.53162, y: 4.500002, z: 79.87696, w: 0.8715936}
  - {x: 17.543816, y: 4.500002, z: 80.21334, w: 0.6865965}
  - {x: 17.690004, y: 4.500002, z: 80.78417, w: 0.67460275}
  - {x: 18.09702, y: 4.500003, z: 73.03078, w: 0.88132954}
  - {x: 18.070995, y: 4.500003, z: 73.48175, w: 0.91192234}
  - {x: 17.824795, y: 4.500003, z: 73.87381, w: 0.73779786}
  - {x: 17.859118, y: 4.5000024, z: 74.35483, w: 0.956743}
  - {x: 18.244165, y: 4.5000024, z: 74.845795, w: 0.79344726}
  - {x: 18.242527, y: 4.5000024, z: 75.3779, w: 0.5057079}
  - {x: 18.000673, y: 4.5000024, z: 75.87135, w: 0.94228405}
  - {x: 18.19641, y: 4.5000024, z: 76.36875, w: 0.5665398}
  - {x: 18.207985, y: 4.5000024, z: 76.845314, w: 0.5445819}
  - {x: 18.168934, y: 4.5000024, z: 77.1667, w: 0.98713326}
  - {x: 18.01653, y: 4.5000024, z: 77.83684, w: 0.7933667}
  - {x: 18.000381, y: 4.500002, z: 78.33479, w: 0.919049}
  - {x: 18.113388, y: 4.500002, z: 78.924774, w: 0.635684}
  - {x: 17.971706, y: 4.500002, z: 79.38342, w: 0.55978847}
  - {x: 18.07388, y: 4.500002, z: 79.75959, w: 0.8318637}
  - {x: 18.113546, y: 4.500002, z: 80.377075, w: 0.7371242}
  - {x: 18.009598, y: 4.500002, z: 80.8048, w: 0.54222775}
  - {x: 18.05984, y: 4.500002, z: 81.31405, w: 0.6036217}
  - {x: 18.196918, y: 4.500002, z: 81.8925, w: 0.5867978}
  - {x: 18.595705, y: 4.500003, z: 72.81785, w: 0.73753774}
  - {x: 18.53053, y: 4.500003, z: 73.284386, w: 0.7493453}
  - {x: 18.588684, y: 4.5000024, z: 73.94477, w: 0.8172011}
  - {x: 18.429504, y: 4.5000024, z: 74.29539, w: 0.94296265}
  - {x: 18.450718, y: 4.5000024, z: 74.898575, w: 0.6166098}
  - {x: 18.623903, y: 4.5000024, z: 75.29575, w: 0.588554}
  - {x: 18.38542, y: 4.5000024, z: 75.86463, w: 0.71616066}
  - {x: 18.451132, y: 4.500003, z: 76.455505, w: 0.81652254}
  - {x: 18.516273, y: 4.5000024, z: 77.0893, w: 0.9148711}
  - {x: 18.522577, y: 4.5000024, z: 77.53071, w: 0.5899919}
  - {x: 18.486713, y: 4.5000024, z: 77.74005, w: 0.98925024}
  - {x: 18.638636, y: 4.5000014, z: 78.45613, w: 0.95784485}
  - {x: 18.657745, y: 4.500002, z: 78.81891, w: 0.9500805}
  - {x: 18.401009, y: 4.500002, z: 79.386314, w: 0.7338581}
  - {x: 18.445686, y: 4.500002, z: 79.910164, w: 0.5894699}
  - {x: 18.528673, y: 4.500002, z: 80.5077, w: 0.7523171}
  - {x: 18.57448, y: 4.500002, z: 80.9452, w: 0.5110597}
  - {x: 18.486132, y: 4.500002, z: 81.307175, w: 0.93048394}
  - {x: 18.561478, y: 4.500002, z: 81.85037, w: 0.6501529}
  - {x: 18.653273, y: 4.5000014, z: 82.23607, w: 0.5010467}
  - {x: 18.743626, y: 4.5000014, z: 82.89444, w: 0.61039144}
  - {x: 18.547049, y: 4.5000014, z: 83.45852, w: 0.67053914}
  - {x: 19.020048, y: 4.500003, z: 72.78422, w: 0.83830994}
  - {x: 19.01079, y: 4.500003, z: 73.58241, w: 0.76266587}
  - {x: 19.062737, y: 4.500003, z: 73.740005, w: 0.63487875}
  - {x: 18.971638, y: 4.5000024, z: 74.370766, w: 0.8921112}
  - {x: 18.858181, y: 4.5000024, z: 74.862885, w: 0.96174526}
  - {x: 19.05403, y: 4.5000024, z: 75.45785, w: 0.77430785}
  - {x: 18.992336, y: 4.5000024, z: 75.75178, w: 0.7203307}
  - {x: 19.125502, y: 4.5000024, z: 76.35153, w: 0.6632912}
  - {x: 18.98517, y: 4.5000024, z: 77.0707, w: 0.5462001}
  - {x: 19.046726, y: 4.5000024, z: 77.262596, w: 0.95766836}
  - {x: 19.008207, y: 4.5000024, z: 77.86273, w: 0.5804676}
  - {x: 19.07016, y: 4.5000024, z: 78.46176, w: 0.75063}
  - {x: 19.078064, y: 4.500002, z: 78.69179, w: 0.6261356}
  - {x: 18.990871, y: 4.500002, z: 79.43816, w: 0.91349995}
  - {x: 19.05516, y: 4.500002, z: 79.888756, w: 0.6688216}
  - {x: 19.29058, y: 4.500002, z: 80.358185, w: 0.5343383}
  - {x: 19.07401, y: 4.500002, z: 80.63975, w: 0.6433188}
  - {x: 19.12955, y: 4.500002, z: 81.38107, w: 0.9602525}
  - {x: 18.955486, y: 4.500002, z: 81.93031, w: 0.55414873}
  - {x: 19.078775, y: 4.5000014, z: 82.3928, w: 0.55061245}
  - {x: 19.222765, y: 4.5000014, z: 82.83847, w: 0.79171824}
  - {x: 19.062073, y: 4.5000014, z: 83.40285, w: 0.671116}
  - {x: 18.999514, y: 4.5000014, z: 83.93811, w: 0.88851106}
  - {x: 19.122963, y: 4.5000014, z: 84.444084, w: 0.7310978}
  - {x: 19.060818, y: 4.5000014, z: 84.83571, w: 0.64966345}
  - {x: 19.465582, y: 4.500003, z: 72.78136, w: 0.87229204}
  - {x: 19.737665, y: 4.500003, z: 73.366516, w: 0.8216307}
  - {x: 19.411783, y: 4.500003, z: 73.845566, w: 0.8311814}
  - {x: 19.457836, y: 4.5000024, z: 74.38679, w: 0.7847886}
  - {x: 19.696138, y: 4.5000024, z: 74.88807, w: 0.7017579}
  - {x: 19.675901, y: 4.5000024, z: 75.37242, w: 0.68407035}
  - {x: 19.6091, y: 4.5000024, z: 75.83272, w: 0.51806664}
  - {x: 19.57342, y: 4.5000024, z: 76.27562, w: 0.59347796}
  - {x: 19.562424, y: 4.5000024, z: 76.84687, w: 0.9761067}
  - {x: 19.574562, y: 4.5000024, z: 77.3111, w: 0.849562}
  - {x: 19.732967, y: 4.5000024, z: 77.727325, w: 0.7965324}
  - {x: 19.482151, y: 4.500002, z: 78.36372, w: 0.77175903}
  - {x: 19.471725, y: 4.500002, z: 78.86675, w: 0.85777175}
  - {x: 19.454924, y: 4.500002, z: 79.34002, w: 0.8806864}
  - {x: 19.548779, y: 4.500002, z: 79.79683, w: 0.87858343}
  - {x: 19.77148, y: 4.500002, z: 80.34311, w: 0.65914905}
  - {x: 19.623587, y: 4.500002, z: 80.87995, w: 0.8717804}
  - {x: 19.517427, y: 4.500002, z: 81.39359, w: 0.82550186}
  - {x: 19.552301, y: 4.500002, z: 81.74627, w: 0.6551808}
  - {x: 19.554737, y: 4.5000014, z: 82.327736, w: 0.9910049}
  - {x: 19.672943, y: 4.5000014, z: 82.915276, w: 0.9992188}
  - {x: 19.461836, y: 4.5000014, z: 83.515, w: 0.61448616}
  - {x: 19.39294, y: 4.5000014, z: 83.86583, w: 0.5057404}
  - {x: 19.702057, y: 4.5000014, z: 84.267654, w: 0.83736324}
  - {x: 19.669643, y: 4.5000014, z: 84.836334, w: 0.87497497}
  - {x: 19.616718, y: 4.5000014, z: 85.297195, w: 0.6266798}
  - {x: 19.58584, y: 4.5000014, z: 85.70506, w: 0.8765875}
  - {x: 20.030495, y: 4.500003, z: 72.84702, w: 0.7888291}
  - {x: 20.170307, y: 4.500003, z: 73.4054, w: 0.86479694}
  - {x: 20.123447, y: 4.500003, z: 73.80806, w: 0.661867}
  - {x: 20.118841, y: 4.5000024, z: 74.26597, w: 0.84462494}
  - {x: 20.184734, y: 4.5000024, z: 74.96446, w: 0.5215445}
  - {x: 19.864548, y: 4.5000024, z: 75.38669, w: 0.76213276}
  - {x: 20.014055, y: 4.5000024, z: 75.95187, w: 0.59055805}
  - {x: 20.087555, y: 4.5000024, z: 76.27124, w: 0.96738976}
  - {x: 20.000385, y: 4.5000024, z: 76.68841, w: 0.889567}
  - {x: 20.085917, y: 4.5000024, z: 77.40138, w: 0.7587862}
  - {x: 20.080637, y: 4.5000024, z: 77.66737, w: 0.76751053}
  - {x: 19.998142, y: 4.500002, z: 78.48418, w: 0.579527}
  - {x: 19.893972, y: 4.5000014, z: 78.88461, w: 0.61343837}
  - {x: 19.926483, y: 4.500002, z: 79.16159, w: 0.66228056}
  - {x: 20.092352, y: 4.500002, z: 80.03701, w: 0.923635}
  - {x: 19.996574, y: 4.500002, z: 80.34908, w: 0.91570026}
  - {x: 20.071808, y: 4.500002, z: 80.66163, w: 0.616446}
  - {x: 20.116238, y: 4.500002, z: 81.521996, w: 0.9747682}
  - {x: 19.939022, y: 4.500002, z: 81.84603, w: 0.912895}
  - {x: 20.016266, y: 4.5000014, z: 82.36364, w: 0.7607533}
  - {x: 20.044794, y: 4.5000014, z: 82.95095, w: 0.7273313}
  - {x: 19.989933, y: 4.5000014, z: 83.25152, w: 0.7218354}
  - {x: 20.090185, y: 4.5000014, z: 83.68191, w: 0.523299}
  - {x: 19.86499, y: 4.5000014, z: 84.36305, w: 0.8017174}
  - {x: 20.013426, y: 4.5000014, z: 85.0405, w: 0.6959839}
  - {x: 19.942387, y: 4.5000014, z: 85.46785, w: 0.69750595}
  - {x: 20.113598, y: 4.500002, z: 85.85236, w: 0.81118417}
  - {x: 20.016567, y: 4.500001, z: 86.40413, w: 0.931528}
  - {x: 19.968636, y: 4.500001, z: 86.87187, w: 0.67110515}
  - {x: 19.9906, y: 4.500001, z: 87.47485, w: 0.62859166}
  - {x: 20.049187, y: 4.5000005, z: 87.77261, w: 0.7635126}
  - {x: 20.091173, y: 4.500001, z: 88.35449, w: 0.51497537}
  - {x: 20.058859, y: 4.500001, z: 88.70816, w: 0.66798043}
  - {x: 20.176435, y: 4.500001, z: 89.38061, w: 0.6350415}
  - {x: 20.532799, y: 4.500003, z: 73.030876, w: 0.5425545}
  - {x: 20.517849, y: 4.500003, z: 73.443535, w: 0.9275022}
  - {x: 20.460577, y: 4.500003, z: 73.85742, w: 0.66968274}
  - {x: 20.72374, y: 4.5000024, z: 74.23885, w: 0.6634474}
  - {x: 20.590654, y: 4.5000024, z: 74.79571, w: 0.86446404}
  - {x: 20.440369, y: 4.5000024, z: 75.38578, w: 0.594233}
  - {x: 20.446297, y: 4.5000024, z: 75.91798, w: 0.8573327}
  - {x: 20.662645, y: 4.5000024, z: 76.38326, w: 0.84107184}
  - {x: 20.483923, y: 4.5000024, z: 76.800575, w: 0.5106039}
  - {x: 20.740463, y: 4.5000024, z: 77.404976, w: 0.52921623}
  - {x: 20.36951, y: 4.5000024, z: 77.91894, w: 0.60986453}
  - {x: 20.483517, y: 4.500002, z: 78.21708, w: 0.6288463}
  - {x: 20.671518, y: 4.500002, z: 78.872795, w: 0.7126794}
  - {x: 20.538628, y: 4.5000014, z: 79.5582, w: 0.5370447}
  - {x: 20.52905, y: 4.500002, z: 80.01632, w: 0.70110273}
  - {x: 20.413567, y: 4.500002, z: 80.35131, w: 0.8565669}
  - {x: 20.582705, y: 4.500002, z: 80.93803, w: 0.76244295}
  - {x: 20.527603, y: 4.500002, z: 81.17294, w: 0.74429}
  - {x: 20.61592, y: 4.5000014, z: 81.942314, w: 0.54024184}
  - {x: 20.510834, y: 4.5000014, z: 82.12839, w: 0.85880405}
  - {x: 20.747658, y: 4.5000014, z: 82.93002, w: 0.66783154}
  - {x: 20.668184, y: 4.5000014, z: 83.47317, w: 0.8291824}
  - {x: 20.583458, y: 4.5000014, z: 84.08083, w: 0.75260174}
  - {x: 20.413212, y: 4.5000014, z: 84.28846, w: 0.5110388}
  - {x: 20.460852, y: 4.500001, z: 85.07026, w: 0.61613804}
  - {x: 20.60682, y: 4.5000014, z: 85.30718, w: 0.58319825}
  - {x: 20.643366, y: 4.5000014, z: 85.694984, w: 0.64234245}
  - {x: 20.56757, y: 4.5000014, z: 86.17447, w: 0.77400005}
  - {x: 20.728277, y: 4.500001, z: 86.73111, w: 0.55887747}
  - {x: 20.769985, y: 4.5000014, z: 87.385605, w: 0.77100766}
  - {x: 20.613735, y: 4.500001, z: 88.02438, w: 0.9582441}
  - {x: 20.720636, y: 4.500001, z: 88.35223, w: 0.9256327}
  - {x: 20.473564, y: 4.500001, z: 88.88569, w: 0.7898724}
  - {x: 20.430265, y: 4.5000005, z: 89.4187, w: 0.85575897}
  - {x: 20.725435, y: 4.500001, z: 89.83852, w: 0.5880902}
  - {x: 20.503859, y: 4.5000005, z: 90.22506, w: 0.7466161}
  - {x: 20.740183, y: 4.5000005, z: 90.824615, w: 0.63252175}
  - {x: 21.062433, y: 4.500003, z: 72.779396, w: 0.77151716}
  - {x: 21.071737, y: 4.500003, z: 73.3938, w: 0.70231724}
  - {x: 20.96033, y: 4.500003, z: 73.811325, w: 0.6862335}
  - {x: 20.920181, y: 4.5000024, z: 74.374016, w: 0.81877446}
  - {x: 21.083324, y: 4.5000024, z: 74.811264, w: 0.724486}
  - {x: 21.044304, y: 4.5000024, z: 75.27843, w: 0.8314582}
  - {x: 21.114426, y: 4.5000024, z: 75.88364, w: 0.7960782}
  - {x: 21.033642, y: 4.5000024, z: 76.29807, w: 0.8646103}
  - {x: 20.933447, y: 4.5000024, z: 76.840164, w: 0.7456498}
  - {x: 21.237171, y: 4.5000024, z: 77.36563, w: 0.71751857}
  - {x: 21.012474, y: 4.5000024, z: 77.77751, w: 0.51294315}
  - {x: 21.03606, y: 4.500002, z: 78.43901, w: 0.92858696}
  - {x: 21.114393, y: 4.500002, z: 78.892654, w: 0.71558475}
  - {x: 20.980087, y: 4.500002, z: 79.47673, w: 0.8031055}
  - {x: 21.049341, y: 4.5000024, z: 80.10726, w: 0.9950916}
  - {x: 21.043943, y: 4.500002, z: 80.38874, w: 0.8774478}
  - {x: 21.009417, y: 4.500002, z: 81.0107, w: 0.72364366}
  - {x: 20.95756, y: 4.500002, z: 81.26362, w: 0.7431905}
  - {x: 21.062735, y: 4.500002, z: 81.662476, w: 0.5740433}
  - {x: 21.157066, y: 4.5000014, z: 82.44543, w: 0.9256029}
  - {x: 20.95238, y: 4.5000014, z: 82.87577, w: 0.90882707}
  - {x: 21.116104, y: 4.5000014, z: 83.413, w: 0.8249057}
  - {x: 21.161688, y: 4.5000014, z: 83.865036, w: 0.6598147}
  - {x: 21.087618, y: 4.500002, z: 84.53333, w: 0.7761848}
  - {x: 21.000761, y: 4.500001, z: 84.90548, w: 0.8269053}
  - {x: 20.987679, y: 4.5000014, z: 85.384026, w: 0.5257876}
  - {x: 21.074873, y: 4.500001, z: 85.999596, w: 0.6227769}
  - {x: 21.209528, y: 4.500001, z: 86.27982, w: 0.8369591}
  - {x: 21.231577, y: 4.500001, z: 86.84711, w: 0.71963966}
  - {x: 20.98022, y: 4.500001, z: 87.16109, w: 0.5814638}
  - {x: 21.25276, y: 4.500001, z: 87.8291, w: 0.69389224}
  - {x: 20.845308, y: 4.5000005, z: 88.497795, w: 0.8696855}
  - {x: 21.0672, y: 4.500001, z: 88.994606, w: 0.8283089}
  - {x: 21.227861, y: 4.500001, z: 89.2526, w: 0.92027545}
  - {x: 21.166803, y: 4.500001, z: 89.79272, w: 0.82811165}
  - {x: 21.26615, y: 4.5000005, z: 90.36644, w: 0.8442453}
  - {x: 21.081898, y: 4.5000005, z: 90.828, w: 0.56809765}
  - {x: 21.038933, y: 4.5000005, z: 91.45924, w: 0.74966955}
  - {x: 21.676088, y: 4.500003, z: 72.76281, w: 0.8476799}
  - {x: 21.678596, y: 4.500003, z: 73.29088, w: 0.7451906}
  - {x: 21.565916, y: 4.500003, z: 73.82253, w: 0.8558291}
  - {x: 21.526707, y: 4.5000024, z: 74.126205, w: 0.5759631}
  - {x: 21.39175, y: 4.5000024, z: 74.888466, w: 0.9367157}
  - {x: 21.628458, y: 4.5000024, z: 75.29025, w: 0.876586}
  - {x: 21.55457, y: 4.5000024, z: 75.84864, w: 0.71439326}
  - {x: 21.538498, y: 4.5000024, z: 76.46562, w: 0.7405093}
  - {x: 21.661077, y: 4.5000024, z: 76.86381, w: 0.9378528}
  - {x: 21.571705, y: 4.5000024, z: 77.40969, w: 0.5146065}
  - {x: 21.610624, y: 4.500002, z: 77.89602, w: 0.55917096}
  - {x: 21.59213, y: 4.500002, z: 78.4373, w: 0.8518169}
  - {x: 21.736076, y: 4.500002, z: 78.887634, w: 0.7505301}
  - {x: 21.569138, y: 4.500002, z: 79.194695, w: 0.7908008}
  - {x: 21.767561, y: 4.500002, z: 79.863686, w: 0.77097154}
  - {x: 21.547346, y: 4.500002, z: 80.264244, w: 0.89757633}
  - {x: 21.54867, y: 4.500002, z: 80.72122, w: 0.79811144}
  - {x: 21.460867, y: 4.500002, z: 81.53239, w: 0.7658012}
  - {x: 21.663488, y: 4.500002, z: 81.91119, w: 0.9098569}
  - {x: 21.575716, y: 4.5000014, z: 82.471985, w: 0.81272674}
  - {x: 21.353012, y: 4.5000014, z: 82.81195, w: 0.7708044}
  - {x: 21.512884, y: 4.5000014, z: 83.379875, w: 0.5118737}
  - {x: 21.668352, y: 4.5000014, z: 83.895065, w: 0.67182887}
  - {x: 21.347721, y: 4.5000014, z: 84.32428, w: 0.53127795}
  - {x: 21.454485, y: 4.5000014, z: 84.98965, w: 0.65809774}
  - {x: 21.531622, y: 4.5000014, z: 85.475655, w: 0.9097171}
  - {x: 21.71466, y: 4.5000014, z: 85.81643, w: 0.8203733}
  - {x: 21.699722, y: 4.500001, z: 86.421234, w: 0.7214714}
  - {x: 21.579401, y: 4.500001, z: 86.70245, w: 0.7873657}
  - {x: 21.557442, y: 4.500001, z: 87.140785, w: 0.74676216}
  - {x: 21.703566, y: 4.500001, z: 87.89266, w: 0.82904714}
  - {x: 21.656797, y: 4.500001, z: 88.309975, w: 0.88234115}
  - {x: 21.588333, y: 4.500001, z: 88.85837, w: 0.6632173}
  - {x: 21.760866, y: 4.500001, z: 89.32364, w: 0.9917648}
  - {x: 21.512619, y: 4.5000005, z: 89.97995, w: 0.5041428}
  - {x: 21.516459, y: 4.5000005, z: 90.494316, w: 0.57358}
  - {x: 21.518867, y: 4.5000005, z: 90.88784, w: 0.7639965}
  - {x: 21.549816, y: 4.5000005, z: 91.51392, w: 0.704955}
  - {x: 21.551172, y: 4.5000005, z: 91.81625, w: 0.8011652}
  - {x: 21.512827, y: 4.5000005, z: 92.42554, w: 0.5577415}
  - {x: 22.060747, y: 4.5000024, z: 72.70375, w: 0.6917119}
  - {x: 22.08353, y: 4.5000024, z: 73.49704, w: 0.98271155}
  - {x: 22.043777, y: 4.5000024, z: 74.04316, w: 0.9446669}
  - {x: 22.087896, y: 4.500002, z: 74.495094, w: 0.808496}
  - {x: 21.865477, y: 4.5000024, z: 74.863434, w: 0.52821666}
  - {x: 22.2676, y: 4.5000024, z: 75.395836, w: 0.6504128}
  - {x: 22.002148, y: 4.5000024, z: 75.86278, w: 0.92040765}
  - {x: 21.95577, y: 4.5000024, z: 76.45095, w: 0.9447247}
  - {x: 22.066559, y: 4.5000024, z: 76.92157, w: 0.6916611}
  - {x: 22.023783, y: 4.5000024, z: 77.51799, w: 0.8210983}
  - {x: 22.051332, y: 4.500002, z: 78.06906, w: 0.93774325}
  - {x: 22.05047, y: 4.500002, z: 78.16179, w: 0.7174684}
  - {x: 22.1585, y: 4.500002, z: 78.95085, w: 0.9638551}
  - {x: 22.244213, y: 4.500002, z: 79.3203, w: 0.6160293}
  - {x: 21.947273, y: 4.500002, z: 79.96588, w: 0.58852684}
  - {x: 22.03995, y: 4.500002, z: 80.202675, w: 0.52257264}
  - {x: 21.876354, y: 4.500002, z: 80.86365, w: 0.7024344}
  - {x: 22.149822, y: 4.500002, z: 81.32462, w: 0.80299723}
  - {x: 21.956493, y: 4.500002, z: 81.78297, w: 0.53871435}
  - {x: 21.904518, y: 4.5000014, z: 82.308945, w: 0.9630173}
  - {x: 21.900118, y: 4.5000014, z: 82.88792, w: 0.5981088}
  - {x: 22.074623, y: 4.5000014, z: 83.520645, w: 0.6445402}
  - {x: 21.983946, y: 4.5000014, z: 84.074104, w: 0.6319339}
  - {x: 22.077595, y: 4.5000014, z: 84.26013, w: 0.9163378}
  - {x: 22.096174, y: 4.500001, z: 84.742035, w: 0.82868737}
  - {x: 21.989553, y: 4.5000014, z: 85.49177, w: 0.65522015}
  - {x: 22.078016, y: 4.5000014, z: 85.69361, w: 0.5222668}
  - {x: 22.112125, y: 4.500001, z: 86.348114, w: 0.8225266}
  - {x: 21.880585, y: 4.500001, z: 86.92596, w: 0.54102576}
  - {x: 22.074633, y: 4.500001, z: 87.44388, w: 0.67732775}
  - {x: 22.071625, y: 4.500001, z: 87.66742, w: 0.9648404}
  - {x: 21.831099, y: 4.500001, z: 88.39457, w: 0.7694453}
  - {x: 22.032927, y: 4.500001, z: 89.086296, w: 0.78611636}
  - {x: 22.00258, y: 4.500001, z: 89.521935, w: 0.5900813}
  - {x: 21.983488, y: 4.500001, z: 89.85955, w: 0.87012035}
  - {x: 22.064585, y: 4.5000005, z: 90.56443, w: 0.9427021}
  - {x: 22.134401, y: 4.5000005, z: 90.95873, w: 0.6035743}
  - {x: 21.922773, y: 4.5000005, z: 91.32197, w: 0.5485045}
  - {x: 21.918627, y: 4.5000005, z: 91.75372, w: 0.6303592}
  - {x: 22.15664, y: 4.5000005, z: 92.31655, w: 0.75087}
  - {x: 22.012676, y: 4.5000005, z: 92.87193, w: 0.97065115}
  - {x: 22.079184, y: 4.5000005, z: 93.181564, w: 0.8285208}
  - {x: 22.601698, y: 4.500003, z: 72.908, w: 0.8799604}
  - {x: 22.757792, y: 4.500003, z: 73.36696, w: 0.7223327}
  - {x: 22.563051, y: 4.500003, z: 73.916664, w: 0.5456285}
  - {x: 22.541342, y: 4.5000024, z: 74.40948, w: 0.6672044}
  - {x: 22.648285, y: 4.5000024, z: 74.855736, w: 0.6207188}
  - {x: 22.557835, y: 4.5000024, z: 75.20205, w: 0.56864923}
  - {x: 22.78208, y: 4.5000024, z: 75.848595, w: 0.73511624}
  - {x: 22.531422, y: 4.500002, z: 76.201866, w: 0.6094962}
  - {x: 22.55793, y: 4.5000024, z: 76.93833, w: 0.50083584}
  - {x: 22.387556, y: 4.5000024, z: 77.28078, w: 0.6458534}
  - {x: 22.671862, y: 4.5000024, z: 77.81969, w: 0.53048784}
  - {x: 22.519346, y: 4.500002, z: 78.480675, w: 0.85512763}
  - {x: 22.690388, y: 4.500002, z: 78.903496, w: 0.7920753}
  - {x: 22.538355, y: 4.500002, z: 79.610115, w: 0.9557403}
  - {x: 22.665722, y: 4.500002, z: 79.79885, w: 0.64037836}
  - {x: 22.606281, y: 4.500002, z: 80.2605, w: 0.5144143}
  - {x: 22.66644, y: 4.500002, z: 80.795586, w: 0.94743943}
  - {x: 22.548946, y: 4.500002, z: 81.396706, w: 0.5651}
  - {x: 22.559978, y: 4.500002, z: 81.9064, w: 0.60236603}
  - {x: 22.542887, y: 4.5000014, z: 82.1701, w: 0.99518335}
  - {x: 22.46523, y: 4.5000014, z: 82.83436, w: 0.67364967}
  - {x: 22.443136, y: 4.5000014, z: 83.34708, w: 0.78393793}
  - {x: 22.535345, y: 4.5000014, z: 84.05664, w: 0.825722}
  - {x: 22.314327, y: 4.5000014, z: 84.39766, w: 0.9307761}
  - {x: 22.560366, y: 4.5000014, z: 84.870255, w: 0.93671876}
  - {x: 22.354725, y: 4.5000014, z: 85.33154, w: 0.65816104}
  - {x: 22.673857, y: 4.500001, z: 85.93636, w: 0.60658485}
  - {x: 22.41433, y: 4.500001, z: 86.34922, w: 0.70297205}
  - {x: 22.723007, y: 4.500001, z: 86.706345, w: 0.7706361}
  - {x: 22.617153, y: 4.500001, z: 87.19119, w: 0.7813084}
  - {x: 22.413456, y: 4.500001, z: 87.854065, w: 0.73312557}
  - {x: 22.576742, y: 4.500001, z: 88.47392, w: 0.74813044}
  - {x: 22.455374, y: 4.500001, z: 88.94353, w: 0.9202067}
  - {x: 22.50415, y: 4.500001, z: 89.461716, w: 0.78668547}
  - {x: 22.636923, y: 4.500001, z: 89.86148, w: 0.79095614}
  - {x: 22.47071, y: 4.5000005, z: 90.44478, w: 0.6864219}
  - {x: 22.40845, y: 4.5000005, z: 90.84866, w: 0.8227455}
  - {x: 22.54814, y: 4.5000005, z: 91.3933, w: 0.8520768}
  - {x: 22.61217, y: 4.5000005, z: 91.95399, w: 0.7506279}
  - {x: 22.484476, y: 4.5000005, z: 92.35211, w: 0.7918279}
  - {x: 22.485008, y: 4.5000005, z: 92.676575, w: 0.8989034}
  - {x: 22.527115, y: 4.5000005, z: 93.40254, w: 0.5674709}
  - {x: 22.502071, y: 4.5000005, z: 93.84471, w: 0.8469939}
  - {x: 23.118898, y: 4.5000024, z: 73.25065, w: 0.7513999}
  - {x: 22.903885, y: 4.500003, z: 73.929504, w: 0.7853005}
  - {x: 23.148682, y: 4.5000024, z: 74.40059, w: 0.9679972}
  - {x: 23.031961, y: 4.5000024, z: 74.80628, w: 0.5264146}
  - {x: 22.894053, y: 4.5000024, z: 75.34462, w: 0.6618949}
  - {x: 23.187372, y: 4.5000024, z: 76.00273, w: 0.78418815}
  - {x: 23.128172, y: 4.500002, z: 76.31123, w: 0.86820203}
  - {x: 23.068834, y: 4.5000024, z: 76.88326, w: 0.81767565}
  - {x: 22.84166, y: 4.5000024, z: 77.38615, w: 0.6601914}
  - {x: 23.028517, y: 4.500002, z: 78.089355, w: 0.8339211}
  - {x: 22.972778, y: 4.500002, z: 78.3124, w: 0.53368723}
  - {x: 23.051428, y: 4.500002, z: 78.86299, w: 0.72506714}
  - {x: 23.131735, y: 4.500002, z: 79.412704, w: 0.903599}
  - {x: 22.942577, y: 4.500002, z: 79.829384, w: 0.8549816}
  - {x: 23.090761, y: 4.500002, z: 80.33521, w: 0.8997514}
  - {x: 23.057922, y: 4.500002, z: 80.996376, w: 0.5346724}
  - {x: 22.944334, y: 4.500002, z: 81.33634, w: 0.83931863}
  - {x: 23.047977, y: 4.5000014, z: 82.00517, w: 0.98584527}
  - {x: 23.041758, y: 4.5000014, z: 82.39161, w: 0.9614482}
  - {x: 22.961693, y: 4.5000014, z: 83.02217, w: 0.9261735}
  - {x: 23.041838, y: 4.5000014, z: 83.143654, w: 0.6124009}
  - {x: 22.841217, y: 4.5000014, z: 83.89591, w: 0.5488558}
  - {x: 22.91553, y: 4.5000014, z: 84.3121, w: 0.5700917}
  - {x: 23.151178, y: 4.500002, z: 84.86884, w: 0.59936714}
  - {x: 23.098417, y: 4.5000014, z: 85.44785, w: 0.8533552}
  - {x: 23.17104, y: 4.5000014, z: 85.84674, w: 0.8511764}
  - {x: 23.042707, y: 4.500001, z: 86.23415, w: 0.8080237}
  - {x: 23.063929, y: 4.500001, z: 86.87137, w: 0.6882874}
  - {x: 22.973408, y: 4.500001, z: 87.36413, w: 0.82340735}
  - {x: 23.1374, y: 4.500001, z: 87.84709, w: 0.6905489}
  - {x: 22.954826, y: 4.500001, z: 88.36019, w: 0.58875364}
  - {x: 23.057673, y: 4.500001, z: 89.004585, w: 0.5898182}
  - {x: 23.055206, y: 4.500001, z: 89.203, w: 0.72749317}
  - {x: 22.94277, y: 4.500001, z: 89.82008, w: 0.50946575}
  - {x: 23.06124, y: 4.5000005, z: 90.35458, w: 0.90798867}
  - {x: 23.018627, y: 4.5000005, z: 90.67304, w: 0.60539615}
  - {x: 23.077414, y: 4.5000005, z: 91.50459, w: 0.6228061}
  - {x: 23.066105, y: 4.5000005, z: 91.746735, w: 0.82699406}
  - {x: 22.95223, y: 4.5000005, z: 92.37686, w: 0.93846637}
  - {x: 22.908617, y: 4.5000005, z: 92.8817, w: 0.95891243}
  - {x: 23.103928, y: 4.5000005, z: 93.18865, w: 0.8486515}
  - {x: 23.21847, y: 4.5000005, z: 93.86632, w: 0.8655211}
  - {x: 23.023802, y: 4.5, z: 94.14239, w: 0.96696085}
  - {x: 23.640734, y: 4.500003, z: 73.91421, w: 0.58043504}
  - {x: 23.540724, y: 4.5000024, z: 74.233604, w: 0.85691655}
  - {x: 23.62941, y: 4.5000024, z: 74.986244, w: 0.8195228}
  - {x: 23.667854, y: 4.5000024, z: 75.51343, w: 0.7602401}
  - {x: 23.605965, y: 4.5000024, z: 75.93318, w: 0.53140324}
  - {x: 23.35845, y: 4.5000024, z: 76.46512, w: 0.62844527}
  - {x: 23.696615, y: 4.5000024, z: 76.949715, w: 0.507754}
  - {x: 23.520803, y: 4.5000024, z: 77.39815, w: 0.50565886}
  - {x: 23.699896, y: 4.5000024, z: 77.876785, w: 0.8241579}
  - {x: 23.703287, y: 4.500002, z: 78.251366, w: 0.70468926}
  - {x: 23.760172, y: 4.500002, z: 78.9884, w: 0.52024806}
  - {x: 23.500889, y: 4.500002, z: 79.20056, w: 0.9889748}
  - {x: 23.69248, y: 4.500002, z: 79.856094, w: 0.71839464}
  - {x: 23.671886, y: 4.500002, z: 80.24946, w: 0.7001089}
  - {x: 23.628868, y: 4.500002, z: 80.805145, w: 0.61967295}
  - {x: 23.571127, y: 4.500002, z: 81.37066, w: 0.96896946}
  - {x: 23.447336, y: 4.500002, z: 81.86397, w: 0.82882386}
  - {x: 23.514145, y: 4.5000014, z: 82.3059, w: 0.78827846}
  - {x: 23.517696, y: 4.5000014, z: 82.74322, w: 0.5602242}
  - {x: 23.637035, y: 4.5000014, z: 83.37207, w: 0.5585219}
  - {x: 23.579607, y: 4.5000014, z: 83.80825, w: 0.505882}
  - {x: 23.55799, y: 4.5000014, z: 84.57344, w: 0.5391208}
  - {x: 23.548176, y: 4.5000014, z: 84.660805, w: 0.5602944}
  - {x: 23.362183, y: 4.5000014, z: 85.415245, w: 0.50629866}
  - {x: 23.566015, y: 4.500001, z: 85.97338, w: 0.62269306}
  - {x: 23.557852, y: 4.500001, z: 86.389755, w: 0.89798105}
  - {x: 23.626623, y: 4.500001, z: 86.85877, w: 0.5343316}
  - {x: 23.713686, y: 4.500001, z: 87.37015, w: 0.85890996}
  - {x: 23.583258, y: 4.500001, z: 87.813515, w: 0.83333313}
  - {x: 23.462894, y: 4.500001, z: 88.360275, w: 0.80427575}
  - {x: 23.542439, y: 4.500001, z: 88.72487, w: 0.590838}
  - {x: 23.479813, y: 4.500001, z: 89.34969, w: 0.94065005}
  - {x: 23.68535, y: 4.500001, z: 89.77047, w: 0.61712486}
  - {x: 23.37459, y: 4.5000005, z: 90.34902, w: 0.7615719}
  - {x: 23.616825, y: 4.5000005, z: 90.75904, w: 0.6812048}
  - {x: 23.546808, y: 4.5000005, z: 91.37456, w: 0.8269356}
  - {x: 23.521236, y: 4.5, z: 92.041626, w: 0.5805773}
  - {x: 23.47978, y: 4.5000005, z: 92.294685, w: 0.63790536}
  - {x: 23.471167, y: 4.5000005, z: 92.93601, w: 0.77954984}
  - {x: 23.550299, y: 4.5000005, z: 93.45922, w: 0.77149403}
  - {x: 23.41914, y: 4.5000005, z: 93.72644, w: 0.65821564}
  - {x: 23.504858, y: 4.5, z: 94.45163, w: 0.8810734}
  - {x: 23.513391, y: 4.5, z: 94.88543, w: 0.8174328}
  - {x: 24.088219, y: 4.5000024, z: 74.14474, w: 0.69939864}
  - {x: 24.148428, y: 4.5000024, z: 74.782745, w: 0.6688534}
  - {x: 24.089478, y: 4.5000024, z: 75.35979, w: 0.7504339}
  - {x: 23.908651, y: 4.5000024, z: 75.85165, w: 0.51832926}
  - {x: 23.971079, y: 4.5000024, z: 76.38669, w: 0.8363519}
  - {x: 24.07035, y: 4.5000024, z: 76.75894, w: 0.9788414}
  - {x: 23.888964, y: 4.500002, z: 77.43646, w: 0.6960572}
  - {x: 24.137293, y: 4.5000024, z: 77.902504, w: 0.99334}
  - {x: 24.046644, y: 4.500002, z: 78.21731, w: 0.60511273}
  - {x: 23.995872, y: 4.5000024, z: 78.96059, w: 0.554321}
  - {x: 24.224731, y: 4.500002, z: 79.452896, w: 0.8147245}
  - {x: 23.999273, y: 4.500002, z: 79.77604, w: 0.7257024}
  - {x: 24.19698, y: 4.500002, z: 80.30054, w: 0.8892562}
  - {x: 24.208605, y: 4.500002, z: 80.863815, w: 0.67049825}
  - {x: 23.923227, y: 4.500002, z: 81.331696, w: 0.5514506}
  - {x: 24.064482, y: 4.500002, z: 81.899445, w: 0.9391894}
  - {x: 24.083302, y: 4.5000014, z: 82.2633, w: 0.5577423}
  - {x: 24.04701, y: 4.5000014, z: 82.88943, w: 0.6184805}
  - {x: 23.95396, y: 4.5000014, z: 83.39721, w: 0.5814636}
  - {x: 24.166666, y: 4.5000014, z: 83.85576, w: 0.8578626}
  - {x: 24.091446, y: 4.5000014, z: 84.25201, w: 0.5179385}
  - {x: 24.075205, y: 4.5000014, z: 84.68429, w: 0.74228716}
  - {x: 24.111439, y: 4.5000014, z: 85.282745, w: 0.93909925}
  - {x: 23.972689, y: 4.500002, z: 85.93224, w: 0.9405367}
  - {x: 24.079248, y: 4.500001, z: 86.37046, w: 0.6114627}
  - {x: 23.865515, y: 4.500001, z: 86.83813, w: 0.59128904}
  - {x: 24.005669, y: 4.500001, z: 87.3381, w: 0.8749225}
  - {x: 23.905926, y: 4.500001, z: 87.852715, w: 0.81397074}
  - {x: 23.92429, y: 4.500001, z: 88.35543, w: 0.9814304}
  - {x: 23.996508, y: 4.500001, z: 88.89737, w: 0.7158315}
  - {x: 24.012653, y: 4.500001, z: 89.33751, w: 0.6676743}
  - {x: 24.052032, y: 4.500001, z: 89.79812, w: 0.84294534}
  - {x: 24.164917, y: 4.5000005, z: 90.296036, w: 0.81955606}
  - {x: 23.944742, y: 4.5000005, z: 90.85415, w: 0.66976655}
  - {x: 24.01845, y: 4.5000005, z: 91.35141, w: 0.82944536}
  - {x: 24.14843, y: 4.5000005, z: 91.91609, w: 0.67978823}
  - {x: 23.96327, y: 4.5000005, z: 92.38601, w: 0.8050877}
  - {x: 24.044464, y: 4.5000005, z: 92.692825, w: 0.5818197}
  - {x: 23.883265, y: 4.5000005, z: 93.45152, w: 0.8847513}
  - {x: 24.065224, y: 4.5000005, z: 93.79812, w: 0.79569006}
  - {x: 24.04008, y: 4.5, z: 94.34502, w: 0.647962}
  - {x: 24.27102, y: 4.5, z: 94.87891, w: 0.84994966}
  - {x: 23.984913, y: 4.5, z: 95.41562, w: 0.596148}
  - {x: 24.765053, y: 4.5000024, z: 74.90946, w: 0.9051985}
  - {x: 24.549654, y: 4.5000024, z: 75.35439, w: 0.8801477}
  - {x: 24.43846, y: 4.5000024, z: 75.778114, w: 0.7082764}
  - {x: 24.34415, y: 4.5000024, z: 76.34377, w: 0.66003406}
  - {x: 24.421198, y: 4.5000024, z: 76.812614, w: 0.641677}
  - {x: 24.576618, y: 4.5000024, z: 77.39092, w: 0.9322396}
  - {x: 24.611052, y: 4.500002, z: 78.00532, w: 0.91055405}
  - {x: 24.56698, y: 4.500002, z: 78.46039, w: 0.75403416}
  - {x: 24.459055, y: 4.500002, z: 78.89284, w: 0.671175}
  - {x: 24.64648, y: 4.500002, z: 79.4908, w: 0.8756336}
  - {x: 24.447195, y: 4.500002, z: 80.028824, w: 0.76992404}
  - {x: 24.373016, y: 4.500002, z: 80.19169, w: 0.64276075}
  - {x: 24.586185, y: 4.500002, z: 80.865746, w: 0.7613417}
  - {x: 24.578972, y: 4.500002, z: 81.13134, w: 0.9466097}
  - {x: 24.554834, y: 4.500002, z: 81.6899, w: 0.8269057}
  - {x: 24.360039, y: 4.5000014, z: 82.31555, w: 0.93179}
  - {x: 24.329721, y: 4.500001, z: 82.8616, w: 0.74730814}
  - {x: 24.535683, y: 4.5000014, z: 83.480446, w: 0.83307284}
  - {x: 24.464504, y: 4.500001, z: 84.02809, w: 0.564908}
  - {x: 24.348799, y: 4.5000014, z: 84.3563, w: 0.53900987}
  - {x: 24.60966, y: 4.5000014, z: 84.88221, w: 0.8315369}
  - {x: 24.645462, y: 4.5000014, z: 85.48452, w: 0.8668234}
  - {x: 24.482388, y: 4.5000014, z: 85.72279, w: 0.8967364}
  - {x: 24.57016, y: 4.500001, z: 86.47185, w: 0.7381927}
  - {x: 24.458641, y: 4.5000014, z: 86.879814, w: 0.84082985}
  - {x: 24.541447, y: 4.500001, z: 87.32212, w: 0.7489171}
  - {x: 24.493624, y: 4.500001, z: 87.85986, w: 0.686826}
  - {x: 24.530533, y: 4.500001, z: 88.441536, w: 0.7978736}
  - {x: 24.731487, y: 4.500001, z: 88.80334, w: 0.5611331}
  - {x: 24.509447, y: 4.500001, z: 89.28714, w: 0.856304}
  - {x: 24.593552, y: 4.500001, z: 89.70623, w: 0.7337403}
  - {x: 24.57056, y: 4.5000005, z: 90.5686, w: 0.7490337}
  - {x: 24.603764, y: 4.5000005, z: 90.84774, w: 0.8089942}
  - {x: 24.451283, y: 4.5000005, z: 91.39697, w: 0.91485375}
  - {x: 24.609015, y: 4.5000005, z: 91.86298, w: 0.99667066}
  - {x: 24.624125, y: 4.5000005, z: 92.382545, w: 0.7326149}
  - {x: 24.475231, y: 4.5000005, z: 92.87446, w: 0.5700217}
  - {x: 24.524801, y: 4.5000005, z: 93.421265, w: 0.7027873}
  - {x: 24.470268, y: 4.5000005, z: 93.88529, w: 0.5054564}
  - {x: 24.485832, y: 4.5, z: 94.58918, w: 0.90471184}
  - {x: 24.719294, y: 4.5, z: 94.93629, w: 0.80508614}
  - {x: 24.529182, y: 4.5, z: 95.39579, w: 0.6677035}
  - {x: 24.55097, y: 4.5, z: 95.76809, w: 0.91048753}
  - {x: 25.00425, y: 4.5000024, z: 74.78648, w: 0.71164215}
  - {x: 24.908573, y: 4.5000024, z: 75.43343, w: 0.8546182}
  - {x: 25.001238, y: 4.5000024, z: 75.87403, w: 0.7835096}
  - {x: 25.031082, y: 4.5000024, z: 76.522644, w: 0.69311905}
  - {x: 24.997541, y: 4.5000024, z: 76.82989, w: 0.8278176}
  - {x: 25.251406, y: 4.5000024, z: 77.371796, w: 0.98139995}
  - {x: 25.07839, y: 4.5000024, z: 77.90489, w: 0.99013406}
  - {x: 25.019045, y: 4.500002, z: 78.521194, w: 0.82128555}
  - {x: 25.106646, y: 4.500002, z: 78.79282, w: 0.9477411}
  - {x: 25.139736, y: 4.500002, z: 79.478714, w: 0.72879946}
  - {x: 24.96829, y: 4.500002, z: 79.97092, w: 0.5454902}
  - {x: 25.001581, y: 4.5000014, z: 80.39762, w: 0.77366364}
  - {x: 25.06348, y: 4.500002, z: 80.68116, w: 0.5190159}
  - {x: 25.208721, y: 4.500002, z: 81.368935, w: 0.9714321}
  - {x: 25.218874, y: 4.500002, z: 81.89072, w: 0.5247783}
  - {x: 24.890652, y: 4.5000014, z: 82.205505, w: 0.90022975}
  - {x: 25.190323, y: 4.5000014, z: 82.85988, w: 0.6117045}
  - {x: 24.920406, y: 4.5000014, z: 83.38947, w: 0.6428069}
  - {x: 25.152395, y: 4.5000014, z: 83.91132, w: 0.53725135}
  - {x: 25.191868, y: 4.5000014, z: 84.55183, w: 0.5022512}
  - {x: 25.210634, y: 4.5000014, z: 84.80784, w: 0.76953256}
  - {x: 25.06044, y: 4.5000014, z: 85.48323, w: 0.95380986}
  - {x: 25.032427, y: 4.5000014, z: 85.61728, w: 0.65825653}
  - {x: 25.26418, y: 4.500001, z: 86.38666, w: 0.6533661}
  - {x: 25.183807, y: 4.500001, z: 86.818375, w: 0.7567731}
  - {x: 25.167442, y: 4.500001, z: 87.439285, w: 0.6039569}
  - {x: 25.150045, y: 4.500001, z: 87.80359, w: 0.60689133}
  - {x: 25.052866, y: 4.500001, z: 88.57992, w: 0.95619076}
  - {x: 25.082361, y: 4.500001, z: 88.98499, w: 0.6325952}
  - {x: 24.951008, y: 4.500001, z: 89.20726, w: 0.5247486}
  - {x: 25.177933, y: 4.5000005, z: 90.030655, w: 0.5730603}
  - {x: 25.18785, y: 4.5000005, z: 90.28599, w: 0.8929131}
  - {x: 25.117914, y: 4.5000005, z: 90.87603, w: 0.92507845}
  - {x: 24.96059, y: 4.5000005, z: 91.50932, w: 0.5208117}
  - {x: 24.803776, y: 4.5000005, z: 91.88112, w: 0.7125739}
  - {x: 25.014458, y: 4.5000005, z: 92.44282, w: 0.5320312}
  - {x: 25.087986, y: 4.5000005, z: 92.79796, w: 0.9826931}
  - {x: 24.977844, y: 4.5000005, z: 93.42283, w: 0.9906371}
  - {x: 24.979841, y: 4.5, z: 93.95528, w: 0.58946335}
  - {x: 24.872438, y: 4.5, z: 94.31601, w: 0.51691854}
  - {x: 25.149532, y: 4.4999995, z: 94.821205, w: 0.99648464}
  - {x: 25.119413, y: 4.5, z: 95.40709, w: 0.9496715}
  - {x: 24.953514, y: 4.5, z: 95.847595, w: 0.62598276}
  - {x: 25.034191, y: 4.5, z: 96.24069, w: 0.9123196}
  - {x: 25.549229, y: 4.500002, z: 75.46439, w: 0.8978539}
  - {x: 25.558739, y: 4.5000024, z: 75.93526, w: 0.5234931}
  - {x: 25.62231, y: 4.5000024, z: 76.45316, w: 0.74741447}
  - {x: 25.497961, y: 4.5000024, z: 76.75765, w: 0.53103006}
  - {x: 25.374817, y: 4.5000024, z: 77.38478, w: 0.8070226}
  - {x: 25.634157, y: 4.5000024, z: 77.76833, w: 0.8288465}
  - {x: 25.610615, y: 4.500002, z: 78.32889, w: 0.55682504}
  - {x: 25.552055, y: 4.500002, z: 78.94527, w: 0.6808171}
  - {x: 25.415438, y: 4.500002, z: 79.3017, w: 0.6644957}
  - {x: 25.52883, y: 4.500002, z: 79.70557, w: 0.8213607}
  - {x: 25.548645, y: 4.500002, z: 80.41604, w: 0.93001884}
  - {x: 25.589756, y: 4.500002, z: 80.70104, w: 0.93555796}
  - {x: 25.515072, y: 4.500002, z: 81.37892, w: 0.9763715}
  - {x: 25.452982, y: 4.500002, z: 81.81724, w: 0.7705916}
  - {x: 25.557333, y: 4.5000014, z: 82.37998, w: 0.9908363}
  - {x: 25.558155, y: 4.5000014, z: 82.72873, w: 0.62132233}
  - {x: 25.744753, y: 4.5000014, z: 83.48203, w: 0.5990886}
  - {x: 25.552568, y: 4.5000014, z: 83.77351, w: 0.73853874}
  - {x: 25.393291, y: 4.5000014, z: 84.465706, w: 0.5544141}
  - {x: 25.564636, y: 4.5000014, z: 84.99545, w: 0.5578822}
  - {x: 25.751554, y: 4.5000014, z: 85.36578, w: 0.76610005}
  - {x: 25.531979, y: 4.500001, z: 86.04085, w: 0.66892135}
  - {x: 25.612238, y: 4.500001, z: 86.45594, w: 0.9453762}
  - {x: 25.537176, y: 4.5000014, z: 86.89997, w: 0.6277596}
  - {x: 25.556126, y: 4.500001, z: 87.21624, w: 0.62734437}
  - {x: 25.499355, y: 4.5000005, z: 87.95949, w: 0.91258985}
  - {x: 25.644806, y: 4.500001, z: 88.23123, w: 0.77616775}
  - {x: 25.662315, y: 4.500001, z: 88.841194, w: 0.9993458}
  - {x: 25.441933, y: 4.500001, z: 89.44517, w: 0.5684153}
  - {x: 25.668745, y: 4.5000005, z: 89.941246, w: 0.85150796}
  - {x: 25.55027, y: 4.5000005, z: 90.54523, w: 0.84360963}
  - {x: 25.549147, y: 4.5, z: 91.02025, w: 0.6681912}
  - {x: 25.601156, y: 4.5000005, z: 91.45512, w: 0.9915615}
  - {x: 25.490334, y: 4.5000005, z: 91.66887, w: 0.5192299}
  - {x: 25.450089, y: 4.5000005, z: 92.40081, w: 0.53758603}
  - {x: 25.32492, y: 4.5000005, z: 92.86254, w: 0.96434873}
  - {x: 25.536848, y: 4.5000005, z: 93.26091, w: 0.93797076}
  - {x: 25.47422, y: 4.5000005, z: 93.85858, w: 0.81470186}
  - {x: 25.41952, y: 4.5, z: 94.34431, w: 0.8810413}
  - {x: 25.562012, y: 4.5, z: 94.939476, w: 0.93814194}
  - {x: 25.568794, y: 4.5000005, z: 95.11472, w: 0.593471}
  - {x: 25.749718, y: 4.5, z: 95.84083, w: 0.9016809}
  - {x: 25.467342, y: 4.5, z: 96.42558, w: 0.6980952}
  - {x: 26.052067, y: 4.5000024, z: 75.95054, w: 0.9302721}
  - {x: 26.176233, y: 4.5000024, z: 76.34501, w: 0.71491385}
  - {x: 25.958435, y: 4.5000024, z: 76.82553, w: 0.9862669}
  - {x: 26.09082, y: 4.5000024, z: 77.38037, w: 0.73702383}
  - {x: 26.079449, y: 4.5000024, z: 77.68498, w: 0.719725}
  - {x: 26.056562, y: 4.500002, z: 78.1284, w: 0.6000317}
  - {x: 25.906628, y: 4.500002, z: 78.79359, w: 0.85447687}
  - {x: 26.1037, y: 4.5000014, z: 79.36809, w: 0.6754503}
  - {x: 25.956121, y: 4.500002, z: 79.87941, w: 0.6920059}
  - {x: 25.900146, y: 4.500002, z: 80.411095, w: 0.5649216}
  - {x: 26.044884, y: 4.500002, z: 80.89787, w: 0.63060105}
  - {x: 26.143517, y: 4.500002, z: 81.478905, w: 0.8436695}
  - {x: 26.200945, y: 4.500002, z: 81.89251, w: 0.87741196}
  - {x: 26.035109, y: 4.5000014, z: 82.124596, w: 0.8196183}
  - {x: 26.078133, y: 4.5000014, z: 82.68561, w: 0.812042}
  - {x: 26.00362, y: 4.5000014, z: 83.20501, w: 0.7140517}
  - {x: 26.216368, y: 4.5000014, z: 83.896355, w: 0.8544923}
  - {x: 26.220242, y: 4.5000014, z: 84.44926, w: 0.741498}
  - {x: 26.236397, y: 4.5000014, z: 84.85615, w: 0.9127625}
  - {x: 26.014297, y: 4.5000014, z: 85.35825, w: 0.5978377}
  - {x: 26.067183, y: 4.500001, z: 85.9981, w: 0.9731251}
  - {x: 26.132488, y: 4.5000005, z: 86.44699, w: 0.9457868}
  - {x: 25.876942, y: 4.500001, z: 86.86157, w: 0.85508364}
  - {x: 26.24395, y: 4.500001, z: 87.3633, w: 0.65669453}
  - {x: 26.236681, y: 4.500001, z: 87.90216, w: 0.66540504}
  - {x: 26.251062, y: 4.500001, z: 88.322655, w: 0.8396486}
  - {x: 26.065924, y: 4.500001, z: 88.997375, w: 0.6111858}
  - {x: 26.101873, y: 4.500001, z: 89.52257, w: 0.84438974}
  - {x: 25.935394, y: 4.500001, z: 89.88907, w: 0.8281324}
  - {x: 26.05795, y: 4.5000005, z: 90.49982, w: 0.5688014}
  - {x: 25.806751, y: 4.5000005, z: 90.91192, w: 0.75285196}
  - {x: 25.945507, y: 4.5000005, z: 91.26801, w: 0.5330036}
  - {x: 26.09755, y: 4.5000005, z: 91.63458, w: 0.97216946}
  - {x: 25.98617, y: 4.500001, z: 92.397865, w: 0.55986047}
  - {x: 26.043121, y: 4.5000005, z: 93.049255, w: 0.9074702}
  - {x: 26.180975, y: 4.5, z: 93.15805, w: 0.61837065}
  - {x: 26.082968, y: 4.5000005, z: 93.868225, w: 0.67430246}
  - {x: 25.978018, y: 4.5, z: 94.237854, w: 0.80432916}
  - {x: 25.96411, y: 4.5, z: 94.71646, w: 0.8907126}
  - {x: 26.026909, y: 4.5, z: 95.209625, w: 0.9431268}
  - {x: 26.064075, y: 4.5, z: 95.882256, w: 0.6195975}
  - {x: 26.052027, y: 4.5, z: 96.41428, w: 0.8201594}
  - {x: 26.042938, y: 4.5, z: 96.696106, w: 0.6849382}
  - {x: 26.61648, y: 4.5000024, z: 76.24427, w: 0.64002895}
  - {x: 26.4171, y: 4.500002, z: 76.87258, w: 0.92840815}
  - {x: 26.592907, y: 4.5000024, z: 77.36652, w: 0.5686091}
  - {x: 26.325613, y: 4.5000024, z: 77.84113, w: 0.74402237}
  - {x: 26.68172, y: 4.500002, z: 78.46103, w: 0.52092695}
  - {x: 26.440323, y: 4.500002, z: 78.8109, w: 0.60485435}
  - {x: 26.548706, y: 4.500002, z: 79.21588, w: 0.9731831}
  - {x: 26.385443, y: 4.500002, z: 79.818436, w: 0.7897743}
  - {x: 26.520374, y: 4.500002, z: 80.37122, w: 0.8671062}
  - {x: 26.515429, y: 4.5000014, z: 80.983025, w: 0.8611286}
  - {x: 26.53844, y: 4.500002, z: 81.52614, w: 0.97096854}
  - {x: 26.536121, y: 4.5000014, z: 82.019615, w: 0.85018855}
  - {x: 26.536196, y: 4.5000014, z: 82.58703, w: 0.72108567}
  - {x: 26.376469, y: 4.5000014, z: 82.8916, w: 0.6906004}
  - {x: 26.507105, y: 4.5000014, z: 83.25097, w: 0.9320419}
  - {x: 26.51685, y: 4.5000014, z: 83.75771, w: 0.6364689}
  - {x: 26.62989, y: 4.5000014, z: 84.52485, w: 0.53173655}
  - {x: 26.512115, y: 4.5000014, z: 84.81143, w: 0.7280184}
  - {x: 26.60711, y: 4.5000014, z: 85.29188, w: 0.5102625}
  - {x: 26.56832, y: 4.5000014, z: 85.71453, w: 0.5000186}
  - {x: 26.504913, y: 4.500001, z: 86.46183, w: 0.65398574}
  - {x: 26.66362, y: 4.500001, z: 86.931946, w: 0.99679035}
  - {x: 26.58009, y: 4.500001, z: 87.525734, w: 0.6370925}
  - {x: 26.52035, y: 4.500001, z: 87.75711, w: 0.72181153}
  - {x: 26.582994, y: 4.500001, z: 88.359856, w: 0.7269733}
  - {x: 26.533524, y: 4.500001, z: 88.87769, w: 0.5390639}
  - {x: 26.585796, y: 4.500001, z: 89.3187, w: 0.94936514}
  - {x: 26.52481, y: 4.500001, z: 89.65746, w: 0.8578941}
  - {x: 26.684086, y: 4.5000005, z: 90.42916, w: 0.5471492}
  - {x: 26.521181, y: 4.5000005, z: 90.64437, w: 0.6178666}
  - {x: 26.576307, y: 4.5000005, z: 91.4412, w: 0.9091561}
  - {x: 26.655458, y: 4.5000005, z: 91.75488, w: 0.6114724}
  - {x: 26.490093, y: 4.5000005, z: 92.39192, w: 0.7552142}
  - {x: 26.617493, y: 4.5000005, z: 92.95065, w: 0.924288}
  - {x: 26.735275, y: 4.5000005, z: 93.376305, w: 0.86591613}
  - {x: 26.340405, y: 4.5000005, z: 93.88149, w: 0.85083616}
  - {x: 26.738955, y: 4.5, z: 94.36042, w: 0.8365739}
  - {x: 26.36858, y: 4.5, z: 94.893265, w: 0.5691913}
  - {x: 26.589443, y: 4.5, z: 95.28055, w: 0.8158747}
  - {x: 26.625454, y: 4.5, z: 95.78168, w: 0.51329476}
  - {x: 26.618717, y: 4.5, z: 96.38052, w: 0.5524389}
  - {x: 26.573229, y: 4.5, z: 97.038666, w: 0.8566417}
  - {x: 26.6697, y: 4.5, z: 97.400764, w: 0.8902196}
  - {x: 27.116156, y: 4.5000024, z: 76.87498, w: 0.81015325}
  - {x: 26.944407, y: 4.5000024, z: 77.236244, w: 0.84151334}
  - {x: 26.883879, y: 4.500002, z: 77.96297, w: 0.8474964}
  - {x: 27.053188, y: 4.500002, z: 78.52159, w: 0.9012405}
  - {x: 26.949848, y: 4.500002, z: 78.690956, w: 0.62167954}
  - {x: 27.191338, y: 4.500002, z: 79.3837, w: 0.57896084}
  - {x: 27.130194, y: 4.5000024, z: 80.04973, w: 0.59803164}
  - {x: 27.061153, y: 4.500002, z: 80.34388, w: 0.74798846}
  - {x: 26.936363, y: 4.500002, z: 80.9951, w: 0.64748824}
  - {x: 27.233994, y: 4.500002, z: 81.37738, w: 0.8688395}
  - {x: 27.013172, y: 4.5000024, z: 81.83401, w: 0.7908238}
  - {x: 26.9799, y: 4.5000014, z: 82.22599, w: 0.5765722}
  - {x: 27.017618, y: 4.5000014, z: 82.810036, w: 0.8602873}
  - {x: 27.03091, y: 4.5000014, z: 83.35719, w: 0.5036136}
  - {x: 27.13598, y: 4.5000014, z: 83.952194, w: 0.84652066}
  - {x: 27.058298, y: 4.5000014, z: 84.26624, w: 0.85790694}
  - {x: 27.208897, y: 4.5000014, z: 84.99067, w: 0.505681}
  - {x: 27.27681, y: 4.5000014, z: 85.411514, w: 0.72631586}
  - {x: 27.18206, y: 4.5000014, z: 85.88199, w: 0.8466268}
  - {x: 27.200731, y: 4.500001, z: 86.378944, w: 0.6888243}
  - {x: 27.265236, y: 4.5000014, z: 86.949646, w: 0.81824356}
  - {x: 27.112316, y: 4.500001, z: 87.34657, w: 0.8065393}
  - {x: 26.89249, y: 4.5000014, z: 87.850586, w: 0.70964944}
  - {x: 27.04364, y: 4.500001, z: 88.34825, w: 0.9926927}
  - {x: 27.210419, y: 4.500001, z: 88.92956, w: 0.9141953}
  - {x: 27.068186, y: 4.500001, z: 89.26023, w: 0.78330016}
  - {x: 27.156906, y: 4.5000005, z: 90.04753, w: 0.620655}
  - {x: 27.023682, y: 4.5000005, z: 90.22797, w: 0.7772957}
  - {x: 27.078678, y: 4.5000005, z: 90.883865, w: 0.8763145}
  - {x: 27.080217, y: 4.5000005, z: 91.33086, w: 0.63035417}
  - {x: 26.971003, y: 4.5000005, z: 91.95715, w: 0.56764716}
  - {x: 27.17598, y: 4.5000005, z: 92.34653, w: 0.9072397}
  - {x: 27.050386, y: 4.5000005, z: 92.81352, w: 0.8608672}
  - {x: 27.046135, y: 4.5000005, z: 93.52766, w: 0.8605307}
  - {x: 27.05038, y: 4.5000005, z: 93.920746, w: 0.6486975}
  - {x: 27.13129, y: 4.5, z: 94.44361, w: 0.7222191}
  - {x: 26.889309, y: 4.5, z: 94.91839, w: 0.869547}
  - {x: 27.105064, y: 4.5, z: 95.37876, w: 0.73504984}
  - {x: 27.02786, y: 4.5, z: 96.01144, w: 0.7590877}
  - {x: 26.94372, y: 4.4999995, z: 96.364075, w: 0.71594286}
  - {x: 27.037231, y: 4.5, z: 96.74161, w: 0.92287004}
  - {x: 27.008648, y: 4.5, z: 97.28467, w: 0.59342915}
  - {x: 26.851385, y: 4.4999995, z: 97.932, w: 0.7986053}
  - {x: 27.494764, y: 4.5000024, z: 77.88144, w: 0.75574493}
  - {x: 27.651323, y: 4.500002, z: 78.386215, w: 0.8394411}
  - {x: 27.439472, y: 4.500002, z: 78.8164, w: 0.6212183}
  - {x: 27.535975, y: 4.500002, z: 79.3318, w: 0.5334516}
  - {x: 27.506815, y: 4.500002, z: 79.84585, w: 0.7816}
  - {x: 27.534584, y: 4.500002, z: 80.55595, w: 0.74373484}
  - {x: 27.728828, y: 4.500002, z: 80.85018, w: 0.6657499}
  - {x: 27.689657, y: 4.500002, z: 81.39416, w: 0.5240606}
  - {x: 27.702703, y: 4.500002, z: 81.89214, w: 0.598658}
  - {x: 27.456808, y: 4.500001, z: 82.28365, w: 0.8245474}
  - {x: 27.550285, y: 4.5000014, z: 82.64713, w: 0.7191491}
  - {x: 27.430027, y: 4.5000014, z: 83.334496, w: 0.5364252}
  - {x: 27.55138, y: 4.5000014, z: 83.630135, w: 0.96755326}
  - {x: 27.394695, y: 4.5000014, z: 84.35275, w: 0.93556863}
  - {x: 27.547905, y: 4.5000014, z: 84.75664, w: 0.54792327}
  - {x: 27.550152, y: 4.5000014, z: 85.31985, w: 0.9289565}
  - {x: 27.66359, y: 4.5000014, z: 85.88976, w: 0.9768528}
  - {x: 27.540367, y: 4.500001, z: 86.438385, w: 0.82828814}
  - {x: 27.602283, y: 4.500001, z: 86.88105, w: 0.63859}
  - {x: 27.569584, y: 4.500001, z: 87.165146, w: 0.92751306}
  - {x: 27.471943, y: 4.5000014, z: 87.91982, w: 0.9929597}
  - {x: 27.539938, y: 4.5000014, z: 88.430786, w: 0.7040601}
  - {x: 27.718893, y: 4.5000014, z: 88.88801, w: 0.9245006}
  - {x: 27.427673, y: 4.500001, z: 89.17636, w: 0.966121}
  - {x: 27.52531, y: 4.5000005, z: 89.96876, w: 0.5441316}
  - {x: 27.603088, y: 4.5000005, z: 90.22909, w: 0.8456139}
  - {x: 27.36623, y: 4.5000005, z: 90.93577, w: 0.7022495}
  - {x: 27.72382, y: 4.5000005, z: 91.35421, w: 0.61046845}
  - {x: 27.699202, y: 4.5000005, z: 91.90481, w: 0.7726095}
  - {x: 27.574047, y: 4.5000005, z: 92.365105, w: 0.9181595}
  - {x: 27.661156, y: 4.5000005, z: 92.879105, w: 0.94396335}
  - {x: 27.571903, y: 4.5000005, z: 93.489044, w: 0.9552133}
  - {x: 27.368103, y: 4.5000005, z: 93.819084, w: 0.65497065}
  - {x: 27.450493, y: 4.5, z: 94.483376, w: 0.6457329}
  - {x: 27.555538, y: 4.5, z: 94.69966, w: 0.6644821}
  - {x: 27.457798, y: 4.5, z: 95.353806, w: 0.841536}
  - {x: 27.689474, y: 4.5, z: 95.88292, w: 0.6099038}
  - {x: 27.42475, y: 4.5, z: 96.21776, w: 0.86077726}
  - {x: 27.782938, y: 4.5, z: 96.85328, w: 0.5227683}
  - {x: 27.600418, y: 4.5, z: 97.3643, w: 0.6609312}
  - {x: 27.5651, y: 4.5, z: 97.869064, w: 0.981702}
  - {x: 27.744926, y: 4.4999995, z: 98.47869, w: 0.688277}
  - {x: 28.037254, y: 4.500002, z: 79.00908, w: 0.7221911}
  - {x: 28.178703, y: 4.500002, z: 79.3956, w: 0.75271773}
  - {x: 28.091946, y: 4.500002, z: 79.969406, w: 0.69765866}
  - {x: 28.043613, y: 4.5000024, z: 80.18946, w: 0.53874767}
  - {x: 28.085743, y: 4.500002, z: 80.94645, w: 0.7953299}
  - {x: 28.048744, y: 4.500002, z: 81.382324, w: 0.9065331}
  - {x: 28.112762, y: 4.500002, z: 81.880646, w: 0.97454596}
  - {x: 27.946817, y: 4.5000014, z: 82.429214, w: 0.5008875}
  - {x: 28.013802, y: 4.5000014, z: 82.671074, w: 0.8175356}
  - {x: 28.020466, y: 4.5000014, z: 83.273285, w: 0.5538621}
  - {x: 27.927237, y: 4.5000014, z: 83.92754, w: 0.92280453}
  - {x: 28.173048, y: 4.5000014, z: 84.504776, w: 0.6078863}
  - {x: 28.07985, y: 4.5000014, z: 84.95099, w: 0.97009546}
  - {x: 28.119246, y: 4.5000014, z: 85.41907, w: 0.60940677}
  - {x: 28.14788, y: 4.5000014, z: 85.85495, w: 0.9704604}
  - {x: 27.974379, y: 4.500001, z: 86.40683, w: 0.89303696}
  - {x: 27.997654, y: 4.500001, z: 86.79672, w: 0.8343801}
  - {x: 28.04669, y: 4.500001, z: 87.20693, w: 0.8326519}
  - {x: 28.072327, y: 4.500001, z: 87.68361, w: 0.92624086}
  - {x: 28.14642, y: 4.500001, z: 88.35776, w: 0.66605306}
  - {x: 28.22948, y: 4.500001, z: 88.76443, w: 0.8885111}
  - {x: 28.14179, y: 4.500001, z: 89.434906, w: 0.6609484}
  - {x: 28.04183, y: 4.5000005, z: 89.92942, w: 0.93489337}
  - {x: 28.031063, y: 4.500001, z: 90.5063, w: 0.88439995}
  - {x: 27.88224, y: 4.5000005, z: 90.7225, w: 0.51143456}
  - {x: 27.96479, y: 4.5000005, z: 91.47288, w: 0.580767}
  - {x: 28.110012, y: 4.5000005, z: 91.80568, w: 0.603269}
  - {x: 28.002138, y: 4.5000005, z: 92.27786, w: 0.6792785}
  - {x: 28.235561, y: 4.5000005, z: 92.97403, w: 0.99200237}
  - {x: 27.976364, y: 4.5000005, z: 93.32686, w: 0.6701387}
  - {x: 28.236736, y: 4.5, z: 93.96564, w: 0.8523721}
  - {x: 28.026741, y: 4.5, z: 94.31281, w: 0.8838934}
  - {x: 28.143896, y: 4.5, z: 94.788086, w: 0.5184789}
  - {x: 28.180698, y: 4.5, z: 95.51939, w: 0.76273704}
  - {x: 27.91364, y: 4.5, z: 96.02564, w: 0.7046504}
  - {x: 27.966251, y: 4.5, z: 96.35953, w: 0.6027738}
  - {x: 27.844694, y: 4.5, z: 96.87136, w: 0.5561746}
  - {x: 27.820606, y: 4.5, z: 97.380165, w: 0.6973504}
  - {x: 28.245377, y: 4.5, z: 97.86776, w: 0.80884504}
  - {x: 27.98671, y: 4.4999995, z: 98.577614, w: 0.9498475}
  - {x: 28.581465, y: 4.500002, z: 79.68199, w: 0.894782}
  - {x: 28.430954, y: 4.500002, z: 80.396484, w: 0.6676308}
  - {x: 28.61613, y: 4.500002, z: 80.936676, w: 0.6868814}
  - {x: 28.577993, y: 4.500002, z: 81.263466, w: 0.633616}
  - {x: 28.545406, y: 4.500002, z: 81.76822, w: 0.7799212}
  - {x: 28.472036, y: 4.5000014, z: 82.39866, w: 0.861072}
  - {x: 28.393118, y: 4.5000014, z: 82.78061, w: 0.630888}
  - {x: 28.541721, y: 4.5000014, z: 83.42688, w: 0.6448169}
  - {x: 28.553158, y: 4.5000014, z: 83.6405, w: 0.5368982}
  - {x: 28.728699, y: 4.5000014, z: 84.35255, w: 0.62923944}
  - {x: 28.792797, y: 4.5000014, z: 84.86355, w: 0.516206}
  - {x: 28.745146, y: 4.5000014, z: 85.34816, w: 0.5951181}
  - {x: 28.729885, y: 4.5000014, z: 85.86287, w: 0.88824457}
  - {x: 28.629444, y: 4.500001, z: 86.54942, w: 0.7553352}
  - {x: 28.558744, y: 4.500001, z: 86.75314, w: 0.97849536}
  - {x: 28.585823, y: 4.500001, z: 87.372986, w: 0.93619514}
  - {x: 28.541344, y: 4.500001, z: 88.06608, w: 0.9113386}
  - {x: 28.589987, y: 4.5000014, z: 88.38857, w: 0.51189595}
  - {x: 28.517735, y: 4.500001, z: 89.02221, w: 0.6120295}
  - {x: 28.581284, y: 4.500001, z: 89.39561, w: 0.87106484}
  - {x: 28.517624, y: 4.500001, z: 89.853325, w: 0.934875}
  - {x: 28.584465, y: 4.5000005, z: 90.429016, w: 0.5936853}
  - {x: 28.494892, y: 4.5000005, z: 90.98201, w: 0.68209195}
  - {x: 28.411041, y: 4.5000005, z: 91.36892, w: 0.6504556}
  - {x: 28.514553, y: 4.5000005, z: 91.840576, w: 0.80667865}
  - {x: 28.707104, y: 4.5000005, z: 92.354095, w: 0.9891112}
  - {x: 28.586731, y: 4.5000005, z: 92.67354, w: 0.7689315}
  - {x: 28.41873, y: 4.5000005, z: 93.551125, w: 0.86459994}
  - {x: 28.70485, y: 4.5, z: 93.991455, w: 0.77338886}
  - {x: 28.659554, y: 4.5, z: 94.44443, w: 0.66225445}
  - {x: 28.499172, y: 4.5, z: 95.04327, w: 0.7431828}
  - {x: 28.548462, y: 4.5000005, z: 95.14012, w: 0.592328}
  - {x: 28.433327, y: 4.5, z: 96.02557, w: 0.95272964}
  - {x: 28.37058, y: 4.5, z: 96.316414, w: 0.56264615}
  - {x: 28.746313, y: 4.5, z: 96.79225, w: 0.5358349}
  - {x: 28.549656, y: 4.5, z: 97.258156, w: 0.68142664}
  - {x: 28.420687, y: 4.5, z: 97.757286, w: 0.6834552}
  - {x: 28.696772, y: 4.5, z: 98.302956, w: 0.6564009}
  - {x: 29.001308, y: 4.5000014, z: 82.26026, w: 0.9982992}
  - {x: 28.992294, y: 4.5000014, z: 83.097244, w: 0.5008119}
  - {x: 29.02795, y: 4.5000014, z: 83.37734, w: 0.92562675}
  - {x: 28.91576, y: 4.5000014, z: 83.98712, w: 0.92765975}
  - {x: 29.009418, y: 4.500001, z: 84.27231, w: 0.7416817}
  - {x: 28.893661, y: 4.5000014, z: 84.80341, w: 0.6443111}
  - {x: 29.045635, y: 4.5000014, z: 85.584435, w: 0.7312565}
  - {x: 29.034513, y: 4.5000014, z: 85.67109, w: 0.8188978}
  - {x: 29.291761, y: 4.500001, z: 86.36751, w: 0.91948193}
  - {x: 29.013435, y: 4.5000014, z: 86.9428, w: 0.79567385}
  - {x: 28.91175, y: 4.5000014, z: 87.34331, w: 0.7762197}
  - {x: 29.09482, y: 4.500001, z: 87.8299, w: 0.67591965}
  - {x: 28.981173, y: 4.500001, z: 88.26562, w: 0.84490937}
  - {x: 28.999714, y: 4.500001, z: 88.856804, w: 0.5640916}
  - {x: 28.849052, y: 4.500001, z: 89.329, w: 0.68188775}
  - {x: 28.960346, y: 4.500001, z: 89.75944, w: 0.98803353}
  - {x: 29.095984, y: 4.5000005, z: 90.39054, w: 0.8808314}
  - {x: 29.002285, y: 4.5000005, z: 90.77016, w: 0.8813886}
  - {x: 29.236448, y: 4.5000005, z: 91.396286, w: 0.6291673}
  - {x: 29.103687, y: 4.5000005, z: 91.86934, w: 0.90987086}
  - {x: 29.09886, y: 4.5000005, z: 92.22293, w: 0.772755}
  - {x: 29.03734, y: 4.5000005, z: 92.793304, w: 0.8474516}
  - {x: 29.071793, y: 4.5000005, z: 93.43576, w: 0.9480128}
  - {x: 29.119, y: 4.5000005, z: 93.85981, w: 0.9650555}
  - {x: 29.057495, y: 4.5, z: 94.25452, w: 0.98125124}
  - {x: 29.056631, y: 4.5, z: 95.03082, w: 0.893523}
  - {x: 29.023024, y: 4.5, z: 95.180115, w: 0.57559294}
  - {x: 29.043222, y: 4.5, z: 95.7453, w: 0.6399789}
  - {x: 28.902346, y: 4.5, z: 96.4418, w: 0.8464456}
  - {x: 29.272905, y: 4.5, z: 96.876305, w: 0.8996989}
  - {x: 28.949245, y: 4.5000005, z: 97.40204, w: 0.67860675}
  - {x: 29.15487, y: 4.5, z: 97.81799, w: 0.5303004}
  - {x: 29.090843, y: 4.4999995, z: 98.3911, w: 0.7495687}
  - {x: 29.505226, y: 4.500001, z: 88.79726, w: 0.918236}
  - {x: 29.459352, y: 4.500001, z: 89.24727, w: 0.9969948}
  - {x: 29.398636, y: 4.500001, z: 89.84902, w: 0.94449246}
  - {x: 29.511152, y: 4.5000005, z: 90.17899, w: 0.9388786}
  - {x: 29.575855, y: 4.5000005, z: 90.653564, w: 0.7039983}
  - {x: 29.451492, y: 4.5000005, z: 91.34534, w: 0.8820332}
  - {x: 29.475893, y: 4.5000005, z: 91.97861, w: 0.752848}
  - {x: 29.326904, y: 4.5000005, z: 92.383514, w: 0.8108821}
  - {x: 29.53817, y: 4.5000005, z: 92.882225, w: 0.6234596}
  - {x: 29.413446, y: 4.5000005, z: 93.38746, w: 0.9108707}
  - {x: 29.596947, y: 4.5000005, z: 93.81254, w: 0.5222242}
  - {x: 29.560587, y: 4.5, z: 94.2736, w: 0.781546}
  - {x: 29.430859, y: 4.5, z: 94.8263, w: 0.5614719}
  - {x: 29.787865, y: 4.5, z: 95.36864, w: 0.8340911}
  - {x: 29.778221, y: 4.5, z: 95.9216, w: 0.546318}
  - {x: 29.589785, y: 4.5, z: 96.26018, w: 0.7506654}
  - {x: 29.379139, y: 4.4999995, z: 96.83015, w: 0.5548091}
  - {x: 29.534948, y: 4.5, z: 97.49605, w: 0.8633494}
  - {x: 29.38316, y: 4.5, z: 97.97368, w: 0.5894474}
  - {x: 29.493881, y: 4.4999995, z: 98.230835, w: 0.8386701}
  - {x: 30.054867, y: 4.5000005, z: 91.26658, w: 0.9350113}
  - {x: 30.128826, y: 4.5000005, z: 92.05345, w: 0.68968093}
  - {x: 30.208496, y: 4.5000005, z: 92.54848, w: 0.95097065}
  - {x: 30.03395, y: 4.5000005, z: 92.81417, w: 0.52611643}
  - {x: 29.970718, y: 4.5000005, z: 93.25077, w: 0.946719}
  - {x: 29.99262, y: 4.5, z: 93.98487, w: 0.5878537}
  - {x: 30.223452, y: 4.5, z: 94.25607, w: 0.6642841}
  - {x: 29.980352, y: 4.5, z: 94.83364, w: 0.6123772}
  - {x: 30.12992, y: 4.5, z: 95.417816, w: 0.59554607}
  - {x: 30.006384, y: 4.5, z: 95.742744, w: 0.9681159}
  - {x: 30.1084, y: 4.5, z: 96.23973, w: 0.5241839}
  - {x: 30.02658, y: 4.5, z: 96.62575, w: 0.91353047}
  - {x: 30.206343, y: 4.5, z: 97.26323, w: 0.73321843}
  - {x: 29.915035, y: 4.5, z: 97.67158, w: 0.93999654}
  - {x: 29.93149, y: 4.4999995, z: 98.34414, w: 0.8685059}
  - {x: 30.534819, y: 4.5, z: 93.94317, w: 0.85782045}
  - {x: 30.517649, y: 4.5, z: 94.393265, w: 0.6880683}
  - {x: 30.458073, y: 4.5, z: 94.78211, w: 0.9787276}
  - {x: 30.697086, y: 4.5, z: 95.36748, w: 0.9104793}
  - {x: 30.754324, y: 4.5, z: 95.93847, w: 0.71667993}
  - {x: 30.586464, y: 4.5, z: 96.35759, w: 0.84243804}
  - {x: 30.60661, y: 4.5, z: 96.74895, w: 0.7817993}
  - {x: 30.562305, y: 4.5, z: 97.225006, w: 0.8777814}
  - {x: 30.587488, y: 4.5, z: 97.97299, w: 0.8577591}
  - {x: 30.485611, y: 4.4999995, z: 98.52171, w: 0.9261415}
  - {x: 31.028605, y: 4.5, z: 96.492386, w: 0.9885496}
  - {x: 30.892117, y: 4.5, z: 96.986946, w: 0.76879144}
  - {x: 31.042263, y: 4.5, z: 97.239784, w: 0.8257664}
  - {x: 31.22853, y: 4.5, z: 97.83356, w: 0.9821018}
  - {x: 30.891172, y: 4.4999995, z: 98.20357, w: 0.7057525}
